# This file uses centimeters as units for non-parametric coordinates.

v -0.947069 2.351172 1.416649
v 0.631605 2.501483 1.501324
v 0.443003 2.280223 -0.299176
v -0.505786 2.241574 -0.351421
v -1.104533 -3.182915 -1.633337
v -1.241219 -1.784742 -2.190601
v 0.153263 -1.836213 -2.561976
v 0.420496 -2.883810 -1.701678
v -0.296158 -3.365521 -1.773625
v -0.551329 -1.855182 -2.684137
v -1.203833 -2.791920 -1.954259
v -0.415956 -3.008585 -2.408093
v 0.461640 -2.628934 -2.039735
v -0.177343 2.676953 1.750312
v -0.044580 2.273592 -0.405096
v 0.771755 2.605139 1.023905
v -0.147470 3.381470 1.073796
v -1.037760 2.527133 0.959663
v -1.141999 1.772839 1.610385
v -0.162665 1.858657 2.136405
v 0.916014 1.923067 1.698753
v 1.244739 1.954572 1.041281
v 0.560142 1.608967 -0.682196
v -0.105874 1.527346 -0.815029
v -0.795185 1.558076 -0.656634
v -1.421825 1.787126 1.012012
v 0.611854 -2.812253 -1.210814
v -0.255727 -3.333307 -0.982207
v -1.272984 -3.164272 -1.051520
v -1.567411 -2.654047 -1.296611
v -1.518204 -1.146385 -1.643490
v -0.482116 -1.056040 -2.276139
v 0.429707 -1.388878 -2.245249
v 0.833127 -2.440560 -1.569192
v -1.646134 -0.797016 1.910762
v -1.521857 -2.304056 1.207752
v 1.079027 -2.234254 1.008418
v 1.631850 -1.026326 1.939257
v -0.243658 -1.036017 2.694147
v -0.251474 -2.679362 1.566457
v -0.217804 0.504919 -1.341422
v -1.088850 0.625378 -1.046432
v 0.682659 0.541171 -1.200672
v 1.279127 1.047178 1.922902
v -0.158181 0.942930 2.427074
v -1.384114 0.920043 1.832024
v -1.822155 0.958205 1.102207
v 1.793411 1.129405 1.029809
v -2.137348 -0.695036 1.121821
v 2.216862 -0.919281 0.807722
v 1.530987 -1.043046 -1.205772
v 1.378970 0.831343 -0.656507
v 1.036189 1.808760 -0.250111
v 0.606256 2.513918 0.015983
v -0.060468 2.734570 -0.108746
v -0.753602 2.399894 -0.109569
v -1.194138 1.681597 -0.290672
v -1.562876 0.851928 -0.491762
v -1.974576 -0.895314 -0.735003
v 1.247427 -2.194501 -0.806900
v 1.507770 -1.973269 0.509360
v 0.802452 -2.626181 -0.492335
v -0.257426 -3.113105 -0.174651
v -1.419386 -2.973102 -0.278796
v -1.836464 -2.482346 -0.492435
v -1.888501 -2.064341 0.878613
v 0.782658 2.579065 0.395070
v 1.236552 1.873768 0.289484
v 1.787734 1.009305 0.033192
v 2.091937 -0.900331 -0.423512
v 1.475543 -2.025189 -0.100692
v 0.945583 -2.433475 0.280549
v -0.255832 -2.884622 0.660777
v -1.480400 -2.668032 0.506506
v -1.923727 -2.272134 0.308156
v -2.216862 -0.730736 0.185733
v -1.818373 0.949409 0.260633
v -1.446457 1.764157 0.305023
v -1.004630 2.521526 0.348916
v -0.131594 3.184141 0.308374
v 0.385637 -2.243048 -2.373411
v 0.784422 -1.987812 -2.009855
v 1.540378 -1.613222 -0.990237
v 1.844554 -1.506890 -0.350728
v 1.830745 -1.623339 0.631145
v 1.376197 -1.826031 1.518851
v -0.281330 -2.070427 2.450441
v -1.650055 -1.670938 1.667702
v -2.070914 -1.531116 1.011738
v -2.178566 -1.592423 0.215527
v -2.003605 -1.758748 -0.654395
v -1.656833 -1.987869 -1.484010
v -1.261620 -2.313759 -2.128057
v -0.525266 -2.550432 -2.694147
v 1.523226 0.019386 2.087790
v 2.206563 0.131592 0.961839
v 2.071510 0.052158 -0.218905
v 1.551067 -0.125746 -1.043427
v 0.602643 -0.381863 -1.681394
v -0.355929 -0.261583 -1.790602
v -1.345873 -0.164357 -1.342956
v -1.824555 -0.006140 -0.644259
v -2.105208 0.118117 0.218847
v -2.058274 0.160472 1.148559
v -1.560574 0.103366 1.931201
v -0.189071 -0.035248 2.628880
v 0.241342 2.276116 -0.370002
v 0.253141 1.539418 -0.790806
v 0.251952 0.547737 -1.286563
v 0.166543 -0.313335 -1.763130
v 0.023816 -1.187176 -2.315490
v -0.143914 -1.855294 -2.666286
v -0.001603 -2.421043 -2.628685
v 0.112803 -2.856392 -2.277584
v 0.161657 -3.114023 -1.739769
v 0.234729 -3.104444 -1.055293
v 0.297884 -2.911994 -0.282863
v 0.376309 -2.714813 0.535273
v 0.488915 -2.509728 1.389037
v 0.624311 -2.031669 2.196269
v 0.700401 -1.075626 2.562691
v 0.655605 -0.042101 2.556402
v 0.573917 0.966415 2.348474
v 0.455942 1.877378 2.040659
v 0.396353 2.589855 1.654790
v 0.467970 2.981704 1.087049
v 0.444236 2.954837 0.384823
v 0.342697 2.651814 -0.063350
v -0.680242 2.542069 1.601274
v -0.727767 1.808346 1.962254
v -0.823283 0.936140 2.232602
v -0.902806 0.027206 2.403028
v -0.995002 -0.921916 2.420813
v -1.074120 -1.872874 2.163901
v -1.007611 -2.545991 1.479754
v -0.908235 -2.873595 0.645226
v -0.853222 -3.152667 -0.172846
v -0.804496 -3.381470 -0.977236
v -0.808164 -3.332477 -1.742212
v -0.859715 -2.924181 -2.286487
v -0.888360 -2.491015 -2.523787
v -0.927308 -1.810326 -2.504269
v -0.952277 -1.018480 -2.108537
v -0.812723 -0.211488 -1.664773
v -0.616837 0.512020 -1.279598
v -0.413579 1.534629 -0.777519
v -0.268584 2.255139 -0.401505
v -0.380459 2.651433 -0.111988
v -0.604118 2.989483 0.325095
v -0.698368 3.012651 1.029810
vt 0.836830 0.360119
vt 0.838038 0.345494
vt 0.849284 0.345897
vt 0.850842 0.364775
vt 0.853754 0.175746
vt 0.855068 0.184356
vt 0.844697 0.185353
vt 0.843383 0.175749
vt 0.834442 0.184961
vt 0.834873 0.175389
vt 0.834926 0.168267
vt 0.841847 0.168504
vt 0.851160 0.167488
vt 0.861403 0.344324
vt 0.859494 0.037889
vt 0.856618 0.051498
vt 0.854774 0.062346
vt 0.846283 0.062228
vt 0.844683 0.050564
vt 0.839541 0.063562
vt 0.835337 0.052530
vt 0.835918 0.329801
vt 0.848163 0.328982
vt 0.874896 0.350590
vt 0.867542 0.343926
vt 0.872573 0.330915
vt 0.887075 0.335745
vt 0.846649 0.072769
vt 0.853083 0.072165
vt 0.853312 0.089117
vt 0.845852 0.089722
vt 0.809005 0.078520
vt 0.824185 0.056853
vt 0.830807 0.066534
vt 0.820776 0.084500
vt 0.861115 0.328937
vt 0.839403 0.089569
vt 0.841608 0.073116
vt 0.871412 0.079973
vt 0.861091 0.062535
vt 0.865921 0.054676
vt 0.881326 0.073526
vt 0.830255 0.344229
vt 0.825220 0.352774
vt 0.797099 0.070549
vt 0.824956 0.331879
vt 0.856942 0.194607
vt 0.845089 0.196606
vt 0.825736 0.176301
vt 0.827585 0.184343
vt 0.821684 0.191611
vt 0.810391 0.180690
vt 0.841565 0.158862
vt 0.834231 0.158204
vt 0.832573 0.144439
vt 0.842126 0.145111
vt 0.862672 0.175388
vt 0.859497 0.166751
vt 0.869595 0.164371
vt 0.875753 0.177472
vt 0.832929 0.195599
vt 0.851972 0.147777
vt 0.848784 0.159040
vt 0.811771 0.163985
vt 0.825193 0.167573
vt 0.861992 0.182556
vt 0.867217 0.189625
vt 0.858337 0.239648
vt 0.859123 0.255878
vt 0.842494 0.258444
vt 0.842660 0.240505
vt 0.826658 0.259089
vt 0.827452 0.241703
vt 0.844702 0.293443
vt 0.861156 0.292185
vt 0.861612 0.310894
vt 0.846620 0.311380
vt 0.832698 0.312374
vt 0.830172 0.294963
vt 0.857863 0.208874
vt 0.844317 0.210104
vt 0.830801 0.209433
vt 0.844724 0.112311
vt 0.836543 0.112152
vt 0.843156 0.128966
vt 0.833734 0.127896
vt 0.854122 0.110888
vt 0.853692 0.129508
vt 0.784919 0.086528
vt 0.819112 0.313590
vt 0.813465 0.101839
vt 0.799558 0.094485
vt 0.878178 0.312010
vt 0.898835 0.315066
vt 0.891409 0.092422
vt 0.878113 0.101206
vt 0.796729 0.298856
vt 0.814419 0.296601
vt 0.807230 0.119219
vt 0.791608 0.111016
vt 0.898150 0.112058
vt 0.882068 0.121742
vt 0.880359 0.291033
vt 0.918253 0.100144
vt 0.862587 0.130468
vt 0.862807 0.110355
vt 0.859772 0.086943
vt 0.857804 0.071170
vt 0.836071 0.072909
vt 0.831171 0.088813
vt 0.826304 0.109205
vt 0.821903 0.126023
vt 0.891969 0.151758
vt 0.904902 0.144424
vt 0.911437 0.156547
vt 0.895582 0.165001
vt 0.858249 0.224229
vt 0.843492 0.224945
vt 0.829134 0.225190
vt 0.870911 0.205494
vt 0.804503 0.203462
vt 0.795798 0.154641
vt 0.818174 0.207407
vt 0.873325 0.237660
vt 0.923842 0.151980
vt 0.895089 0.244739
vt 0.877491 0.251268
vt 0.803570 0.240383
vt 0.814973 0.241545
vt 0.812127 0.258163
vt 0.764940 0.138810
vt 0.774537 0.159392
vt 0.779992 0.145188
vt 0.873065 0.222551
vt 0.815791 0.225002
vt 0.854336 0.159137
vt 0.860164 0.152002
vt 0.885412 0.140766
vt 0.901502 0.131513
vt 0.924466 0.123178
vt 0.880970 0.269863
vt 0.860709 0.273890
vt 0.843166 0.276122
vt 0.828346 0.277276
vt 0.812415 0.277660
vt 0.793941 0.277474
vt 0.785546 0.127889
vt 0.801712 0.137122
vt 0.818339 0.146279
vt 0.826614 0.158179
vt 0.830570 0.039048
vt 0.807719 0.056891
vt 0.865416 0.357401
vt 0.844313 0.035126
vt 0.775361 0.102354
vt 0.768449 0.120325
vt 0.906029 0.289843
vt 0.904171 0.263651
vt 0.797676 0.255630
vt 0.924665 0.141548
vt 0.906050 0.079280
vt 0.802481 0.318349
vt 0.892226 0.062984
vt 0.813024 0.337448
vt 0.868874 0.041823
vt 0.818447 0.063348
vt 0.819750 0.044984
vt 0.871481 0.059445
vt 0.863879 0.064250
vt 0.828570 0.068773
vt 0.881000 0.050839
vt 0.802928 0.224078
vt 0.764063 0.151358
vt 0.888178 0.217939
vt 0.884425 0.200056
vt 0.790568 0.169907
vt 0.887457 0.233534
vn -0.619464 0.749393 0.233827
vn -0.501815 0.526730 0.686103
vn -0.062489 0.601479 0.796441
vn 0.003370 0.961125 0.276094
vn 0.490175 -0.621253 -0.611370
vn 0.514450 -0.825956 -0.230514
vn 0.187651 -0.949812 -0.250290
vn 0.072281 -0.731599 -0.677893
vn -0.259851 -0.926418 -0.272448
vn -0.473438 -0.627999 -0.617636
vn -0.585171 -0.215460 -0.781762
vn -0.088762 -0.289125 -0.953167
vn 0.365025 -0.265804 -0.892247
vn 0.358816 0.574667 0.735533
vn 0.540373 0.797575 0.268090
vn 0.548883 0.790662 -0.271260
vn 0.362373 0.655136 -0.662935
vn 0.057506 0.672040 -0.738279
vn 0.032835 0.929480 -0.367408
vn -0.346321 0.612759 -0.710343
vn -0.570778 0.748076 -0.338519
vn -0.443686 0.355524 0.822645
vn -0.077027 0.371940 0.925056
vn 0.791577 0.594609 0.140873
vn 0.679482 0.535273 0.501784
vn 0.664553 0.458645 0.589927
vn 0.821320 0.538740 0.187598
vn 0.021621 0.516125 -0.856240
vn 0.173847 0.522532 -0.834708
vn 0.129431 0.461243 -0.877783
vn -0.012933 0.465523 -0.884941
vn -0.862109 0.466011 -0.199001
vn -0.793004 0.553926 -0.253597
vn -0.598300 0.536475 -0.595174
vn -0.686660 0.472509 -0.552478
vn 0.305817 0.390605 0.868276
vn -0.189322 0.466964 -0.863772
vn -0.163283 0.507310 -0.846153
vn 0.614661 0.516493 -0.596177
vn 0.625000 0.578668 -0.523946
vn 0.777805 0.600895 -0.184242
vn 0.801337 0.557215 -0.217648
vn -0.756789 0.448749 0.475284
vn -0.841345 0.526421 0.122555
vn -0.876296 0.439859 0.196543
vn -0.732061 0.385895 0.561402
vn 0.502438 -0.860403 0.085223
vn 0.238692 -0.961877 0.133489
vn -0.795504 -0.411030 -0.445228
vn -0.659383 -0.701419 -0.270600
vn -0.648160 -0.760721 -0.034533
vn -0.877952 -0.396800 -0.267860
vn -0.156202 0.251023 -0.955295
vn -0.530848 0.229925 -0.815681
vn -0.462400 0.422025 -0.779796
vn -0.093923 0.491847 -0.865601
vn 0.730260 -0.480887 -0.485250
vn 0.684908 -0.172424 -0.707934
vn 0.777728 -0.159522 -0.608023
vn 0.792248 -0.516933 -0.324227
vn -0.154192 -0.979812 0.127254
vn 0.178300 0.465784 -0.866749
vn 0.175868 0.238423 -0.955105
vn -0.906636 -0.091585 -0.411853
vn -0.830487 -0.141205 -0.538843
vn 0.687856 -0.684813 -0.240593
vn 0.675651 -0.734864 -0.058905
vn 0.383019 -0.860435 0.336077
vn 0.407499 -0.582640 0.703189
vn -0.053659 -0.551153 0.832677
vn 0.022036 -0.894789 0.445945
vn -0.491870 -0.434875 0.754286
vn -0.374146 -0.795936 0.475921
vn -0.080140 0.120581 0.989463
vn 0.324456 0.102973 0.940279
vn 0.304120 0.273834 0.912428
vn -0.078376 0.253989 0.964026
vn -0.428954 0.257366 0.865887
vn -0.440550 0.128885 0.888428
vn 0.451176 -0.875315 0.173964
vn 0.205458 -0.945009 0.254452
vn -0.162453 -0.948325 0.272559
vn -0.022663 0.478495 -0.877798
vn -0.242279 0.476669 -0.845037
vn -0.044407 0.512309 -0.857652
vn -0.367791 0.469321 -0.802787
vn 0.133255 0.456314 -0.879784
vn 0.168592 0.477424 -0.862348
vn -0.901040 0.350755 0.255142
vn -0.713256 0.295447 0.635592
vn -0.759165 0.399855 -0.513600
vn -0.911321 0.374555 -0.170885
vn 0.678028 0.335483 0.654010
vn 0.880387 0.415761 0.228170
vn 0.856615 0.439803 -0.269785
vn 0.608812 0.429310 -0.667114
vn -0.936053 0.187211 0.297922
vn -0.724632 0.143850 0.673956
vn -0.844621 0.279028 -0.456901
vn -0.963310 0.227499 -0.142401
vn 0.928448 0.210233 -0.306245
vn 0.650296 0.277413 -0.707218
vn 0.715043 0.114287 0.689676
vn 0.958596 0.165217 0.231942
vn 0.463939 0.333508 -0.820690
vn 0.377827 0.423809 -0.823184
vn 0.382853 0.468957 -0.795929
vn 0.410548 0.527841 -0.743529
vn -0.360693 0.507007 -0.782844
vn -0.423030 0.467893 -0.775965
vn -0.506201 0.438756 -0.742465
vn -0.657571 0.360239 -0.661686
vn 0.825874 -0.290745 -0.483114
vn 0.867216 -0.457049 -0.197594
vn 0.728085 -0.684145 -0.042881
vn 0.775379 -0.600441 -0.195595
vn 0.398263 -0.899863 0.177858
vn 0.124341 -0.959366 0.253291
vn -0.226126 -0.924992 0.305380
vn 0.625078 -0.779504 0.040638
vn -0.890715 -0.445206 -0.091751
vn -0.954685 -0.113860 -0.274978
vn -0.605082 -0.783375 0.142123
vn 0.571819 -0.791837 0.214519
vn 0.689633 -0.719246 0.084208
vn 0.833186 -0.534342 0.142407
vn 0.683535 -0.572465 0.452839
vn -0.822950 -0.477686 0.307522
vn -0.632344 -0.643151 0.431855
vn -0.740620 -0.304885 0.598771
vn -0.926034 -0.200035 0.320074
vn -0.868868 -0.485098 0.098737
vn -0.987878 -0.150466 -0.038168
vn 0.567307 -0.817901 0.095924
vn -0.570429 -0.776646 0.267266
vn 0.509143 0.162313 -0.845239
vn 0.580099 0.201130 -0.789324
vn 0.720217 0.080510 -0.689062
vn 0.946098 -0.094151 -0.309893
vn 0.963488 -0.182210 0.196192
vn 0.750777 -0.217900 0.623581
vn 0.384174 -0.186367 0.904255
vn -0.077407 -0.118589 0.989922
vn -0.484554 -0.070571 0.871910
vn -0.745805 -0.044341 0.664687
vn -0.947396 0.000298 0.320065
vn -0.993496 0.054405 -0.100031
vn -0.914383 0.114757 -0.388244
vn -0.792954 0.200780 -0.575249
vn -0.771443 0.129825 -0.622913
s 1
f 150/1/1 129/2/2 14/3/3 17/4/4
f 114/5/5 115/6/6 9/7/7 12/8/8
f 139/9/9 140/10/10 12/8/8 9/7/7
f 140/10/10 141/11/11 94/12/12 12/8/8
f 113/13/13 114/5/5 12/8/8 94/12/12
f 125/14/14 126/153/15 17/4/4 14/3/3
f 127/16/16 128/17/17 55/18/18 80/19/19
f 148/20/20 149/21/21 80/19/19 55/18/18
f 14/3/3 129/2/2 130/22/22 20/23/23
f 16/24/24 2/25/25 21/26/26 22/27/27
f 15/28/28 107/29/29 108/30/30 24/31/31
f 78/32/32 79/166/33 56/170/34 57/35/35
f 124/36/36 125/14/14 14/3/3 20/23/23
f 146/37/37 147/38/38 15/28/28 24/31/31
f 53/39/39 54/169/40 67/168/41 68/42/42
f 1/43/43 18/44/44 26/164/45 19/46/46
f 9/7/7 115/6/6 116/47/47 28/48/48
f 11/49/49 5/50/50 29/51/51 30/52/52
f 10/53/53 142/54/54 143/55/55 32/56/56
f 13/57/57 81/58/58 82/59/59 34/60/60
f 138/61/61 139/9/9 9/7/7 28/48/48
f 111/62/62 112/63/63 10/53/53 32/56/56
f 92/64/64 93/65/65 11/49/49 30/52/52
f 8/66/66 13/57/57 34/60/60 27/67/67
f 119/68/68 120/69/69 87/70/70 40/71/71
f 40/71/71 87/70/70 134/72/72 135/73/73
f 106/74/74 122/75/75 123/76/76 45/77/77
f 45/77/77 131/78/78 132/79/79 106/74/74
f 116/47/47 117/80/80 63/81/81 28/48/48
f 63/81/81 137/82/82 138/61/61 28/48/48
f 24/31/31 41/83/83 145/84/84 146/37/37
f 41/83/83 100/85/85 144/86/86 145/84/84
f 108/30/30 109/87/87 41/83/83 24/31/31
f 109/87/87 110/88/88 100/85/85 41/83/83
f 45/77/77 123/76/76 124/36/36 20/23/23
f 130/22/22 131/78/78 45/77/77 20/23/23
f 26/164/45 47/162/89 46/90/90 19/46/46
f 57/35/35 58/91/91 77/92/92 78/32/32
f 44/93/93 48/94/94 22/27/27 21/26/26
f 68/42/42 69/95/95 52/96/96 53/39/39
f 104/97/97 105/98/98 46/90/90 47/162/89
f 58/91/91 102/99/99 103/100/100 77/92/92
f 69/95/95 97/101/101 98/102/102 52/96/96
f 48/94/94 44/93/93 95/103/103 96/157/104
f 52/96/96 98/102/102 99/105/105 43/106/106
f 53/39/39 52/96/96 43/106/106 23/107/107
f 3/108/108 54/169/40 53/39/39 23/107/107
f 15/28/28 55/18/18 128/17/17 107/29/29
f 147/38/38 148/20/20 55/18/18 15/28/28
f 57/35/35 56/170/34 4/109/109 25/110/110
f 42/111/111 58/91/91 57/35/35 25/110/110
f 101/112/112 102/99/99 58/91/91 42/111/111
f 83/113/113 84/114/114 71/115/115 60/116/116
f 60/116/116 34/60/60 82/59/59 83/113/113
f 63/81/81 117/80/80 118/117/117 73/118/118
f 73/118/118 136/119/119 137/82/82 63/81/81
f 27/67/67 34/60/60 60/175/116 62/120/120
f 65/176/121 91/122/122 92/64/64 30/52/52
f 64/123/123 65/121/121 30/52/52 29/51/51
f 37/124/124 61/177/125 85/126/126 86/127/127
f 66/128/128 36/129/129 88/130/130 89/159/131
f 75/132/132 90/133/133 91/122/122 65/176/121
f 71/174/115 72/134/134 62/120/120 60/175/116
f 74/135/135 75/172/132 65/121/121 64/123/123
f 68/42/42 67/168/41 16/171/24 22/163/27
f 48/161/94 69/95/95 68/42/42 22/163/27
f 96/104/104 97/101/101 69/95/95 48/161/94
f 61/125/125 71/115/115 84/114/114 85/160/126
f 61/177/125 37/124/124 72/134/134 71/174/115
f 73/118/118 118/117/117 119/68/68 40/71/71
f 135/73/73 136/119/119 73/118/118 40/71/71
f 66/128/128 75/172/132 74/135/135 36/129/129
f 89/131/131 90/133/133 75/132/132 66/173/128
f 77/92/92 103/100/100 104/155/97 47/89/89
f 78/32/32 77/92/92 47/89/89 26/45/45
f 18/152/44 79/166/33 78/32/32 26/45/45
f 149/21/21 150/151/1 17/154/4 80/19/19
f 126/15/15 127/16/16 80/19/19 17/154/4
f 82/59/59 81/58/58 7/136/136 33/137/137
f 83/113/113 82/59/59 33/137/137 51/138/138
f 70/139/139 84/114/114 83/113/113 51/138/138
f 85/160/126 84/114/114 70/139/139 50/140/140
f 86/127/127 85/126/126 50/158/140 38/141/141
f 120/69/69 121/142/142 39/143/143 87/70/70
f 133/144/144 134/72/72 87/70/70 39/143/143
f 89/159/131 88/130/130 35/145/145 49/146/146
f 49/156/146 76/147/147 90/133/133 89/131/131
f 91/122/122 90/133/133 76/147/147 59/148/148
f 92/64/64 91/122/122 59/148/148 31/149/149
f 6/150/150 93/65/65 92/64/64 31/149/149
f 10/53/53 94/12/12 141/11/11 142/54/54
f 112/63/63 113/13/13 94/12/12 10/53/53
f 96/157/104 95/103/103 38/141/141 50/158/140
f 50/140/140 70/139/139 97/101/101 96/104/104
f 98/102/102 97/101/101 70/139/139 51/138/138
f 99/105/105 98/102/102 51/138/138 33/137/137
f 100/85/85 110/88/88 111/62/62 32/56/56
f 143/55/55 144/86/86 100/85/85 32/56/56
f 31/149/149 59/148/148 102/99/99 101/112/112
f 103/100/100 102/99/99 59/148/148 76/147/147
f 104/155/97 103/100/100 76/147/147 49/156/146
f 35/145/145 105/98/98 104/97/97 49/146/146
f 106/74/74 132/79/79 133/144/144 39/143/143
f 121/142/142 122/75/75 106/74/74 39/143/143
f 108/30/30 107/29/29 3/108/108 23/107/107
f 23/107/107 43/106/106 109/87/87 108/30/30
f 43/106/106 99/105/105 110/88/88 109/87/87
f 111/62/62 110/88/88 99/105/105 33/137/137
f 7/136/136 112/63/63 111/62/62 33/137/137
f 81/58/58 113/13/13 112/63/63 7/136/136
f 13/57/57 114/5/5 113/13/13 81/58/58
f 8/66/66 115/6/6 114/5/5 13/57/57
f 116/47/47 115/6/6 8/66/66 27/67/67
f 27/67/67 62/120/120 117/80/80 116/47/47
f 118/117/117 117/80/80 62/120/120 72/134/134
f 119/68/68 118/117/117 72/134/134 37/124/124
f 86/127/127 120/69/69 119/68/68 37/124/124
f 38/141/141 121/142/142 120/69/69 86/127/127
f 38/141/141 95/103/103 122/75/75 121/142/142
f 123/76/76 122/75/75 95/103/103 44/93/93
f 124/36/36 123/76/76 44/93/93 21/26/26
f 2/25/25 125/14/14 124/36/36 21/26/26
f 16/24/24 126/153/15 125/14/14 2/25/25
f 67/41/41 127/16/16 126/15/15 16/165/24
f 54/40/40 128/17/17 127/16/16 67/41/41
f 107/29/29 128/17/17 54/40/40 3/108/108
f 130/22/22 129/2/2 1/43/43 19/46/46
f 19/46/46 46/90/90 131/78/78 130/22/22
f 132/79/79 131/78/78 46/90/90 105/98/98
f 133/144/144 132/79/79 105/98/98 35/145/145
f 88/130/130 134/72/72 133/144/144 35/145/145
f 135/73/73 134/72/72 88/130/130 36/129/129
f 36/129/129 74/135/135 136/119/119 135/73/73
f 137/82/82 136/119/119 74/135/135 64/123/123
f 138/61/61 137/82/82 64/123/123 29/51/51
f 5/50/50 139/9/9 138/61/61 29/51/51
f 11/49/49 140/10/10 139/9/9 5/50/50
f 93/65/65 141/11/11 140/10/10 11/49/49
f 142/54/54 141/11/11 93/65/65 6/150/150
f 143/55/55 142/54/54 6/150/150 31/149/149
f 101/112/112 144/86/86 143/55/55 31/149/149
f 145/84/84 144/86/86 101/112/112 42/111/111
f 146/37/37 145/84/84 42/111/111 25/110/110
f 4/109/109 147/38/38 146/37/37 25/110/110
f 56/34/34 148/20/20 147/38/38 4/109/109
f 79/33/33 149/21/21 148/20/20 56/34/34
f 18/167/44 150/151/1 149/21/21 79/33/33
f 1/43/43 129/2/2 150/1/1 18/44/44
