# This file uses centimeters as units for non-parametric coordinates.

v -3.022035 -1.193704 1.889068
v -2.702935 0.752265 1.839917
v -2.693586 1.049049 -0.298880
v -3.334430 -0.987498 -0.274223
v -2.991752 1.007836 0.893155
v -3.543351 -1.282978 0.823044
v 1.077522 3.748631 1.376391
v 0.998605 4.071649 -0.408916
v -0.196385 4.151477 -0.480136
v -0.060891 3.797844 1.444948
v 0.532579 3.794564 1.514135
v 0.412537 4.188931 -0.539291
v 1.269317 4.172439 0.493855
v 0.457825 4.630779 0.626761
v -0.436450 4.326349 0.625854
v 0.925736 -4.422296 -0.056370
v 0.700095 -4.133310 -1.554909
v 2.086081 -3.552907 -1.868335
v 2.745573 -3.635066 -0.333052
v 0.752263 -4.483644 -0.856856
v 2.529767 -3.801116 -1.221355
v 1.880582 -4.393444 -0.149056
v 1.715360 -4.585509 -1.115544
v 1.323118 -4.065168 -1.838861
v 2.925842 -3.254193 -0.011190
v 1.832549 -4.080954 0.454713
v 0.460162 -4.149440 0.452405
v -0.042808 -4.088470 -0.555261
v 0.014672 -3.680877 -1.590355
v 1.025235 -3.425550 -2.154326
v 2.160549 -3.037363 -2.022867
v 2.847634 -3.064415 -1.157248
v 3.055765 -2.818172 0.429187
v 1.725635 -3.582665 1.256074
v -0.221231 -3.610942 1.223526
v -1.019199 -3.494892 -0.144026
v -0.917922 -2.999453 -1.603513
v 0.701374 -2.707365 -2.500312
v 2.262179 -2.334270 -2.209620
v 3.135708 -2.388180 -1.042917
v -2.403518 -1.721183 2.027631
v -2.110572 1.046729 2.065751
v -2.296108 1.599984 0.805243
v -2.044122 1.554910 -0.913509
v -2.883470 -1.348189 -0.639215
v -2.918548 -1.926499 0.629051
v -1.191001 -2.601621 2.090066
v -1.172133 1.547377 2.342243
v -1.741015 2.307810 0.743224
v -1.429446 2.035185 -1.317081
v -2.024850 -1.995687 -1.516417
v -2.049507 -2.692213 0.297182
v -0.278596 3.235646 1.726033
v 0.685655 3.039748 1.985707
v 1.482924 3.237477 1.579618
v 1.836569 3.464687 0.352790
v 1.269747 3.534939 -0.757928
v 0.366272 3.465832 -1.113488
v -0.503312 3.618023 -0.739016
v -1.001315 3.636836 0.628940
v 2.414029 -1.544884 -2.405479
v 3.509058 -1.665377 -0.912735
v 0.407926 -1.907193 -2.965511
v 1.578033 -2.847136 2.269290
v 3.304392 -2.205943 0.979830
v -2.903215 0.899344 1.375924
v -2.251456 1.386053 1.429860
v -1.607015 2.029102 1.476089
v -0.779293 3.485861 1.203996
v -0.264737 4.069889 1.127868
v 0.465950 4.266382 1.132594
v 1.191372 3.984861 1.036557
v 1.800752 3.378202 1.001654
v 3.586693 -1.912557 0.039108
v 3.243246 -2.569326 -0.302703
v 2.964788 -3.179858 -0.596110
v 2.658839 -3.814769 -0.866624
v 1.796921 -4.575339 -0.782009
v 0.826496 -4.491375 -0.458190
v 0.119900 -4.160177 -0.010587
v -0.761566 -3.601982 0.552775
v -1.778547 -2.757782 1.114743
v -2.701196 -1.961186 1.344620
v -3.306110 -1.306253 1.452732
v 2.325450 2.600677 0.185339
v 2.376295 2.572439 0.951600
v 2.098039 2.536192 1.740870
v 0.921102 2.065180 2.557550
v -0.652595 2.456869 2.029832
v -1.190053 2.780227 1.352841
v -1.378642 2.976885 0.675592
v -0.935552 2.842671 -1.039670
v 0.282054 2.635752 -1.850665
v 1.709056 2.818271 -1.148992
v 0.235362 2.248013 -2.438109
v 2.119777 2.056380 -1.621013
v 2.861562 1.731930 -0.042128
v 3.045285 1.726961 0.894541
v 2.841394 1.835230 1.952392
v 1.057476 1.506854 2.922015
v 0.207425 2.284752 2.406427
v 0.004828 1.570979 2.824779
v 0.265457 -2.910889 2.430511
v 0.729368 -3.659114 1.436290
v 1.054107 -4.170967 0.566060
v 1.368515 -4.476773 -0.090479
v 1.317856 -4.630779 -0.700074
v 1.277540 -4.589959 -1.013357
v 0.957130 -4.129001 -1.688060
v 0.444986 -3.576389 -1.930423
v -0.185357 -2.883903 -2.210922
v -0.798224 -2.056947 -2.539373
v -0.303010 2.788196 -1.506418
v 0.932574 2.800078 -1.597264
v 1.283056 2.199447 -2.193282
v 1.534794 -1.699562 -2.878820
v 1.543728 -2.496392 -2.481986
v 1.625934 -3.222227 -2.175656
v 1.731525 -3.864645 -1.872360
v 2.192878 -4.297505 -1.209666
v 2.319493 -4.282122 -0.864093
v 2.411345 -4.055515 -0.224388
v 2.534403 -3.637980 0.331929
v 2.527797 -3.193368 0.985847
v 2.636084 -2.572446 1.789297
v 2.014502 1.673985 2.652686
v 1.446958 2.349080 2.274724
v -3.537986 -1.144855 0.160598
v -2.996145 -1.708786 -0.044358
v -2.164722 -2.455112 -0.498512
v -1.103357 -3.281547 -0.856333
v -0.078191 -3.931254 -1.109661
v 0.670500 -4.329457 -1.231139
v 1.135432 -4.470583 -1.342752
v 1.556970 -4.430543 -1.450347
v 2.015004 -4.157089 -1.542902
v 2.338046 -3.695402 -1.589402
v 2.575643 -3.002975 -1.651746
v 2.795683 -2.284230 -1.702034
v 3.087551 -1.533381 -1.744533
v 2.521904 1.875582 -0.820154
v 2.116030 2.687309 -0.501131
v 1.669463 3.515856 -0.263524
v 1.150410 4.162299 -0.103661
v 0.439587 4.558464 -0.099257
v -0.407358 4.326528 -0.035321
v -0.951887 3.675796 -0.040103
v -1.341020 3.007453 -0.136918
v -1.743203 2.308873 -0.175753
v -2.263400 1.662701 0.050402
v -2.894597 1.078124 0.315874
v -0.701571 2.159349 -1.996891
v -2.149033 -0.280548 2.619756
v -1.173561 -0.428456 3.106419
v 0.051442 -0.534139 3.449179
v 1.414135 -0.572629 3.463735
v 2.903650 -0.475497 3.158798
v 3.856735 -0.229787 2.023904
v 3.900035 -0.002435 0.661836
v 3.782465 0.225993 -0.518676
v 3.319577 0.407332 -1.572906
v 2.526109 0.423308 -2.372842
v 1.472199 0.389897 -3.006708
v 0.188513 0.350863 -3.278689
v -1.141502 0.261177 -2.945324
v -2.045829 0.172331 -2.053336
v -2.635614 0.159158 -1.217628
v -3.282214 0.748635 0.903919
v -3.173351 0.781298 0.277431
v -2.853240 0.777424 -0.377625
v -2.367601 0.911074 -1.101806
v -1.813063 1.177012 -1.850382
v -1.051445 1.391398 -2.701997
v 0.180491 1.359672 -2.939871
v 1.389323 1.344759 -2.688795
v 2.393265 1.243084 -2.061500
v 2.984367 1.060106 -1.297783
v 3.346822 1.000511 -0.296070
v 3.562969 0.912671 0.788937
v 3.571796 0.939557 2.135542
v 2.538224 0.765963 3.055421
v 1.255865 0.603423 3.327649
v 0.006948 0.604478 3.294945
v -1.168653 0.678076 2.878042
v -2.103854 0.545901 2.415374
v -2.811815 0.517699 1.983257
v -3.114162 0.689623 1.434539
v -3.009645 -0.846574 2.124377
v -2.212301 -1.150465 2.451854
v -1.195120 -1.555564 2.856240
v 0.111077 -1.774670 3.191484
v 1.513666 -1.839573 3.115807
v 2.894179 -1.739347 2.660470
v 3.640762 -1.325215 1.577003
v 3.854490 -1.043728 0.384223
v 3.855408 -0.788388 -0.758114
v 3.327981 -0.601948 -1.733309
v 2.533892 -0.581885 -2.495081
v 1.585251 -0.688323 -3.188951
v 0.235613 -0.869681 -3.463735
v -1.087876 -0.975833 -2.891732
v -2.137872 -0.958463 -1.947690
v -2.825938 -0.756438 -1.008309
v -3.309816 -0.523512 -0.427871
v -3.755506 -0.521797 0.139796
v -3.900035 -0.620327 0.933836
v -3.539006 -0.718152 1.587875
v -2.952945 -0.106230 2.169231
v -3.461776 0.080118 1.609638
v -3.730638 0.212926 0.946748
v -3.562223 0.251261 0.172614
v -3.132995 0.192798 -0.484851
vt 0.833758 0.797925
vt 0.841255 0.790292
vt 0.849535 0.801462
vt 0.841829 0.809561
vt 0.849651 0.782375
vt 0.858452 0.793468
vt 0.734605 0.736802
vt 0.729303 0.726051
vt 0.745966 0.717850
vt 0.749300 0.729717
vt 0.718971 0.745101
vt 0.712213 0.734499
vt 0.708052 0.721622
vt 0.722344 0.714110
vt 0.788786 0.702493
vt 0.737169 0.956572
vt 0.737342 0.949374
vt 0.749522 0.952788
vt 0.748053 0.959133
vt 0.746751 0.966636
vt 0.735895 0.964463
vt 0.759125 0.955584
vt 0.756665 0.961515
vt 0.755283 0.968980
vt 0.752335 0.940615
vt 0.738225 0.936069
vt 0.739297 0.923087
vt 0.757842 0.928848
vt 0.767728 0.964452
vt 0.770881 0.955510
vt 0.908544 0.878573
vt 0.916862 0.869669
vt 0.744370 0.977905
vt 0.753212 0.979158
vt 0.971228 0.760409
vt 0.974569 0.747038
vt 0.725115 0.953982
vt 0.693856 0.944117
vt 0.686467 0.930405
vt 0.698152 0.926268
vt 0.926144 0.861863
vt 0.764334 0.973177
vt 0.711714 0.923985
vt 0.725826 0.945283
vt 0.776346 0.931189
vt 0.763852 0.943591
vt 0.978443 0.733989
vt 0.734547 0.974982
vt 0.745220 0.908952
vt 0.766013 0.912219
vt 0.887626 0.866687
vt 0.898844 0.853745
vt 0.951299 0.762978
vt 0.957998 0.743004
vt 0.677679 0.916094
vt 0.692697 0.911679
vt 0.910732 0.841559
vt 0.708949 0.909237
vt 0.789659 0.910912
vt 0.964506 0.725287
vt 0.829320 0.776133
vt 0.823963 0.782627
vt 0.811960 0.774009
vt 0.818045 0.763544
vt 0.856918 0.810758
vt 0.865110 0.802647
vt 0.875370 0.810898
vt 0.866368 0.822229
vt 0.828202 0.753956
vt 0.835419 0.768617
vt 0.854888 0.831807
vt 0.848407 0.818109
vt 0.797542 0.763712
vt 0.806037 0.750522
vt 0.856194 0.754643
vt 0.862412 0.740459
vt 0.879946 0.754964
vt 0.868858 0.766566
vt 0.893058 0.821012
vt 0.879762 0.837275
vt 0.820874 0.739094
vt 0.863475 0.851662
vt 0.794226 0.803083
vt 0.809526 0.799189
vt 0.816485 0.815478
vt 0.804006 0.825372
vt 0.896726 0.774135
vt 0.879115 0.783846
vt 0.742508 0.764979
vt 0.737903 0.747592
vt 0.752656 0.739123
vt 0.761391 0.750411
vt 0.706056 0.770425
vt 0.691147 0.770837
vt 0.826077 0.685245
vt 0.716848 0.704609
vt 0.706804 0.713909
vt 0.665036 0.765501
vt 0.798316 0.716377
vt 0.786015 0.727188
vt 0.721514 0.768749
vt 0.723039 0.752931
vt 0.812374 0.702616
vt 0.729215 0.698959
vt 0.677271 0.769953
vt 0.774344 0.737715
vt 0.796120 0.738731
vt 0.809761 0.727238
vt 0.785887 0.750492
vt 0.669637 0.899680
vt 0.687439 0.895289
vt 0.657387 0.837691
vt 0.677431 0.835338
vt 0.678804 0.854722
vt 0.658460 0.855958
vt 0.682680 0.876151
vt 0.662191 0.879055
vt 0.949542 0.714393
vt 0.940426 0.737090
vt 0.929767 0.762983
vt 0.921433 0.725591
vt 0.910388 0.750807
vt 0.890860 0.735855
vt 0.900959 0.712940
vt 0.931382 0.701080
vt 0.910676 0.690086
vt 0.871989 0.723193
vt 0.882065 0.703470
vt 0.890277 0.681887
vt 0.773727 0.889456
vt 0.802061 0.884158
vt 0.748889 0.891099
vt 0.706537 0.893365
vt 0.703104 0.874507
vt 0.699331 0.853378
vt 0.773054 0.865584
vt 0.748037 0.870152
vt 0.744379 0.846894
vt 0.767425 0.841345
vt 0.796875 0.858305
vt 0.787147 0.834219
vt 0.760059 0.819172
vt 0.777801 0.812185
vt 0.740025 0.824248
vt 0.696547 0.833667
vt 0.818676 0.789477
vt 0.807569 0.786913
vt 0.788862 0.782620
vt 0.774142 0.765343
vt 0.718273 0.829560
vt 0.721009 0.850880
vt 0.724222 0.872056
vt 0.726095 0.907885
vt 0.726448 0.891991
vt 0.724387 0.920149
vt 0.724654 0.931791
vt 0.773323 0.945940
vt 0.789497 0.934783
vt 0.812172 0.911951
vt 0.838550 0.869049
vt 0.840625 0.836987
vt 0.840546 0.822194
vt 0.826191 0.806209
vt 0.834343 0.817684
vt 0.700845 0.791465
vt 0.684838 0.792494
vt 0.718357 0.788568
vt 0.670165 0.791135
vt 0.848152 0.677283
vt 0.868991 0.676198
vt 0.863001 0.695610
vt 0.849050 0.691350
vt 0.663236 0.813118
vt 0.679641 0.815387
vt 0.697405 0.813829
vt 0.717048 0.808594
vt 0.749002 0.787543
vt 0.753557 0.800267
vt 0.736431 0.804136
vt 0.735953 0.785976
vt 0.759328 0.777062
vt 0.768993 0.791555
vt 0.817747 0.846801
vt 0.759381 0.979750
vt 0.935468 0.855497
vt 0.925265 0.832595
vt 0.910127 0.796819
vt 0.838212 0.701856
vt 0.827641 0.714746
vt 0.848543 0.658943
vt 0.644990 0.809834
vt 0.638651 0.835248
vt 0.636572 0.859392
vt 0.940890 0.679774
vt 0.972531 0.710574
vt 0.959360 0.695842
vt 0.983448 0.722701
vt 0.724691 0.972217
vt 0.870553 0.796101
vt 0.882219 0.798180
vt 0.842969 0.728419
vt 0.843737 0.744535
vt 0.843516 0.761895
vt 0.858563 0.775104
vt 0.866894 0.787234
vt 0.852694 0.712476
vt 0.827730 0.830223
vt 0.840916 0.773908
vt 0.833957 0.781073
vt 0.848798 0.765962
vt 0.820807 0.794696
vt 0.827215 0.786861
vt 0.642166 0.885899
vt 0.918551 0.667148
vt 0.897283 0.659725
vt 0.873180 0.656666
vt 0.680832 0.752243
vt 0.811690 0.667695
vt 0.673191 0.752227
vt 0.807080 0.680401
vt 0.655456 0.785974
vt 0.826966 0.664880
vt 0.710063 0.752328
vt 0.695044 0.752057
vt 0.653397 0.908581
vt 0.665841 0.925021
vt 0.677500 0.937538
vt 0.991436 0.741048
vt 0.991280 0.731153
vt 0.987390 0.758639
vt 0.989834 0.750547
vt 0.724576 0.963548
vt 0.703194 0.942045
vt 0.711529 0.939080
vt 0.685539 0.946117
vt 0.738282 0.705798
vt 0.774058 0.713897
vt 0.762470 0.726878
vt 0.801071 0.694239
vt 0.936498 0.875975
vt 0.985349 0.764341
vt 0.942505 0.870969
vt 0.924414 0.887824
vt 0.930964 0.882522
vt 0.946028 0.783673
vt 0.878206 0.882902
vt 0.969849 0.772260
vt 0.902757 0.889146
vt 0.917622 0.893273
vn -0.787012 0.271741 0.553867
vn -0.919905 0.371768 0.124750
vn -0.987997 -0.090918 0.124882
vn -0.832450 -0.133611 0.537751
vn -0.859796 0.380051 -0.341047
vn -0.936352 -0.002643 -0.351053
vn 0.088126 0.791772 0.604426
vn 0.086984 0.976153 0.198896
vn -0.536365 0.817166 0.211074
vn -0.422032 0.676038 0.604038
vn 0.559671 0.702201 0.440093
vn 0.634500 0.767532 0.091123
vn 0.594079 0.759473 -0.265088
vn 0.074452 0.963484 -0.257207
vn -0.536604 0.809123 -0.239534
vn 0.595688 -0.706077 -0.382897
vn 0.662114 -0.749215 0.016768
vn 0.355186 -0.927784 0.114279
vn 0.257363 -0.921004 -0.292430
vn 0.129994 -0.784261 -0.606661
vn 0.449583 -0.609030 -0.653420
vn -0.019403 -0.992070 0.124176
vn -0.140150 -0.972405 -0.186513
vn -0.198624 -0.861948 -0.466471
vn 0.380213 -0.856389 0.349337
vn 0.646686 -0.712816 0.271460
vn 0.640323 -0.650809 0.407962
vn 0.352322 -0.791166 0.499925
vn -0.401933 -0.908295 -0.115979
vn -0.306821 -0.944555 0.116951
vn -0.419499 -0.893936 0.157792
vn -0.514119 -0.853939 -0.080438
vn 0.001030 -0.565700 -0.824610
vn -0.242071 -0.639891 -0.729343
vn -0.291393 -0.567091 -0.770388
vn -0.047637 -0.459038 -0.887138
vn 0.813510 -0.411613 -0.410824
vn 0.689498 -0.384334 -0.613906
vn 0.751056 -0.288128 -0.594052
vn 0.870199 -0.314684 -0.379115
vn -0.534301 -0.780268 -0.325121
vn -0.440381 -0.825567 -0.352852
vn 0.919015 -0.373017 -0.127553
vn 0.867120 -0.481399 -0.127895
vn 0.036844 -0.868309 0.494654
vn 0.074254 -0.927464 0.366466
vn 0.221064 -0.362932 -0.905213
vn 0.255228 -0.467639 -0.846270
vn 0.604286 -0.656715 0.451180
vn 0.312863 -0.765262 0.562575
vn -0.494138 -0.834542 0.243655
vn -0.588208 -0.807994 -0.034015
vn -0.354245 -0.563066 -0.746637
vn -0.049173 -0.479864 -0.875964
vn 0.750679 -0.304132 -0.586502
vn 0.870780 -0.347530 -0.347800
vn -0.614782 -0.730348 -0.297716
vn 0.907605 -0.413907 -0.070245
vn -0.025941 -0.819683 0.572230
vn 0.261570 -0.389790 -0.882975
vn -0.648445 0.749327 0.134265
vn -0.586452 0.719220 0.372554
vn -0.603770 0.668229 0.434664
vn -0.706227 0.690539 0.156205
vn -0.810042 -0.582645 0.066012
vn -0.823277 -0.494039 -0.279535
vn -0.735606 -0.621310 -0.269921
vn -0.685698 -0.727417 0.026140
vn -0.747597 0.649000 -0.141064
vn -0.698736 0.705609 -0.117832
vn -0.603581 -0.723959 0.334026
vn -0.718384 -0.584190 0.377685
vn -0.647033 0.567810 0.508863
vn -0.808269 0.565592 0.163727
vn -0.776004 0.423544 -0.467363
vn -0.725336 0.429780 -0.537752
vn -0.751304 0.112159 -0.650356
vn -0.807040 0.178771 -0.562786
vn -0.688577 -0.666954 -0.284666
vn -0.639827 -0.768517 0.002065
vn -0.796013 0.566260 -0.213807
vn -0.544965 -0.779946 0.307729
vn -0.361723 0.324474 0.873998
vn -0.457227 0.344631 0.819862
vn -0.452883 0.041670 0.890596
vn -0.351217 -0.017624 0.936128
vn -0.720551 -0.194543 -0.665552
vn -0.805019 -0.120340 -0.580915
vn 0.060426 0.539738 0.839662
vn 0.063433 0.581490 0.811077
vn -0.244850 0.555369 0.794741
vn -0.315767 0.509820 0.800234
vn 0.754730 0.598512 0.268637
vn 0.814676 0.579109 -0.030605
vn 0.000821 0.644538 -0.764572
vn 0.046652 0.690948 -0.721398
vn 0.396012 0.659063 -0.639383
vn 0.450545 0.635859 -0.626652
vn -0.776356 0.574932 -0.258311
vn -0.797526 0.573072 0.188526
vn 0.475877 0.596079 0.646708
vn 0.379758 0.607116 0.697993
vn -0.486275 0.591185 -0.643457
vn -0.356205 0.667069 -0.654321
vn 0.755449 0.584192 -0.296676
vn -0.626001 0.530834 0.571261
vn -0.847431 0.503728 0.167684
vn -0.809327 0.527413 -0.258506
vn -0.666306 0.503045 0.550438
vn 0.765412 -0.243390 -0.595740
vn 0.897568 -0.310366 -0.313122
vn 0.768254 0.528861 -0.360683
vn 0.833935 0.523864 -0.173549
vn 0.944988 0.257958 -0.201137
vn 0.812255 0.288954 -0.506702
vn 0.962075 -0.080352 -0.260681
vn 0.807342 -0.022494 -0.589655
vn 0.321110 -0.341419 -0.883358
vn -0.071821 -0.435892 -0.897129
vn -0.446940 -0.471321 -0.760329
vn -0.086866 -0.136569 -0.986815
vn -0.501318 -0.204101 -0.840847
vn -0.498549 0.120914 -0.858387
vn -0.058172 0.190866 -0.979891
vn 0.357975 -0.045641 -0.932615
vn 0.342943 0.242018 -0.907644
vn -0.472767 0.441237 -0.762759
vn -0.030072 0.417895 -0.907998
vn 0.347392 0.415971 -0.840409
vn 0.239977 -0.690659 0.682203
vn -0.109756 -0.691247 0.714235
vn 0.573211 -0.645259 0.505045
vn 0.924230 -0.381686 -0.010734
vn 0.981326 -0.191598 0.017032
vn 0.991539 0.129681 0.005859
vn 0.177665 -0.451904 0.874196
vn 0.563713 -0.461400 0.685083
vn 0.525054 -0.084913 0.846822
vn 0.124861 -0.087418 0.988316
vn -0.129006 -0.421347 0.897677
vn -0.137672 -0.056773 0.988850
vn 0.080402 0.256218 0.963269
vn -0.165304 0.275196 0.947070
vn 0.416296 0.315262 0.852823
vn 0.892763 0.449882 -0.024071
vn -0.533714 0.634594 0.558963
vn -0.515638 0.574093 0.636031
vn -0.431342 0.511787 0.742979
vn -0.403261 0.508296 0.760930
vn 0.806745 0.403082 0.432074
vn 0.915468 0.000468 0.402391
vn 0.890009 -0.341413 0.302193
vn 0.823750 -0.520366 0.225067
vn 0.830743 -0.502726 0.239022
vn 0.855582 -0.484058 0.183488
vn 0.840706 -0.528895 0.116121
vn -0.182230 -0.937609 0.296110
vn -0.242086 -0.896448 0.371182
vn -0.323091 -0.825675 0.462463
vn -0.391517 -0.682380 0.617310
vn -0.510502 -0.597535 0.618336
vn -0.603585 -0.499715 0.621265
vn -0.576799 0.142044 0.804442
vn -0.583380 -0.172752 0.793615
vn 0.780892 0.615333 0.107582
vn 0.828374 0.546661 -0.122307
vn 0.560188 0.657637 0.503689
vn 0.790141 0.544549 -0.281326
vn 0.233200 0.707202 -0.667446
vn 0.345185 0.602649 -0.719487
vn -0.040334 0.640919 -0.766548
vn -0.067293 0.743923 -0.664868
vn 0.780941 0.557071 -0.282495
vn 0.804254 0.568530 -0.173058
vn 0.797453 0.603329 -0.008005
vn 0.644372 0.644188 0.412076
vn 0.051998 0.535834 0.842721
vn 0.050932 0.471626 0.880327
vn 0.318540 0.557094 0.766928
vn 0.258081 0.590145 0.764934
vn -0.154384 0.514308 0.843595
vn -0.199906 0.472903 0.858138
vn -0.355452 -0.390727 0.849110
vn -0.404752 -0.707108 -0.579805
vn -0.472675 -0.681158 -0.559108
vn -0.554440 -0.635126 -0.537783
vn -0.670885 -0.490346 -0.556304
vn -0.322032 0.664493 -0.674347
vn -0.604658 0.586832 -0.538533
vn 0.559599 0.644382 -0.521173
vn 0.632469 0.581976 -0.511163
vn 0.622645 0.464960 -0.629384
vn 0.610592 0.249529 -0.751607
vn 0.622963 -0.010160 -0.782185
vn 0.545913 -0.315165 -0.776305
vn 0.595518 -0.241243 -0.766263
vn 0.513654 -0.301145 -0.803412
vn 0.486327 -0.356962 -0.797536
vn -0.768709 -0.335473 -0.544559
vn -0.772205 -0.414627 -0.481440
vn -0.673576 0.597009 -0.435748
vn -0.745749 0.572072 -0.341456
vn -0.736988 0.601189 -0.308902
vn -0.788458 0.281290 -0.547000
vn -0.800323 0.007725 -0.599520
vn -0.441008 0.656438 -0.612047
vn -0.459075 -0.311379 0.832042
vn -0.749813 0.609561 -0.257325
vn -0.753601 0.649564 0.100760
vn -0.755405 0.487880 -0.437419
vn -0.549367 0.415332 0.725048
vn -0.682373 0.569549 0.458237
s 1
f 209/1/1 210/2/2 206/3/3 207/4/4
f 206/3/3 210/2/2 211/5/5 205/6/6
f 71/7/7 14/8/8 15/9/9 70/10/10
f 14/8/8 71/7/7 72/11/11 13/12/12
f 144/13/13 145/14/14 14/8/8 13/12/12
f 15/9/9 14/8/8 145/14/14 146/236/15
f 120/16/16 121/17/17 78/18/18 23/19/19
f 135/20/20 136/21/21 120/16/16 23/19/19
f 23/19/19 78/18/18 107/22/22 108/23/23
f 134/24/24 135/20/20 23/19/19 108/23/23
f 22/25/25 122/26/26 123/27/27 26/28/28
f 20/244/29 79/243/30 80/31/31 28/32/32
f 24/231/33 109/230/34 110/35/35 30/36/36
f 21/233/37 137/38/38 138/39/39 32/40/40
f 132/41/41 133/240/42 20/244/29 28/32/32
f 76/43/43 77/234/44 21/233/37 32/40/40
f 105/45/45 106/46/46 22/25/25 26/28/28
f 118/47/47 119/228/48 24/231/33 30/36/36
f 26/28/28 123/27/27 124/49/49 34/50/50
f 28/32/32 80/31/31 81/51/51 36/52/52
f 30/36/36 110/35/35 111/53/53 38/54/54
f 32/40/40 138/39/39 139/55/55 40/56/56
f 131/57/57 132/41/41 28/32/32 36/52/52
f 75/58/58 76/43/43 32/40/40 40/56/56
f 104/59/59 105/45/45 26/28/28 34/50/50
f 117/60/60 118/47/47 30/36/36 38/54/54
f 5/61/61 66/62/62 67/63/63 43/64/64
f 6/65/65 128/66/66 129/67/67 46/68/68
f 150/69/69 151/70/70 5/61/61 43/64/64
f 83/71/71 84/72/72 6/65/65 46/68/68
f 43/64/64 67/63/63 68/73/73 49/74/74
f 171/75/75 172/76/76 166/77/77 167/78/78
f 46/68/68 129/67/67 130/79/79 52/80/80
f 149/81/81 150/69/69 43/64/64 49/74/74
f 82/82/82 83/71/71 46/68/68 52/80/80
f 184/83/83 185/84/84 153/85/85 154/86/86
f 202/87/87 203/88/88 167/78/78 166/77/77
f 52/80/80 36/52/52 81/51/51 82/82/82
f 130/79/79 131/57/57 36/52/52 52/80/80
f 54/89/89 11/90/90 10/91/91 53/92/92
f 13/224/12 72/223/11 73/93/93 56/94/94
f 58/95/95 12/220/96 8/218/97 57/222/98
f 15/237/9 146/15/15 147/99/99 60/100/100
f 11/90/90 54/89/89 55/101/101 7/102/102
f 12/220/96 58/95/95 59/103/103 9/239/104
f 143/105/105 144/217/13 13/224/12 56/94/94
f 69/106/106 70/238/10 15/237/9 60/100/100
f 91/107/107 148/108/108 149/81/81 49/74/74
f 90/109/109 91/107/107 49/74/74 68/73/73
f 139/55/55 140/110/110 62/111/111 40/56/56
f 177/112/112 178/113/113 160/114/114 161/115/115
f 196/116/116 197/117/117 161/115/115 160/114/114
f 116/118/118 117/60/60 38/54/54 63/119/119
f 38/54/54 111/53/53 112/120/120 63/119/119
f 200/121/121 201/122/122 165/123/123 164/124/124
f 199/125/125 200/121/121 164/124/124 163/126/126
f 173/127/127 174/128/128 164/124/124 165/123/123
f 164/124/124 174/128/128 175/129/129 163/126/126
f 34/50/50 64/130/130 103/131/131 104/59/59
f 34/50/50 124/49/49 125/132/132 64/130/130
f 74/133/133 75/58/58 40/56/56 62/111/111
f 195/134/134 196/116/116 160/114/114 159/135/135
f 192/136/136 193/137/137 157/138/138 156/139/139
f 191/140/140 192/136/136 156/139/139 155/141/141
f 182/142/142 183/143/143 155/141/141 156/139/139
f 181/144/144 182/142/142 156/139/139 157/138/138
f 178/113/113 179/145/145 159/135/135 160/114/114
f 67/63/63 66/62/62 2/146/146 42/147/147
f 68/73/73 67/63/63 42/147/147 48/148/148
f 68/73/73 48/148/148 89/149/149 90/109/109
f 10/91/91 70/238/10 69/106/106 53/92/92
f 10/91/91 11/90/90 71/7/7 70/10/10
f 71/7/7 11/90/90 7/102/102 72/11/11
f 73/93/93 72/223/11 7/102/102 55/101/101
f 179/145/145 180/150/150 158/151/151 159/135/135
f 158/151/151 194/152/152 195/134/134 159/135/135
f 33/153/153 75/58/58 74/133/133 65/154/154
f 25/155/155 76/43/43 75/58/58 33/153/153
f 19/156/156 77/234/44 76/43/43 25/155/155
f 121/17/17 122/26/26 22/25/25 78/18/18
f 106/46/46 107/22/22 78/18/18 22/25/25
f 80/31/31 79/243/30 16/249/157 27/248/158
f 81/51/51 80/31/31 27/248/158 35/246/159
f 82/82/82 81/51/51 35/246/159 47/160/160
f 41/161/161 83/71/71 82/82/82 47/160/160
f 1/162/162 84/72/72 83/71/71 41/161/161
f 208/163/163 209/1/1 207/4/4 188/164/164
f 73/93/93 86/165/165 85/166/166 56/94/94
f 55/101/101 87/167/167 86/165/165 73/93/93
f 90/109/109 89/149/149 53/92/92 69/106/106
f 60/100/100 91/107/107 90/109/109 69/106/106
f 147/99/99 148/108/108 91/107/107 60/100/100
f 85/166/166 142/168/168 143/105/105 56/94/94
f 114/169/169 115/170/170 95/171/171 93/172/172
f 141/173/173 142/168/168 85/166/166 97/174/174
f 98/175/175 97/174/174 85/166/166 86/165/165
f 99/176/176 98/175/175 86/165/165 87/167/167
f 88/177/177 100/178/178 126/179/179 127/180/180
f 88/177/177 101/181/181 102/182/182 100/178/178
f 53/92/92 89/149/149 101/181/181 54/89/89
f 102/182/182 101/181/181 89/149/149 48/148/148
f 183/143/143 184/83/83 154/86/86 155/141/141
f 190/183/183 191/140/140 155/141/141 154/86/86
f 104/59/59 103/131/131 47/160/160 35/159/159
f 27/158/158 105/45/45 104/59/59 35/159/159
f 16/157/157 106/46/46 105/45/45 27/158/158
f 79/30/30 107/22/22 106/46/46 16/157/157
f 108/23/23 107/22/22 79/30/30 20/29/29
f 133/42/42 134/24/24 108/23/23 20/29/29
f 110/35/35 109/230/34 17/241/184 29/247/185
f 111/53/53 110/35/35 29/247/185 37/245/186
f 112/120/120 111/53/53 37/245/186 51/187/187
f 201/122/122 202/87/87 166/77/77 165/123/123
f 172/76/76 173/127/127 165/123/123 166/77/77
f 58/95/95 113/188/188 92/189/189 59/103/103
f 94/190/190 114/169/169 58/95/95 57/222/98
f 94/190/190 96/216/191 115/170/170 114/169/169
f 175/129/129 176/215/192 162/214/193 163/126/126
f 198/194/194 199/125/125 163/126/126 162/214/193
f 39/195/195 117/60/60 116/118/118 61/196/196
f 31/197/197 118/47/47 117/60/60 39/195/195
f 18/229/198 119/228/48 118/47/47 31/197/197
f 21/37/37 120/16/16 136/21/21 137/232/38
f 77/44/44 121/17/17 120/16/16 21/37/37
f 19/156/156 122/26/26 121/17/17 77/44/44
f 123/27/27 122/26/26 19/156/156 25/155/155
f 124/49/49 123/27/27 25/155/155 33/153/153
f 125/132/132 124/49/49 33/153/153 65/154/154
f 193/137/137 194/152/152 158/151/151 157/138/138
f 180/150/150 181/144/144 157/138/138 158/151/151
f 127/180/180 126/179/179 99/176/176 87/167/167
f 54/89/89 127/180/180 87/167/167 55/101/101
f 129/67/67 128/66/66 4/199/199 45/200/200
f 130/79/79 129/67/67 45/200/200 51/187/187
f 51/187/187 37/186/186 131/57/57 130/79/79
f 29/185/185 132/41/41 131/57/57 37/186/186
f 17/242/184 133/240/42 132/41/41 29/185/185
f 109/34/34 134/24/24 133/42/42 17/184/184
f 24/33/33 135/20/20 134/24/24 109/34/34
f 119/48/48 136/21/21 135/20/20 24/33/33
f 137/232/38 136/21/21 119/48/48 18/198/198
f 138/39/39 137/38/38 18/235/198 31/227/197
f 139/55/55 138/39/39 31/227/197 39/226/195
f 39/226/195 61/225/196 140/110/110 139/55/55
f 197/117/117 198/213/194 162/193/193 161/115/115
f 176/192/192 177/112/112 161/115/115 162/193/193
f 94/221/190 142/168/168 141/173/173 96/191/191
f 143/105/105 142/168/168 94/221/190 57/98/98
f 8/219/97 144/217/13 143/105/105 57/98/98
f 8/97/97 12/96/96 145/14/14 144/13/13
f 145/14/14 12/96/96 9/104/104 146/236/15
f 147/99/99 146/15/15 9/239/104 59/103/103
f 59/103/103 92/189/189 148/108/108 147/99/99
f 149/81/81 148/108/108 92/189/189 50/201/201
f 44/202/202 150/69/69 149/81/81 50/201/201
f 3/203/203 151/70/70 150/69/69 44/202/202
f 205/6/6 211/5/5 212/204/204 204/205/205
f 152/206/206 113/188/188 93/172/172 95/171/171
f 50/201/201 92/189/189 113/188/188 152/206/206
f 114/169/169 93/172/172 113/188/188 58/95/95
f 101/181/181 88/177/177 127/180/180 54/89/89
f 189/207/207 190/183/183 154/86/86 153/85/85
f 169/208/208 168/209/209 5/61/61 151/70/70
f 3/203/203 170/210/210 169/208/208 151/70/70
f 171/75/75 170/210/210 3/203/203 44/202/202
f 172/76/76 171/75/75 44/202/202 50/201/201
f 173/127/127 172/76/76 50/201/201 152/206/206
f 174/128/128 173/127/127 152/206/206 95/171/171
f 175/129/129 174/128/128 95/171/171 115/170/170
f 96/216/191 176/215/192 175/129/129 115/170/170
f 141/173/173 177/112/112 176/192/192 96/191/191
f 178/113/113 177/112/112 141/173/173 97/174/174
f 179/145/145 178/113/113 97/174/174 98/175/175
f 180/150/150 179/145/145 98/175/175 99/176/176
f 126/179/179 181/144/144 180/150/150 99/176/176
f 100/178/178 182/142/142 181/144/144 126/179/179
f 183/143/143 182/142/142 100/178/178 102/182/182
f 48/148/148 184/83/83 183/143/143 102/182/182
f 42/147/147 185/84/84 184/83/83 48/148/148
f 2/146/146 186/211/211 185/84/84 42/147/147
f 66/62/62 187/212/212 186/211/211 2/146/146
f 168/209/209 187/212/212 66/62/62 5/61/61
f 189/207/207 188/164/164 1/162/162 41/161/161
f 190/183/183 189/207/207 41/161/161 47/160/160
f 47/160/160 103/131/131 191/140/140 190/183/183
f 192/136/136 191/140/140 103/131/131 64/130/130
f 64/130/130 125/132/132 193/137/137 192/136/136
f 194/152/152 193/137/137 125/132/132 65/154/154
f 65/154/154 74/133/133 195/134/134 194/152/152
f 196/116/116 195/134/134 74/133/133 62/111/111
f 62/111/111 140/110/110 197/117/117 196/116/116
f 198/213/194 197/117/117 140/110/110 61/225/196
f 61/196/196 116/118/118 199/125/125 198/194/194
f 200/121/121 199/125/125 116/118/118 63/119/119
f 112/120/120 201/122/122 200/121/121 63/119/119
f 202/87/87 201/122/122 112/120/120 51/187/187
f 45/200/200 203/88/88 202/87/87 51/187/187
f 4/199/199 204/205/205 203/88/88 45/200/200
f 128/66/66 205/6/6 204/205/205 4/199/199
f 6/65/65 206/3/3 205/6/6 128/66/66
f 84/72/72 207/4/4 206/3/3 6/65/65
f 1/162/162 188/164/164 207/4/4 84/72/72
f 186/211/211 187/212/212 209/1/1 208/163/163
f 187/212/212 168/209/209 210/2/2 209/1/1
f 211/5/5 210/2/2 168/209/209 169/208/208
f 212/204/204 211/5/5 169/208/208 170/210/210
f 204/205/205 212/204/204 167/78/78 203/88/88
f 171/75/75 167/78/78 212/204/204 170/210/210
f 208/163/163 153/85/85 185/84/84 186/211/211
f 188/164/164 189/207/207 153/85/85 208/163/163
