# This file uses centimeters as units for non-parametric coordinates.

v 0.253026 0.146827 -3.929408
v 1.471828 -0.138764 -3.693041
v 1.184851 -1.246572 -2.922997
v 0.126640 -1.291163 -3.070450
v 0.919392 0.151931 -3.982985
v 0.635909 -1.296664 -3.072465
v 1.567301 -0.749051 -3.339621
v 0.817704 -0.668965 -3.836813
v 0.054872 -0.609981 -3.822845
v -1.245649 -0.076764 3.827599
v -1.229589 -1.108390 3.139674
v -0.305845 -1.243020 3.276429
v -0.239687 0.050611 3.960271
v -0.739970 0.090661 4.008467
v -0.744242 -1.264359 3.245128
v -1.382924 -0.595580 3.559928
v -0.817623 -0.700130 3.825789
v -0.222994 -0.652089 3.802393
v 1.780825 2.623876 -0.162905
v 0.569145 2.746058 -0.318491
v 0.263348 2.769374 1.094232
v 1.292336 2.482326 1.526477
v 1.178768 2.792245 -0.252163
v 0.777286 2.722877 1.360850
v 1.277239 1.781651 2.054734
v 2.137333 1.982257 -0.638737
v 1.174931 2.271632 -0.981138
v 0.188852 2.248279 -0.975512
v -0.381015 2.292529 1.424917
v 0.415841 2.145310 1.998484
v -0.411350 -2.463702 -0.821567
v 0.576690 -2.572879 -0.704472
v 0.378244 -3.001128 0.681718
v -0.674825 -2.802396 0.615532
v 0.048588 -2.535201 -0.809811
v -0.146611 -2.969754 0.665919
v -1.074598 -2.525474 1.028864
v -0.596524 -2.194512 -1.192213
v 0.190790 -2.273835 -1.243229
v 1.009594 -2.348323 -0.907428
v 0.638189 -2.757487 1.334429
v -0.246770 -2.774125 1.334557
v -0.065711 0.851960 -3.215716
v 1.005650 0.881429 -3.129910
v 1.919653 0.483998 -2.871520
v 1.930820 -0.736876 -2.906317
v 1.262566 -1.446551 -2.514135
v 0.483800 -1.562922 -2.583095
v -0.318932 -1.478002 -2.591244
v -0.719959 -0.511424 -3.403838
v 1.121275 -1.873548 -1.706442
v 0.337255 -1.882821 -1.923693
v -0.397395 -1.815820 -1.924659
v 0.184582 1.543609 -2.013708
v 1.106800 1.509652 -1.949320
v 2.014799 1.251285 -1.678200
v 0.215272 0.408864 3.580750
v -0.477699 0.699286 3.442299
v -1.283426 0.686013 3.177910
v -1.815193 -0.456086 3.262578
v -1.434525 -1.367705 2.693798
v -0.665146 -1.623246 2.846121
v 0.062319 -1.554198 2.954438
v 0.314093 -0.644290 3.577398
v -0.056476 1.374160 2.723473
v 0.674891 1.070682 2.866829
v -0.780924 1.481267 2.355215
v 0.335565 -2.160792 2.241068
v -0.438408 -2.248393 2.141062
v -1.230639 -2.054467 1.926466
v -2.281199 -1.443984 0.961993
v -1.697398 -1.502986 -1.470222
v -1.353946 1.351022 -1.557873
v -1.900376 1.309648 1.143894
v -2.301491 -0.196502 -1.790303
v -2.809871 -0.158986 1.123082
v -1.760147 0.966971 2.182751
v -2.384791 -0.291877 2.338486
v -2.008063 -1.284301 2.002024
v -1.247686 -1.874839 -1.294913
v -1.768834 -2.002671 0.967291
v -0.687330 1.821494 -1.205091
v -1.216161 1.857636 1.136076
v -1.292700 1.469213 1.896315
v -1.740203 -1.739886 1.696867
v -0.856112 1.097541 -2.411427
v -1.538587 -0.339450 -2.676038
v -1.124393 -1.451175 -2.118614
v -0.475616 1.486728 -1.931324
v -0.947868 -1.712546 -1.808897
v 0.325356 -0.179980 3.746329
v -0.229984 -0.317405 3.971463
v -0.813890 -0.391124 4.021386
v -1.342847 -0.365161 3.718357
v -1.781394 0.040080 3.356586
v -2.236738 0.345128 2.368312
v -2.511842 0.651780 1.190577
v -1.961129 0.682883 -1.812935
v -1.349450 0.440522 -2.687094
v -0.600496 0.127471 -3.505983
v 0.105206 -0.199904 -3.979124
v 0.893366 -0.304797 -4.021387
v 1.600914 -0.470035 -3.525313
v 2.007273 -0.289689 -3.077321
v 1.687862 -1.142924 -2.703579
v 1.353664 -1.057023 -3.118317
v 0.722512 -1.007817 -3.492466
v 0.083479 -0.988603 -3.483294
v -0.632256 -1.042254 -3.039438
v -1.408418 -0.990085 -2.430182
v -2.139855 -0.978572 -1.619555
v -2.636027 -0.897035 1.008818
v -2.235964 -0.796699 2.258682
v -1.667681 -0.871428 3.096213
v -1.326992 -0.877227 3.342057
v -0.788987 -0.997281 3.535356
v -0.263616 -0.983485 3.515960
v 0.234243 -1.078130 3.302382
v 1.974478 -0.688392 1.971908
v 2.877514 -0.720551 -0.349993
v 1.767715 0.865079 2.158408
v 2.745846 1.029548 -0.478327
v 1.897781 -2.000052 -0.628177
v 1.360079 -2.154523 1.642082
v 1.161448 0.530499 2.845238
v 0.739708 0.262065 3.320330
v 0.941681 -1.799026 2.313615
v 0.611025 -1.473426 2.786502
v 0.767338 -1.093749 2.998498
v 0.857180 -0.626042 3.219724
v 0.847622 -0.146255 3.354816
v 1.959555 0.013272 2.105092
v 2.970646 0.119132 -0.371843
v 2.486958 -1.421453 -0.447357
v 1.800741 -1.421670 1.799923
v 1.383631 -0.628726 2.684896
v 1.258596 -1.235213 2.474813
v 1.356676 -0.083882 2.816758
v 2.520536 -0.181315 -2.189815
v 2.176596 -1.161784 -1.937620
v 2.462738 -0.698571 -1.986351
v 1.831593 -1.432647 -1.905523
v 1.849318 -1.669066 -1.358358
v 2.603205 0.689879 -1.350639
v 2.404331 0.330062 -2.221157
v 2.839350 -0.003129 -1.239782
v 2.761602 -0.684836 -1.173344
v 2.382095 -1.247010 -1.210121
v 1.597946 2.686513 1.035282
v 2.008574 1.990945 1.301229
v 2.362724 1.043704 1.385563
v 2.516396 0.106893 1.337416
v 2.501818 -0.718238 1.200653
v 2.239775 -1.524299 1.071447
v 1.759796 -2.286323 0.843805
v 1.088131 -2.821649 0.511765
v 0.506751 -2.942416 0.155917
v -0.086327 -2.921567 0.110275
v -0.644628 -2.770101 0.100368
v -1.164098 -2.522843 0.159305
v -1.751473 -2.100358 0.130265
v -2.279943 -1.594300 0.070625
v -2.734275 -0.978730 0.036597
v -2.970646 -0.140754 0.030527
v -2.606886 0.842168 0.112911
v -1.907735 1.497901 0.180124
v -1.162900 2.054444 0.304136
v -0.413034 2.547275 0.506220
v 0.291515 2.901858 0.602581
v 0.974031 2.996594 0.795654
v 0.425367 2.880626 0.049824
v -0.222640 2.517537 -0.249122
v -0.980053 2.030267 -0.478544
v -1.722861 1.509900 -0.717569
v -2.427334 0.854800 -0.926913
v -2.791371 -0.153338 -0.990253
v -2.563451 -1.011659 -0.888355
v -2.086184 -1.599240 -0.762360
v -1.563648 -2.043418 -0.647345
v -0.994859 -2.395406 -0.553446
v -0.538627 -2.627988 -0.433281
v -0.012474 -2.754415 -0.387028
v 0.568903 -2.768275 -0.315107
v 1.169939 -2.630967 -0.207607
v 1.917690 -2.204257 0.071266
v 2.467876 -1.537358 0.325016
v 2.806974 -0.746371 0.487304
v 2.892452 0.142854 0.565792
v 2.753843 1.121083 0.527113
v 2.369354 2.090398 0.442920
v 1.802834 2.754914 0.439435
v 1.105564 3.001128 0.254074
vt 0.458414 0.255723
vt 0.459559 0.267775
vt 0.452692 0.268579
vt 0.450673 0.256627
vt 0.452396 0.283611
vt 0.458355 0.281769
vt 0.444077 0.282956
vt 0.444137 0.269626
vt 0.441653 0.258653
vt 0.396463 0.097021
vt 0.399777 0.106041
vt 0.394280 0.109322
vt 0.390039 0.099889
vt 0.399547 0.118698
vt 0.403465 0.115146
vt 0.393601 0.122263
vt 0.387630 0.113166
vt 0.382809 0.104355
vt 0.530448 0.148172
vt 0.518594 0.153892
vt 0.514579 0.144549
vt 0.525523 0.137665
vt 0.503215 0.149593
vt 0.507538 0.160016
vt 0.522441 0.163348
vt 0.533768 0.159206
vt 0.549229 0.167189
vt 0.524684 0.193773
vt 0.509614 0.133537
vt 0.500299 0.139801
vt 0.483121 0.132742
vt 0.485786 0.110964
vt 0.545736 0.144070
vt 0.537031 0.127231
vt 0.489494 0.153208
vt 0.496086 0.168663
vt 0.511441 0.167381
vt 0.505072 0.186089
vt 0.519482 0.127968
vt 0.405005 0.031713
vt 0.375742 0.216163
vt 0.366629 0.221499
vt 0.361070 0.212090
vt 0.370108 0.205633
vt 0.351534 0.218506
vt 0.356635 0.227348
vt 0.372006 0.229891
vt 0.380067 0.224719
vt 0.390403 0.229525
vt 0.384552 0.245829
vt 0.355347 0.202182
vt 0.346974 0.208483
vt 0.333546 0.201450
vt 0.350006 0.175190
vt 0.385122 0.212959
vt 0.378376 0.198576
vt 0.338208 0.220536
vt 0.345856 0.233817
vt 0.361889 0.234680
vt 0.371315 0.258794
vt 0.364734 0.196093
vt 0.368577 0.181889
vt 0.466596 0.266663
vt 0.465162 0.255673
vt 0.480425 0.241014
vt 0.503166 0.245480
vt 0.462115 0.291964
vt 0.452333 0.293464
vt 0.434593 0.270774
vt 0.437805 0.282122
vt 0.430798 0.288215
vt 0.411460 0.265110
vt 0.434241 0.245748
vt 0.446974 0.243304
vt 0.464233 0.277861
vt 0.523813 0.251956
vt 0.432105 0.260745
vt 0.420353 0.250837
vt 0.441893 0.292693
vt 0.459803 0.241352
vt 0.388008 0.269242
vt 0.398494 0.255895
vt 0.405296 0.242428
vt 0.497451 0.213588
vt 0.515662 0.218930
vt 0.535713 0.223936
vt 0.406970 0.101574
vt 0.402588 0.093996
vt 0.404788 0.080863
vt 0.439272 0.095402
vt 0.413916 0.121130
vt 0.405024 0.125835
vt 0.381005 0.116791
vt 0.387689 0.125201
vt 0.383402 0.137159
vt 0.365170 0.135868
vt 0.375361 0.096915
vt 0.384264 0.091288
vt 0.407851 0.111068
vt 0.429358 0.110995
vt 0.377058 0.108478
vt 0.365560 0.105195
vt 0.396276 0.129374
vt 0.393135 0.086827
vt 0.461839 0.102567
vt 0.405819 0.057718
vt 0.457103 0.118565
vt 0.356515 0.155166
vt 0.373013 0.158810
vt 0.344954 0.103999
vt 0.390471 0.192789
vt 0.402401 0.188034
vt 0.407438 0.202632
vt 0.396231 0.207458
vt 0.480473 0.175597
vt 0.474529 0.160505
vt 0.414467 0.183218
vt 0.427903 0.178061
vt 0.433182 0.193285
vt 0.419440 0.197835
vt 0.443949 0.171529
vt 0.450074 0.187827
vt 0.413229 0.142156
vt 0.424823 0.136778
vt 0.435926 0.155173
vt 0.421955 0.161539
vt 0.403363 0.145710
vt 0.409642 0.167573
vt 0.459352 0.166260
vt 0.465294 0.182082
vt 0.454807 0.131958
vt 0.439813 0.132351
vt 0.466927 0.144756
vt 0.393827 0.152345
vt 0.385260 0.161158
vt 0.385335 0.176809
vt 0.442893 0.225708
vt 0.438009 0.207218
vt 0.454362 0.204004
vt 0.457881 0.222106
vt 0.429635 0.228900
vt 0.424113 0.211114
vt 0.485152 0.208480
vt 0.485526 0.191466
vt 0.473909 0.217635
vt 0.402416 0.220895
vt 0.408842 0.231716
vt 0.417738 0.231904
vt 0.412737 0.216533
vt 0.398738 0.172050
vt 0.451365 0.149907
vt 0.470288 0.198569
vt 0.469498 0.391958
vt 0.564633 0.135042
vt 0.408096 0.346231
vt 0.320474 0.226340
vt 0.451512 0.384108
vt 0.457373 0.367792
vt 0.424469 0.355009
vt 0.419697 0.370197
vt 0.394117 0.072750
vt 0.390441 0.059061
vt 0.360819 0.093474
vt 0.347796 0.089259
vt 0.377102 0.081299
vt 0.368069 0.087126
vt 0.386225 0.076719
vt 0.440619 0.361816
vt 0.436115 0.376586
vt 0.353807 0.056334
vt 0.367442 0.069927
vt 0.356306 0.078077
vt 0.414596 0.387298
vt 0.377946 0.064434
vt 0.367268 0.048086
vt 0.384350 0.039651
vt 0.313904 0.208350
vt 0.449160 0.330259
vt 0.436184 0.325416
vt 0.440393 0.310659
vt 0.451394 0.313524
vt 0.463134 0.331796
vt 0.462827 0.311569
vt 0.431975 0.306944
vt 0.424305 0.317200
vt 0.361131 0.276892
vt 0.473819 0.310710
vt 0.478362 0.331236
vt 0.572232 0.156306
vt 0.445275 0.346030
vt 0.461888 0.349497
vt 0.430075 0.340228
vt 0.341120 0.067574
vt 0.429787 0.394696
vt 0.443388 0.401989
vt 0.330700 0.083241
vt 0.541116 0.098722
vt 0.331653 0.172299
vt 0.321328 0.101964
vt 0.341010 0.150082
vt 0.350264 0.130947
vt 0.370996 0.122010
vt 0.348943 0.188936
vt 0.477056 0.373116
vt 0.480889 0.351609
vt 0.328790 0.241626
vt 0.401888 0.362405
vt 0.396883 0.381204
vt 0.553976 0.116446
vt 0.552751 0.231116
vt 0.376915 0.282655
vt 0.414822 0.331799
vt 0.459759 0.410373
vt 0.500388 0.116994
vt 0.521780 0.110709
vt 0.444584 0.080119
vt 0.467238 0.086585
vt 0.493272 0.092631
vt 0.420423 0.092102
vt 0.546332 0.198943
vt 0.564326 0.214832
vt 0.527747 0.180865
vt 0.540732 0.247586
vt 0.479346 0.292413
vt 0.404307 0.279886
vt 0.388521 0.287225
vt 0.357753 0.244856
vt 0.338436 0.254109
vt 0.422669 0.270876
vt 0.487773 0.267695
vt 0.376637 0.239918
vn -0.351396 0.074083 -0.933291
vn 0.207275 -0.227980 -0.951347
vn 0.163675 -0.586498 -0.793240
vn -0.332902 -0.436342 -0.835932
vn 0.514928 -0.583546 -0.627952
vn 0.668512 -0.172556 -0.723406
vn 0.377840 -0.739914 -0.556565
vn 0.130783 -0.753937 -0.643797
vn -0.238873 -0.706450 -0.666234
vn 0.276584 -0.150432 0.949143
vn -0.170275 -0.251844 0.952670
vn -0.172842 -0.594262 0.785479
vn 0.226889 -0.529244 0.817571
vn -0.539256 -0.447983 0.713102
vn -0.573097 -0.018886 0.819270
vn -0.444907 -0.633352 0.633185
vn -0.179058 -0.695545 0.695813
vn 0.147232 -0.652099 0.743701
vn 0.637420 0.768755 0.052070
vn 0.146585 0.983177 -0.108977
vn 0.089875 0.969006 0.230107
vn 0.537280 0.724960 0.431003
vn -0.343884 0.936033 0.074742
vn -0.265308 0.931859 -0.247489
vn 0.192273 0.843005 -0.502369
vn 0.555235 0.739151 -0.381273
vn 0.678544 0.615731 -0.400566
vn 0.214172 0.775245 -0.594243
vn -0.012779 0.805067 0.593047
vn -0.324452 0.854567 0.405520
vn -0.400310 0.807042 0.434091
vn -0.044896 0.725455 0.686803
vn 0.861306 0.500138 0.089522
vn 0.719345 0.443158 0.534934
vn -0.507856 0.859959 0.050531
vn -0.401699 0.862615 -0.307462
vn -0.116590 0.853089 -0.508573
vn -0.137107 0.831913 -0.537702
vn 0.354769 0.647609 0.674345
vn 0.442142 0.519003 0.731537
vn -0.292039 -0.885782 -0.360700
vn -0.084593 -0.920093 -0.382457
vn -0.134265 -0.967361 -0.214907
vn -0.365326 -0.914388 -0.174444
vn 0.166589 -0.974836 -0.148128
vn 0.172663 -0.919074 -0.354246
vn -0.028325 -0.861203 -0.507472
vn -0.200528 -0.849350 -0.488256
vn -0.239070 -0.842066 -0.483498
vn 0.020865 -0.862065 -0.506368
vn -0.163104 -0.976789 0.138854
vn 0.101834 -0.983680 0.148339
vn 0.262453 -0.855172 0.446989
vn -0.167392 -0.886684 0.431013
vn -0.423960 -0.836723 -0.346630
vn -0.535156 -0.840765 -0.081984
vn 0.464874 -0.878926 0.106683
vn 0.462199 -0.850742 -0.250219
vn 0.148139 -0.865604 -0.478315
vn 0.328880 -0.840699 -0.430190
vn -0.388511 -0.917490 0.085268
vn -0.484388 -0.837721 0.252175
vn 0.251224 0.573466 -0.779758
vn -0.155741 0.581657 -0.798386
vn -0.183223 0.763856 -0.618832
vn 0.243416 0.784081 -0.570934
vn 0.826419 -0.020065 -0.562698
vn 0.749825 -0.456323 -0.479095
vn 0.083822 -0.859289 -0.504576
vn 0.253836 -0.840553 -0.478579
vn 0.295106 -0.860821 -0.414607
vn 0.048906 -0.894668 -0.444047
vn -0.465712 -0.628284 -0.623195
vn -0.612321 -0.238629 -0.753737
vn 0.595002 0.370091 -0.713446
vn 0.600401 0.586297 -0.543852
vn -0.147407 -0.835798 -0.528878
vn -0.241955 -0.826762 -0.507860
vn 0.577772 -0.690170 -0.435713
vn -0.552489 0.338390 -0.761741
vn 0.280568 -0.858404 -0.429447
vn 0.033267 -0.883786 -0.466707
vn -0.173005 -0.860003 -0.480067
vn -0.054457 0.850310 -0.523456
vn 0.232898 0.807297 -0.542245
vn 0.572228 0.661967 -0.484103
vn -0.171545 0.524315 0.834066
vn 0.216073 0.421601 0.880661
vn 0.286620 0.557132 0.779393
vn -0.083994 0.717191 0.691797
vn -0.729106 0.359478 0.582392
vn -0.813364 -0.177981 0.553860
vn -0.203678 -0.736188 0.645401
vn -0.383053 -0.708877 0.592253
vn -0.513012 -0.690730 0.509618
vn -0.205792 -0.758372 0.618483
vn 0.327202 -0.581448 0.744887
vn 0.439297 -0.424745 0.791587
vn -0.441147 0.446973 0.778206
vn -0.437800 0.690278 0.576062
vn 0.052451 -0.701883 0.710359
vn 0.124995 -0.713630 0.689281
vn -0.678302 -0.531513 0.507347
vn 0.501854 -0.007043 0.864924
vn -0.043293 0.731196 0.680792
vn 0.332762 0.570621 0.750774
vn -0.339760 0.770938 0.538718
vn -0.181540 -0.814491 0.551042
vn -0.460946 -0.769620 0.441832
vn 0.159526 -0.769218 0.618753
vn -0.632855 -0.772859 -0.046731
vn -0.749691 -0.661152 -0.029014
vn -0.665276 -0.691082 -0.282515
vn -0.527451 -0.791101 -0.309765
vn -0.463502 0.840964 -0.279185
vn -0.563785 0.825631 0.021917
vn -0.909158 -0.415844 -0.022473
vn -0.996595 0.079494 -0.021870
vn -0.938868 0.073676 -0.336301
vn -0.844713 -0.439245 -0.305817
vn -0.843922 0.536449 0.004217
vn -0.784820 0.539399 -0.305135
vn -0.921048 -0.041957 0.387183
vn -0.799110 0.441690 0.407839
vn -0.835789 0.493726 0.240190
vn -0.972403 0.049068 0.228092
vn -0.817646 -0.439542 0.371830
vn -0.893031 -0.398028 0.209928
vn -0.646797 0.762486 0.016371
vn -0.570260 0.779281 -0.259855
vn -0.519190 0.756555 0.397575
vn -0.607466 0.686409 0.399785
vn -0.558864 0.785839 0.264817
vn -0.713172 -0.600965 0.360871
vn -0.648487 -0.683217 0.335678
vn -0.656804 -0.732658 0.178384
vn -0.728028 -0.087032 -0.680001
vn -0.813132 0.020647 -0.581713
vn -0.689146 0.485206 -0.538194
vn -0.624579 0.425160 -0.655088
vn -0.606818 -0.523051 -0.598490
vn -0.720021 -0.452302 -0.526300
vn -0.236323 0.842292 -0.484455
vn -0.326114 0.833360 -0.446274
vn -0.393930 0.735456 -0.551292
vn -0.408799 -0.795519 -0.447249
vn -0.334394 -0.813995 -0.474966
vn -0.438829 -0.736926 -0.514169
vn -0.553835 -0.694277 -0.459615
vn -0.771576 -0.606399 0.192226
vn -0.658567 0.714818 0.235212
vn -0.480070 0.753598 -0.449024
vn 0.800982 0.258283 0.540109
vn 0.937292 0.307123 0.164798
vn 0.670828 -0.736469 -0.087197
vn 0.646371 -0.718009 0.258201
vn 0.857785 0.025730 0.513365
vn 0.969984 0.046824 0.238618
vn 0.840853 -0.532027 0.099567
vn 0.789091 -0.478572 0.385104
vn 0.567659 0.346332 0.746872
vn 0.617841 0.320914 0.717834
vn 0.388834 -0.609172 0.691171
vn 0.449180 -0.623874 0.639546
vn 0.612506 -0.320041 0.722780
vn 0.516308 -0.492471 0.700641
vn 0.649089 0.014518 0.760574
vn 0.942767 -0.256847 0.212649
vn 0.854423 -0.228130 0.466816
vn 0.774416 -0.220527 0.592999
vn 0.715799 -0.243653 0.654419
vn 0.629485 -0.431126 0.646436
vn 0.704200 -0.436216 0.560195
vn 0.734907 0.032213 0.677402
vn 0.779939 0.026806 0.625281
vn 0.678740 0.282277 0.677962
vn 0.534685 -0.672188 0.512129
vn 0.922496 -0.314836 -0.223335
vn 0.758660 -0.596131 -0.262798
vn 0.685897 -0.636227 -0.353214
vn 0.850828 -0.375430 -0.367620
vn 0.967758 0.060551 -0.244497
vn 0.906528 -0.005417 -0.422110
vn 0.485512 -0.799348 -0.354007
vn 0.527086 -0.771188 -0.357001
vn 0.591089 -0.746503 -0.305528
vn 0.819762 0.383369 -0.425462
vn 0.847058 0.406304 -0.342650
vn 0.908180 0.372338 -0.191243
vn 0.958484 -0.281911 -0.042827
vn 0.996078 0.071855 -0.051625
vn 0.811134 -0.566547 -0.145209
s 1
f 101/1/1 102/2/2 8/3/3 9/4/4
f 7/5/5 8/3/3 102/2/2 103/6/6
f 106/7/7 107/8/8 8/3/3 7/5/5
f 9/4/4 8/3/3 107/8/8 108/9/9
f 92/10/10 93/11/11 17/12/12 18/13/13
f 16/14/14 17/12/12 93/11/11 94/15/15
f 115/16/16 116/17/17 17/12/12 16/14/14
f 18/13/13 17/12/12 116/17/17 117/18/18
f 191/19/19 192/20/20 170/21/21 149/22/22
f 169/23/23 170/21/21 192/20/20 171/24/24
f 23/25/25 19/26/26 26/27/27 27/222/28
f 24/29/29 21/30/30 29/31/31 30/214/32
f 190/33/33 191/19/19 149/22/22 150/34/34
f 168/35/35 169/23/23 171/24/24 172/36/36
f 20/37/37 23/25/25 27/222/28 28/38/38
f 22/39/39 24/29/29 30/214/32 25/215/40
f 181/41/41 182/42/42 158/43/43 159/44/44
f 157/45/45 158/43/43 182/42/42 183/46/46
f 35/47/47 31/48/48 38/49/49 39/231/50
f 36/51/51 33/52/52 41/53/53 42/203/54
f 180/55/55 181/41/41 159/44/44 160/56/56
f 156/57/57 157/45/45 183/46/46 184/58/58
f 32/59/59 35/47/47 39/231/50 40/227/60
f 34/61/61 36/51/51 42/203/54 37/62/62
f 5/63/63 1/64/64 43/65/65 44/230/66
f 7/5/5 103/6/6 104/67/67 46/68/68
f 6/69/69 3/70/70 47/71/71 48/229/72
f 9/4/4 108/9/9 109/73/73 50/74/74
f 2/75/75 5/63/63 44/230/66 45/224/76
f 4/77/77 6/69/69 48/229/72 49/78/78
f 105/79/79 106/7/7 7/5/5 46/68/68
f 100/80/80 101/1/1 9/4/4 50/74/74
f 48/72/72 47/225/71 51/81/81 52/82/82
f 52/82/82 51/81/81 40/60/60 39/50/50
f 52/82/82 53/83/83 49/78/78 48/72/72
f 39/50/50 38/49/49 53/83/83 52/82/82
f 43/65/65 54/84/84 55/85/85 44/66/66
f 54/84/84 28/38/38 27/28/28 55/85/85
f 55/85/85 27/28/28 26/220/27 56/86/86
f 56/86/86 45/76/76 44/66/66 55/85/85
f 14/87/87 13/88/88 57/89/89 58/219/90
f 16/14/14 94/15/15 95/91/91 60/92/92
f 15/93/93 11/94/94 61/95/95 62/202/96
f 18/13/13 117/18/18 118/97/97 64/98/98
f 10/99/99 14/87/87 58/219/90 59/100/100
f 12/101/101 15/93/93 62/202/96 63/102/102
f 114/103/103 115/16/16 16/14/14 60/92/92
f 91/104/104 92/10/10 18/13/13 64/98/98
f 30/32/32 65/105/105 66/217/106 25/218/40
f 57/216/89 66/217/106 65/105/105 58/90/90
f 67/107/107 59/100/100 58/90/90 65/105/105
f 29/31/31 67/107/107 65/105/105 30/32/32
f 42/54/54 69/108/108 70/109/109 37/62/62
f 68/200/110 69/108/108 42/54/54 41/198/53
f 62/96/96 69/108/108 68/200/110 63/201/102
f 70/109/109 69/108/108 62/96/96 61/95/95
f 161/111/111 162/112/112 178/113/113 179/114/114
f 172/36/36 173/115/115 167/116/116 168/35/35
f 163/117/117 164/118/118 176/119/119 177/120/120
f 164/118/118 165/121/121 175/122/122 176/119/119
f 78/123/123 60/92/92 95/91/91 96/124/124
f 96/124/124 97/125/125 76/126/126 78/123/123
f 60/92/92 78/123/123 113/127/127 114/103/103
f 112/128/128 113/127/127 78/123/123 76/126/126
f 179/114/114 180/55/55 160/56/56 161/111/111
f 166/129/129 167/116/116 173/115/115 174/130/130
f 59/100/100 67/107/107 84/131/131 77/132/132
f 83/133/133 84/131/131 67/107/107 29/31/31
f 70/109/109 61/95/95 79/134/134 85/135/135
f 37/62/62 70/109/109 85/135/135 81/136/136
f 87/137/137 75/138/138 98/139/139 99/140/140
f 75/138/138 87/137/137 110/141/141 111/142/142
f 50/74/74 87/137/137 99/140/140 100/80/80
f 87/137/137 50/74/74 109/73/73 110/141/141
f 89/143/143 82/144/144 28/38/38 54/84/84
f 86/145/145 89/143/143 54/84/84 43/65/65
f 53/83/83 38/49/49 80/146/146 90/147/147
f 90/147/147 88/148/148 49/78/78 53/83/83
f 90/147/147 80/146/146 72/149/149 88/148/148
f 85/135/135 79/134/134 71/150/150 81/136/136
f 84/131/131 83/133/133 74/151/151 77/132/132
f 86/145/145 73/152/152 82/144/144 89/143/143
f 13/88/88 92/10/10 91/104/104 57/89/89
f 13/88/88 14/87/87 93/11/11 92/10/10
f 94/15/15 93/11/11 14/87/87 10/99/99
f 95/91/91 94/15/15 10/99/99 59/100/100
f 96/124/124 95/91/91 59/100/100 77/132/132
f 77/132/132 74/151/151 97/125/125 96/124/124
f 165/121/121 166/129/129 174/130/130 175/122/122
f 99/140/140 98/139/139 73/152/152 86/145/145
f 100/80/80 99/140/140 86/145/145 43/65/65
f 1/64/64 101/1/1 100/80/80 43/65/65
f 1/64/64 5/63/63 102/2/2 101/1/1
f 103/6/6 102/2/2 5/63/63 2/75/75
f 104/67/67 103/6/6 2/75/75 45/224/76
f 3/70/70 106/7/7 105/79/79 47/71/71
f 6/69/69 107/8/8 106/7/7 3/70/70
f 108/9/9 107/8/8 6/69/69 4/77/77
f 109/73/73 108/9/9 4/77/77 49/78/78
f 110/141/141 109/73/73 49/78/78 88/148/148
f 111/142/142 110/141/141 88/148/148 72/149/149
f 177/120/120 178/113/113 162/112/112 163/117/117
f 71/150/150 79/134/134 113/127/127 112/128/128
f 114/103/103 113/127/127 79/134/134 61/95/95
f 11/94/94 115/16/16 114/103/103 61/95/95
f 15/93/93 116/17/17 115/16/16 11/94/94
f 117/18/18 116/17/17 15/93/93 12/101/101
f 118/97/97 117/18/18 12/101/101 63/102/102
f 150/34/34 151/209/153 189/154/154 190/33/33
f 184/58/58 185/206/155 155/156/156 156/57/57
f 151/153/153 152/157/157 188/158/158 189/204/154
f 185/155/155 186/159/159 154/160/160 155/207/156
f 126/161/161 125/162/162 66/106/106 57/89/89
f 128/163/163 63/102/102 68/110/110 127/164/164
f 130/165/165 64/98/98 118/97/97 129/166/166
f 129/166/166 118/97/97 63/102/102 128/163/163
f 64/98/98 130/165/165 131/167/167 91/104/104
f 91/104/104 131/167/167 126/161/161 57/89/89
f 187/168/168 188/158/158 152/157/157 153/169/169
f 186/159/159 187/168/168 153/169/169 154/160/160
f 119/170/170 136/171/171 137/172/172 135/193/173
f 129/166/166 137/172/172 136/171/171 130/165/165
f 138/174/174 131/167/167 130/165/165 136/171/171
f 132/175/175 138/174/174 136/171/171 119/170/170
f 125/162/162 121/176/176 25/40/40 66/106/106
f 68/110/110 41/199/53 124/196/177 127/164/164
f 135/193/173 137/172/172 127/164/164 124/196/177
f 138/174/174 132/175/175 121/176/176 125/162/162
f 125/162/162 126/161/161 131/167/167 138/174/174
f 128/163/163 127/164/164 137/172/172 129/166/166
f 147/178/178 148/179/179 140/180/180 141/181/181
f 146/182/182 147/178/178 141/181/181 139/183/183
f 104/67/67 139/183/183 141/181/181 46/68/68
f 46/68/68 141/181/181 140/180/180 105/79/79
f 47/225/71 142/226/184 143/211/185 51/81/81
f 51/81/81 143/211/185 123/186/186 40/60/60
f 142/184/184 47/71/71 105/79/79 140/180/180
f 145/223/187 45/76/76 56/86/86 144/210/188
f 122/221/189 144/210/188 56/86/86 26/220/27
f 45/224/76 145/187/187 139/183/183 104/67/67
f 120/190/190 147/178/178 146/182/182 133/191/191
f 120/190/190 134/192/192 148/179/179 147/178/178
f 144/188/188 146/182/182 139/183/183 145/187/187
f 140/180/180 148/179/179 143/185/185 142/184/184
f 134/192/192 123/212/186 143/185/185 148/179/179
f 133/191/191 146/182/182 144/188/188 122/205/189
f 150/34/34 149/22/22 22/39/39 25/215/40
f 121/197/176 151/209/153 150/34/34 25/215/40
f 132/195/175 152/157/157 151/153/153 121/213/176
f 153/169/169 152/157/157 132/195/175 119/194/170
f 154/160/160 153/169/169 119/194/170 135/173/173
f 155/207/156 154/160/160 135/173/173 124/208/177
f 156/57/57 155/156/156 124/177/177 41/53/53
f 41/53/53 33/52/52 157/45/45 156/57/57
f 33/52/52 36/51/51 158/43/43 157/45/45
f 159/44/44 158/43/43 36/51/51 34/61/61
f 160/56/56 159/44/44 34/61/61 37/62/62
f 161/111/111 160/56/56 37/62/62 81/136/136
f 71/150/150 162/112/112 161/111/111 81/136/136
f 163/117/117 162/112/112 71/150/150 112/128/128
f 76/126/126 164/118/118 163/117/117 112/128/128
f 97/125/125 165/121/121 164/118/118 76/126/126
f 74/151/151 166/129/129 165/121/121 97/125/125
f 74/151/151 83/133/133 167/116/116 166/129/129
f 168/35/35 167/116/116 83/133/133 29/31/31
f 29/31/31 21/30/30 169/23/23 168/35/35
f 21/30/30 24/29/29 170/21/21 169/23/23
f 149/22/22 170/21/21 24/29/29 22/39/39
f 172/36/36 171/24/24 20/37/37 28/38/38
f 82/144/144 173/115/115 172/36/36 28/38/38
f 174/130/130 173/115/115 82/144/144 73/152/152
f 175/122/122 174/130/130 73/152/152 98/139/139
f 176/119/119 175/122/122 98/139/139 75/138/138
f 177/120/120 176/119/119 75/138/138 111/142/142
f 111/142/142 72/149/149 178/113/113 177/120/120
f 179/114/114 178/113/113 72/149/149 80/146/146
f 80/146/146 38/49/49 180/55/55 179/114/114
f 38/49/49 31/48/48 181/41/41 180/55/55
f 35/47/47 182/42/42 181/41/41 31/48/48
f 183/46/46 182/42/42 35/47/47 32/59/59
f 184/58/58 183/46/46 32/59/59 40/227/60
f 123/228/186 185/206/155 184/58/58 40/227/60
f 134/192/192 186/159/159 185/155/155 123/212/186
f 120/190/190 187/168/168 186/159/159 134/192/192
f 120/190/190 133/191/191 188/158/158 187/168/168
f 189/204/154 188/158/158 133/191/191 122/205/189
f 190/33/33 189/154/154 122/189/189 26/27/27
f 26/27/27 19/26/26 191/19/19 190/33/33
f 23/25/25 192/20/20 191/19/19 19/26/26
f 171/24/24 192/20/20 23/25/25 20/37/37
