# This file uses centimeters as units for non-parametric coordinates.

v 1.839154 2.398526 -0.871273
v -0.566342 1.355729 -1.897480
v 0.904176 1.894631 -2.057307
v 0.034315 -2.632541 1.496897
v -0.950694 -2.294913 1.690505
v -1.453245 -2.430344 0.068595
v -0.494628 -2.615984 -0.264604
v 0.941559 -2.566589 1.106164
v 0.512830 -2.604064 -0.498660
v -1.495371 -2.547139 1.021418
v -0.310275 -2.759190 0.642442
v 0.915650 -2.924507 0.231638
v 0.279352 -2.049732 1.831635
v -1.010167 -1.790320 1.875283
v -2.037943 -2.065320 1.125593
v -1.683483 -2.096247 -0.189010
v -0.437740 -2.233138 -0.749495
v 0.820420 -2.286442 -0.847368
v 1.643029 -2.488219 -0.028252
v 1.292823 -2.129848 1.136269
v 0.051671 2.618170 -1.276291
v -1.534002 2.032801 -1.126367
v -1.333371 2.564332 0.700950
v 0.431420 2.886109 0.309333
v 0.307231 2.872701 -0.556004
v -1.666162 2.334973 -0.210880
v -0.741668 2.296529 -1.375001
v -0.749000 2.748459 -0.440830
v -0.444427 2.847541 0.633151
v 0.870227 2.709194 0.482030
v 1.009336 2.748475 -0.677516
v 0.433651 2.419348 -1.644331
v -0.657341 1.909427 -1.727155
v -1.735069 1.796991 -1.245115
v -2.061831 2.039118 0.019564
v -1.364380 2.266752 1.108889
v -0.150613 2.550393 1.158198
v 1.434555 2.232943 0.665312
v 2.190207 -0.237471 1.063333
v 2.818027 -0.550382 -0.682167
v 1.789777 -1.300589 1.106419
v 2.332275 -1.673870 -0.334289
v 1.217369 -1.619119 -1.338793
v 1.418894 -0.719337 -1.760753
v -0.311893 -0.815694 -1.928792
v -0.261413 -1.576058 -1.376987
v -2.029460 1.382294 -1.389255
v -2.178959 -0.780301 -1.101874
v -1.906902 -1.518260 -0.631983
v 0.162397 1.991762 1.574072
v 0.610224 -0.006084 2.061733
v 0.508592 -1.078416 2.075384
v -1.289902 1.698618 1.601932
v -1.120575 -0.135531 2.052348
v -1.056255 -0.983988 2.004642
v -2.425241 1.601149 0.275293
v -2.669477 -0.582200 0.933404
v -2.421790 -1.371272 1.070866
v 2.224309 -0.610356 -1.357582
v 1.824806 -1.653689 -0.996672
v 1.286160 -2.419451 -0.587743
v 0.687438 -2.768924 -0.224597
v -0.429470 -2.726182 0.200021
v -1.547339 -2.522115 0.437377
v -2.061372 -2.124933 0.360592
v -2.470205 -1.519166 0.103653
v -2.780304 -0.809431 -0.198245
v -2.400871 1.447901 -0.619008
v -2.011302 1.892902 -0.681965
v -1.646704 2.175724 -0.752291
v -0.790589 2.567537 -0.928521
v 0.166543 2.786692 -0.939207
v 0.817772 2.668088 -1.240157
v 1.560489 2.319912 -1.674870
v -1.218464 -2.431536 1.455129
v -1.546205 -1.864273 1.606632
v -1.783699 -1.126569 1.680149
v -1.956614 -0.343327 1.635554
v -1.994252 1.684380 1.077633
v -1.858769 2.167849 0.693536
v -1.555478 2.469351 0.288329
v -0.636741 2.857739 0.089354
v 0.381367 2.920565 -0.072877
v 1.045643 2.760340 -0.076898
v 1.779477 2.313354 -0.068013
v 2.751434 -0.404015 0.342283
v 2.241948 -1.497088 0.478042
v 1.570522 -2.295599 0.624382
v 0.997046 -2.751651 0.771091
v -0.162909 -2.750133 1.083320
v 0.152943 1.554178 -1.992098
v -0.099815 2.116119 -1.748493
v -0.298665 2.468191 -1.362997
v -0.368253 2.706666 -0.941473
v -0.314256 2.842722 -0.494635
v -0.168892 2.924507 0.006521
v 0.051726 2.901357 0.482100
v 0.437641 2.648269 0.913433
v 0.861711 2.109360 1.239352
v 1.485425 -0.071573 1.635944
v 1.195988 -1.194123 1.650575
v 0.843201 -2.076659 1.574150
v 0.514847 -2.640719 1.320143
v 0.380508 -2.839041 0.923912
v 0.255366 -2.868201 0.453214
v 0.120528 -2.797210 0.010015
v 0.050242 -2.649230 -0.402577
v 0.240907 -2.262387 -0.862685
v 0.579360 -1.589266 -1.468610
v 0.614183 -0.792983 -1.988598
v -0.499414 -2.517981 1.643661
v -0.369985 -1.900177 1.966285
v -0.262334 -0.978871 2.157556
v -0.229634 0.028598 2.267947
v -0.594504 1.870836 1.687431
v -0.776990 2.411587 1.230961
v -0.942462 2.720511 0.698654
v -1.108353 2.704372 0.153551
v -1.219482 2.570622 -0.360102
v -1.225958 2.382602 -0.857113
v -1.203978 2.173787 -1.313606
v -1.229779 1.803025 -1.578397
v -1.297344 1.293391 -1.759346
v -1.238478 -0.760305 -1.615024
v -1.122276 -1.530532 -1.081478
v -1.081549 -2.163338 -0.532172
v -1.029752 -2.537909 -0.096588
v -0.975039 -2.646932 0.346383
v -0.873059 -2.678228 0.817905
v -0.701272 -2.652278 1.256742
v 1.436288 0.229426 -2.073560
v 0.515086 0.049528 -2.171799
v -0.416621 -0.054550 -2.117074
v -1.343732 -0.085005 -1.817656
v -2.305280 -0.094641 -1.358045
v -2.916755 0.011286 -0.398111
v -2.752688 0.222519 0.716605
v -2.048406 0.414422 1.512925
v -1.220051 0.604388 2.012316
v -0.342779 0.724917 2.166169
v 0.524284 0.754246 2.044853
v 1.379132 0.759217 1.575907
v 2.223830 0.763354 0.953809
v 2.773679 0.747422 0.132985
v 2.916755 0.676658 -0.942110
v 2.359204 0.468909 -1.718890
v -1.361058 0.649250 -1.859223
v -0.489540 0.693166 -2.042549
v 0.365711 0.849178 -2.119478
v 1.261501 1.116380 -2.267947
v 2.203741 1.524323 -1.932762
v 2.584529 1.702259 -0.987342
v 2.376034 1.659986 -0.015272
v 1.889534 1.553886 0.817294
v 1.200655 1.454256 1.469272
v 0.383002 1.358477 1.859483
v -0.449996 1.262754 1.967360
v -1.284372 1.202762 1.869065
v -2.059363 1.097313 1.327101
v -2.685050 0.983877 0.509601
v -2.749277 0.825794 -0.539407
v -2.294508 0.722667 -1.483586
vt 0.828791 0.375878
vt 0.825597 0.395003
vt 0.803588 0.391553
vt 0.802139 0.373000
vt 0.825675 0.628062
vt 0.808459 0.631287
vt 0.723403 0.516118
vt 0.721495 0.502517
vt 0.730899 0.500972
vt 0.734004 0.513339
vt 0.726502 0.475509
vt 0.716868 0.477306
vt 0.713446 0.463356
vt 0.725284 0.461823
vt 0.702410 0.503096
vt 0.711703 0.502983
vt 0.711555 0.515032
vt 0.704134 0.512352
vt 0.696970 0.471057
vt 0.703536 0.467727
vt 0.707602 0.479530
vt 0.741807 0.607924
vt 0.742463 0.511242
vt 0.739079 0.498691
vt 0.752221 0.496887
vt 0.754652 0.510423
vt 0.755645 0.523388
vt 0.756377 0.539019
vt 0.756123 0.585921
vt 0.757907 0.570749
vt 0.735547 0.414742
vt 0.750082 0.627212
vt 0.747170 0.469253
vt 0.734934 0.473733
vt 0.733997 0.461137
vt 0.744994 0.456069
vt 0.752883 0.615443
vt 0.757531 0.555985
vt 0.742524 0.442815
vt 0.739345 0.428069
vt 0.879275 0.437898
vt 0.874618 0.448400
vt 0.863892 0.446022
vt 0.867680 0.434808
vt 0.883711 0.418331
vt 0.882170 0.428293
vt 0.871704 0.426277
vt 0.875398 0.418270
vt 0.909774 0.435004
vt 0.900461 0.432204
vt 0.854383 0.587430
vt 0.909763 0.426572
vt 0.903803 0.456316
vt 0.893835 0.452850
vt 0.897849 0.442632
vt 0.907806 0.446322
vt 0.852153 0.440854
vt 0.855625 0.428049
vt 0.852506 0.614589
vt 0.866743 0.405550
vt 0.845793 0.560575
vt 0.845176 0.576131
vt 0.846074 0.497041
vt 0.889689 0.463618
vt 0.898228 0.464300
vt 0.844546 0.511262
vt 0.860543 0.415821
vt 0.844664 0.526213
vt 0.845805 0.543152
vt 0.845736 0.590040
vt 0.860839 0.455836
vt 0.861527 0.470022
vt 0.849079 0.467089
vt 0.850049 0.453444
vt 0.844836 0.403923
vt 0.851459 0.387953
vt 0.837037 0.434299
vt 0.840415 0.419329
vt 0.822846 0.412359
vt 0.821245 0.429751
vt 0.803183 0.427629
vt 0.803825 0.408891
vt 0.782609 0.429438
vt 0.761220 0.434504
vt 0.758754 0.418305
vt 0.781429 0.410976
vt 0.766345 0.640010
vt 0.754731 0.402754
vt 0.788137 0.648079
vt 0.779097 0.394044
vt 0.770135 0.627356
vt 0.790008 0.631573
vt 0.840550 0.622041
vt 0.834853 0.592524
vt 0.835013 0.576292
vt 0.821432 0.576961
vt 0.821623 0.594593
vt 0.806675 0.595983
vt 0.805593 0.577792
vt 0.773082 0.575111
vt 0.772775 0.592539
vt 0.791996 0.596252
vt 0.791136 0.577455
vt 0.833795 0.464745
vt 0.835376 0.449545
vt 0.819591 0.446508
vt 0.818441 0.462799
vt 0.804026 0.461751
vt 0.803267 0.444440
vt 0.763263 0.449588
vt 0.765138 0.464559
vt 0.787435 0.460850
vt 0.784469 0.445334
vt 0.817594 0.492857
vt 0.817997 0.507186
vt 0.805252 0.506811
vt 0.805686 0.492137
vt 0.831542 0.494193
vt 0.829520 0.507679
vt 0.770763 0.493704
vt 0.791267 0.491503
vt 0.789694 0.506960
vt 0.772022 0.508233
vt 0.832075 0.523888
vt 0.833698 0.541433
vt 0.818860 0.523184
vt 0.819744 0.540833
vt 0.804163 0.540506
vt 0.804187 0.522844
vt 0.771646 0.522836
vt 0.788163 0.522756
vt 0.787822 0.539903
vt 0.771603 0.539584
vt 0.834342 0.559319
vt 0.820515 0.559053
vt 0.804466 0.559165
vt 0.772517 0.557654
vt 0.788261 0.559250
vt 0.847827 0.603122
vt 0.836515 0.607395
vt 0.893382 0.419479
vt 0.891052 0.429854
vt 0.887928 0.440060
vt 0.883982 0.450748
vt 0.879326 0.461599
vt 0.847798 0.482077
vt 0.832612 0.479481
vt 0.817834 0.478332
vt 0.804713 0.477779
vt 0.768165 0.479456
vt 0.789206 0.477217
vt 0.749063 0.482527
vt 0.736545 0.485718
vt 0.728151 0.488319
vt 0.719327 0.490020
vt 0.710198 0.491317
vt 0.700465 0.491790
vt 0.754594 0.600804
vt 0.771863 0.610460
vt 0.791063 0.614087
vt 0.822865 0.611206
vt 0.807343 0.613509
vt 0.830981 0.646190
vt 0.847876 0.637045
vt 0.810812 0.649752
vt 0.745217 0.581437
vt 0.742927 0.595109
vt 0.698667 0.480511
vt 0.719889 0.414856
vt 0.741787 0.618224
vt 0.729216 0.450464
vt 0.742350 0.523572
vt 0.742409 0.539280
vt 0.744580 0.556649
vt 0.747606 0.568719
vt 0.720927 0.423085
vt 0.723616 0.436162
vt 0.748576 0.390962
vt 0.773800 0.378129
vt 0.729603 0.405747
vt 0.860177 0.624604
vt 0.902755 0.422302
vt 0.851706 0.575952
vt 0.858279 0.501311
vt 0.860715 0.485963
vt 0.869097 0.458368
vt 0.862145 0.608122
vt 0.857832 0.598680
vt 0.856066 0.529504
vt 0.854567 0.513850
vt 0.854627 0.563140
vt 0.856236 0.545919
vt 0.866762 0.614726
vn 0.151242 0.074704 -0.985670
vn 0.605548 0.295498 -0.738913
vn 0.661474 -0.132797 -0.738118
vn 0.286861 -0.202829 -0.936254
vn -0.097697 0.062308 -0.993264
vn 0.028805 -0.135477 -0.990362
vn -0.470760 -0.838872 0.273275
vn -0.180791 -0.980647 0.075146
vn -0.166238 -0.941831 0.292094
vn -0.386778 -0.709857 0.588647
vn 0.046881 -0.968218 0.245676
vn -0.077277 -0.997002 0.003906
vn 0.313026 -0.948500 -0.048601
vn 0.451010 -0.834337 0.316974
vn -0.303930 -0.841858 -0.445984
vn -0.208786 -0.971771 -0.109865
vn -0.481344 -0.871093 -0.097498
vn -0.434094 -0.797552 -0.418896
vn 0.015879 -0.813831 -0.580885
vn 0.130789 -0.911050 -0.391002
vn -0.131530 -0.967418 -0.216339
vn -0.129941 -0.841420 -0.524527
vn -0.270113 -0.520524 0.809996
vn -0.061233 -0.666142 0.743307
vn -0.020133 -0.299627 0.953844
vn -0.277974 -0.248896 0.927783
vn -0.506278 -0.336586 0.793973
vn -0.732905 -0.534097 0.421416
vn -0.351274 -0.663738 -0.660348
vn -0.519923 -0.658241 -0.544425
vn 0.409563 -0.733838 -0.541978
vn 0.145022 -0.688353 -0.710731
vn 0.487883 -0.384087 0.783867
vn 0.296082 -0.721519 0.625897
vn 0.505226 -0.655699 0.561076
vn 0.638841 -0.433011 0.635912
vn -0.071312 -0.682496 -0.727403
vn -0.748500 -0.648877 -0.136770
vn 0.709741 -0.591630 0.382414
vn 0.657575 -0.746561 -0.101206
vn -0.147351 0.970952 -0.188519
vn -0.080189 0.996167 -0.034939
vn 0.126148 0.991803 -0.020356
vn 0.067122 0.985852 -0.153591
vn -0.239767 0.742420 -0.625559
vn -0.217840 0.902342 -0.371920
vn -0.023408 0.947850 -0.317857
vn -0.133625 0.829844 -0.541759
vn -0.572117 0.758121 -0.312945
vn -0.438947 0.823301 -0.359864
vn -0.393406 0.699110 -0.597057
vn -0.538355 0.684253 -0.491906
vn -0.563431 0.824741 0.048448
vn -0.383404 0.922836 -0.037083
vn -0.440954 0.871819 -0.213288
vn -0.586765 0.795358 -0.152026
vn 0.414551 0.902104 0.119817
vn 0.315971 0.943167 -0.102950
vn -0.201008 0.475497 -0.856445
vn -0.072402 0.672743 -0.736325
vn -0.708299 0.646878 -0.282600
vn -0.570107 0.565642 -0.595841
vn -0.166462 0.693799 0.700667
vn -0.267927 0.897248 0.350944
vn -0.450685 0.831226 0.325493
vn -0.433903 0.647164 0.626823
vn 0.156060 0.896000 -0.415728
vn -0.672602 0.655164 0.344043
vn -0.743217 0.668850 -0.016365
vn -0.345594 0.450109 -0.823388
vn 0.192618 0.960797 0.199416
vn 0.045716 0.955832 0.290337
vn 0.260229 0.763865 0.590586
vn 0.422281 0.820532 0.385235
vn 0.376218 0.708736 -0.596786
vn 0.011039 0.421053 -0.906969
vn 0.626485 0.740780 0.242409
vn 0.586857 0.802497 -0.107689
vn 0.860953 0.481052 -0.165373
vn 0.804375 0.512975 0.299729
vn 0.930500 0.186036 0.315533
vn 0.973776 0.060644 -0.219277
vn 0.923085 -0.156808 0.351177
vn 0.824054 -0.414289 0.386394
vn 0.825026 -0.540363 -0.165351
vn 0.934404 -0.280881 -0.219079
vn 0.287344 -0.546566 -0.786574
vn 0.546948 -0.547002 -0.633748
vn 0.345162 -0.374165 -0.860735
vn 0.620734 -0.363651 -0.694584
vn 0.033639 -0.587846 -0.808273
vn 0.085539 -0.391584 -0.916158
vn -0.172374 0.241758 -0.954903
vn -0.311278 0.266004 -0.912331
vn -0.622129 0.405264 -0.669863
vn -0.684208 0.116946 -0.719850
vn -0.326379 0.056459 -0.943552
vn -0.356494 -0.190370 -0.914697
vn -0.676623 -0.185793 -0.712505
vn -0.538007 -0.590577 -0.601471
vn -0.346908 -0.598117 -0.722434
vn -0.356418 -0.460064 -0.813208
vn -0.603599 -0.450219 -0.658006
vn 0.402820 0.578106 0.709599
vn 0.572194 0.649371 0.500910
vn 0.665172 0.462549 0.586170
vn 0.491138 0.402284 0.772626
vn 0.537319 0.198778 0.819619
vn 0.727002 0.220044 0.650423
vn 0.676444 -0.283906 0.679574
vn 0.543843 -0.198683 0.815328
vn 0.557104 -0.019980 0.830202
vn 0.718133 -0.073429 0.692022
vn -0.036740 0.362716 0.931175
vn -0.391552 0.304437 0.868335
vn -0.375113 0.126325 0.918331
vn -0.026139 0.185495 0.982297
vn -0.085863 0.519348 0.850239
vn -0.392951 0.483595 0.782129
vn -0.014210 -0.132169 0.991125
vn -0.002275 0.003437 0.999992
vn -0.331442 -0.016445 0.943332
vn -0.294522 -0.119116 0.948192
vn -0.687309 0.479966 0.545197
vn -0.851675 0.503929 0.143894
vn -0.694722 0.281480 0.661914
vn -0.914913 0.290189 0.280579
vn -0.926311 0.073777 0.369466
vn -0.657410 0.114943 0.744715
vn -0.541233 -0.146543 0.828005
vn -0.596702 -0.013302 0.802353
vn -0.896750 -0.119125 0.426203
vn -0.841332 -0.307829 0.444299
vn -0.833908 0.488403 -0.257024
vn -0.945132 0.227429 -0.234524
vn -0.977535 -0.060781 -0.201818
vn -0.847204 -0.500817 -0.177277
vn -0.922880 -0.331206 -0.196458
vn -0.232613 0.422706 -0.875906
vn -0.186732 0.219766 -0.957515
vn -0.292827 0.710446 -0.639937
vn -0.334381 0.855179 -0.396054
vn -0.310083 0.926301 -0.214044
vn -0.233760 0.972019 -0.023140
vn -0.108461 0.933382 0.342104
vn 0.048690 0.735878 0.675361
vn 0.165173 0.539181 0.825834
vn 0.247123 0.387582 0.888094
vn 0.317023 0.200200 0.927047
vn 0.313494 -0.150965 0.937513
vn 0.347240 0.007649 0.937745
vn 0.245624 -0.369809 0.896053
vn 0.110504 -0.725554 0.679235
vn -0.090703 -0.973024 0.212128
vn -0.153598 -0.987930 0.020061
vn -0.175825 -0.975130 -0.134931
vn -0.221996 -0.852000 -0.474146
vn -0.223800 -0.675537 -0.702541
vn -0.188774 -0.604126 -0.774207
vn -0.175805 -0.432795 -0.884184
vn -0.171951 0.094596 -0.980553
vn -0.173243 -0.121064 -0.977410
s 1
f 150/1/1 151/2/2 146/3/3 131/4/4
f 149/5/5 150/163/1 131/165/4 132/6/6
f 10/7/7 129/8/8 130/9/9 75/10/10
f 104/11/11 105/12/12 12/13/13 89/14/14
f 127/15/15 128/16/16 64/17/17 6/18/18
f 9/19/19 62/20/20 106/21/21 107/168/22
f 5/23/23 111/24/24 112/25/25 14/26/26
f 10/173/7 75/172/10 76/27/27 15/28/28
f 126/29/29 127/166/15 6/175/18 16/30/30
f 61/31/31 62/176/20 9/169/19 18/180/32
f 102/33/33 103/34/34 8/35/35 20/36/36
f 9/170/19 107/22/22 108/37/37 18/32/32
f 6/175/18 64/174/17 65/38/38 16/30/30
f 88/39/39 89/171/14 12/177/13 19/40/40
f 95/41/41 96/42/42 83/43/43 25/44/44
f 93/45/45 94/46/46 72/47/47 21/48/48
f 70/49/49 120/50/50 121/182/51 22/52/52
f 81/53/53 118/54/54 119/55/55 26/56/56
f 25/44/44 83/43/43 84/57/57 31/58/58
f 92/59/59 93/187/45 21/193/48 32/181/60
f 69/61/61 70/191/49 22/183/52 34/62/62
f 116/63/63 117/184/64 23/190/65 36/66/66
f 21/48/48 72/47/47 73/67/67 32/60/60
f 80/68/68 81/189/53 26/192/56 35/69/69
f 22/183/52 121/51/51 122/70/70 34/62/62
f 24/71/71 97/72/72 98/73/73 30/74/74
f 73/67/67 74/75/75 3/76/76 32/60/60
f 84/57/57 85/77/77 1/78/78 31/58/58
f 152/79/79 153/80/80 144/81/81 145/82/82
f 86/83/83 87/84/84 42/85/85 40/86/86
f 42/85/85 87/84/84 88/39/39 19/40/40
f 18/180/32 43/178/87 60/88/88 61/31/31
f 43/178/87 44/179/89 59/90/90 60/88/88
f 109/91/91 110/92/92 44/89/89 43/87/87
f 43/87/87 18/32/32 108/37/37 109/91/91
f 91/93/93 92/59/59 32/181/60 3/164/76
f 122/70/70 123/94/94 47/95/95 34/62/62
f 162/96/96 147/97/97 134/98/98 135/99/99
f 16/30/30 49/100/100 125/101/101 126/29/29
f 124/102/102 125/101/101 49/100/100 48/103/103
f 30/74/74 98/73/73 99/104/104 38/105/105
f 154/106/106 155/107/107 142/108/108 143/109/109
f 20/36/36 41/110/110 101/111/111 102/33/33
f 100/112/112 101/111/111 41/110/110 39/113/113
f 157/114/114 158/115/115 139/116/116 140/117/117
f 115/118/118 116/63/63 36/66/66 53/119/119
f 113/120/120 114/121/121 54/122/122 55/123/123
f 14/26/26 112/25/25 113/120/120 55/123/123
f 79/124/124 80/68/68 35/69/69 56/125/125
f 159/126/126 160/127/127 137/128/128 138/129/129
f 77/130/130 78/131/131 57/132/132 58/133/133
f 15/28/28 76/27/27 77/130/130 58/133/133
f 68/134/134 69/61/61 34/62/62 47/95/95
f 161/135/135 162/96/96 135/99/99 136/136/136
f 49/100/100 66/137/137 67/138/138 48/103/103
f 16/30/30 65/38/38 66/137/137 49/100/100
f 60/88/88 59/90/90 40/86/86 42/85/85
f 61/31/31 60/88/88 42/85/85 19/40/40
f 12/177/13 62/176/20 61/31/31 19/40/40
f 105/12/12 106/21/21 62/20/20 12/13/13
f 64/17/17 128/16/16 129/8/8 10/7/7
f 65/38/38 64/174/17 10/173/7 15/28/28
f 66/137/137 65/38/38 15/28/28 58/133/133
f 67/138/138 66/137/137 58/133/133 57/132/132
f 160/127/127 161/135/135 136/136/136 137/128/128
f 35/69/69 69/61/61 68/134/134 56/125/125
f 26/192/56 70/191/49 69/61/61 35/69/69
f 26/56/56 119/55/55 120/50/50 70/49/49
f 72/47/47 94/46/46 95/41/41 25/44/44
f 73/67/67 72/47/47 25/44/44 31/58/58
f 31/58/58 1/78/78 74/75/75 73/67/67
f 151/2/2 152/79/79 145/82/82 146/3/3
f 76/27/27 75/172/10 5/23/23 14/26/26
f 77/130/130 76/27/27 14/26/26 55/123/123
f 54/122/122 78/131/131 77/130/130 55/123/123
f 158/115/115 159/126/126 138/129/129 139/116/116
f 36/66/66 80/68/68 79/124/124 53/119/119
f 23/190/65 81/189/53 80/68/68 36/66/66
f 117/64/64 118/54/54 81/53/53 23/65/65
f 24/71/71 83/43/43 96/42/42 97/186/72
f 84/57/57 83/43/43 24/71/71 30/74/74
f 38/105/105 85/77/77 84/57/57 30/74/74
f 153/80/80 154/106/106 143/109/109 144/81/81
f 39/113/113 41/110/110 87/84/84 86/83/83
f 88/39/39 87/84/84 41/110/110 20/36/36
f 8/35/35 89/171/14 88/39/39 20/36/36
f 103/34/34 104/11/11 89/14/14 8/35/35
f 75/10/10 130/9/9 111/24/24 5/23/23
f 33/139/139 92/59/59 91/93/93 2/140/140
f 27/188/141 93/187/45 92/59/59 33/139/139
f 27/141/141 71/142/142 94/46/46 93/45/45
f 95/41/41 94/46/46 71/142/142 28/143/143
f 82/144/144 96/42/42 95/41/41 28/143/143
f 97/186/72 96/42/42 82/144/144 29/145/145
f 98/73/73 97/72/72 29/185/145 37/146/146
f 99/104/104 98/73/73 37/146/146 50/147/147
f 155/107/107 156/148/148 141/149/149 142/108/108
f 52/150/150 101/111/111 100/112/112 51/151/151
f 102/33/33 101/111/111 52/150/150 13/152/152
f 4/153/153 103/34/34 102/33/33 13/152/152
f 90/154/154 104/11/11 103/34/34 4/153/153
f 11/155/155 105/12/12 104/11/11 90/154/154
f 63/156/156 106/21/21 105/12/12 11/155/155
f 107/168/22 106/21/21 63/156/156 7/157/157
f 108/37/37 107/22/22 7/167/157 17/158/158
f 109/91/91 108/37/37 17/158/158 46/159/159
f 45/160/160 110/92/92 109/91/91 46/159/159
f 148/161/161 149/5/5 132/6/6 133/162/162
f 112/25/25 111/24/24 4/153/153 13/152/152
f 113/120/120 112/25/25 13/152/152 52/150/150
f 51/151/151 114/121/121 113/120/120 52/150/150
f 156/148/148 157/114/114 140/117/117 141/149/149
f 37/146/146 116/63/63 115/118/118 50/147/147
f 29/185/145 117/184/64 116/63/63 37/146/146
f 29/145/145 82/144/144 118/54/54 117/64/64
f 119/55/55 118/54/54 82/144/144 28/143/143
f 120/50/50 119/55/55 28/143/143 71/142/142
f 121/182/51 120/50/50 71/142/142 27/141/141
f 122/70/70 121/51/51 27/188/141 33/139/139
f 2/140/140 123/94/94 122/70/70 33/139/139
f 147/97/97 148/161/161 133/162/162 134/98/98
f 46/159/159 125/101/101 124/102/102 45/160/160
f 126/29/29 125/101/101 46/159/159 17/158/158
f 7/167/157 127/166/15 126/29/29 17/158/158
f 7/157/157 63/156/156 128/16/16 127/15/15
f 129/8/8 128/16/16 63/156/156 11/155/155
f 130/9/9 129/8/8 11/155/155 90/154/154
f 111/24/24 130/9/9 90/154/154 4/153/153
f 110/92/92 132/6/6 131/165/4 44/89/89
f 45/160/160 133/162/162 132/6/6 110/92/92
f 124/102/102 134/98/98 133/162/162 45/160/160
f 48/103/103 135/99/99 134/98/98 124/102/102
f 67/138/138 136/136/136 135/99/99 48/103/103
f 57/132/132 137/128/128 136/136/136 67/138/138
f 78/131/131 138/129/129 137/128/128 57/132/132
f 54/122/122 139/116/116 138/129/129 78/131/131
f 114/121/121 140/117/117 139/116/116 54/122/122
f 51/151/151 141/149/149 140/117/117 114/121/121
f 100/112/112 142/108/108 141/149/149 51/151/151
f 39/113/113 143/109/109 142/108/108 100/112/112
f 86/83/83 144/81/81 143/109/109 39/113/113
f 40/86/86 145/82/82 144/81/81 86/83/83
f 59/90/90 146/3/3 145/82/82 40/86/86
f 44/179/89 131/4/4 146/3/3 59/90/90
f 123/94/94 2/140/140 148/161/161 147/97/97
f 2/140/140 91/93/93 149/5/5 148/161/161
f 91/93/93 3/164/76 150/163/1 149/5/5
f 3/76/76 74/75/75 151/2/2 150/1/1
f 74/75/75 1/78/78 152/79/79 151/2/2
f 1/78/78 85/77/77 153/80/80 152/79/79
f 85/77/77 38/105/105 154/106/106 153/80/80
f 38/105/105 99/104/104 155/107/107 154/106/106
f 99/104/104 50/147/147 156/148/148 155/107/107
f 50/147/147 115/118/118 157/114/114 156/148/148
f 115/118/118 53/119/119 158/115/115 157/114/114
f 53/119/119 79/124/124 159/126/126 158/115/115
f 79/124/124 56/125/125 160/127/127 159/126/126
f 56/125/125 68/134/134 161/135/135 160/127/127
f 68/134/134 47/95/95 162/96/96 161/135/135
f 47/95/95 123/94/94 147/97/97 162/96/96
