# This file uses centimeters as units for non-parametric coordinates.

v 1.741510 1.407695 -2.967239
v 0.550861 -1.066364 -3.507404
v -2.410170 -0.283789 -2.173855
v -0.694739 2.371946 -1.773563
v 1.279842 0.143184 -3.386937
v -1.590581 1.228527 -2.017830
v 2.246985 1.620549 -2.880726
v 1.921888 -0.118246 -3.594865
v 0.931929 -1.605381 -3.536332
v -2.825761 -0.555931 -1.678416
v -1.964044 1.304128 -1.317198
v -0.705799 2.764080 -1.136954
v -2.880119 -1.938186 -2.291413
v -2.134628 -0.793926 -2.688835
v -1.015137 1.040075 -2.563838
v -0.179077 2.370291 -2.064676
v 0.100812 2.991667 -1.430841
v 1.452532 -0.916887 -3.624393
v 0.896915 -0.540223 -3.484905
v -1.518546 0.194646 -2.696176
v -2.053711 0.418617 -2.130529
v -2.464539 0.359086 -1.485223
v -1.380115 2.114030 -1.182488
v -1.099654 1.929479 -1.880880
v -0.550717 1.749215 -2.366236
v 1.582808 0.852600 -3.193277
v 2.219126 0.791479 -3.367957
v 0.328125 -0.006726 1.399852
v -0.615365 -1.992436 0.230121
v 1.821282 -2.148556 -1.318990
v 2.535883 -0.359518 -0.094706
v -0.251187 -1.098753 0.984992
v 2.391712 -1.337028 -0.653172
v 2.753669 0.073596 -0.403093
v -0.001110 0.757583 1.386808
v -0.988920 -0.657595 1.032594
v -1.129533 -2.030653 0.201353
v 1.857019 -2.221917 -1.812701
v 2.721179 -1.161892 -1.221285
v 0.839065 0.933366 1.331399
v 0.919631 0.000531 1.345228
v 0.457712 -1.354412 0.806443
v -0.205926 -2.179281 -0.048073
v -0.767999 -2.462787 -0.345672
v 2.859785 -0.454749 -0.832692
v 2.528750 -0.776438 -0.320207
v 0.742277 -0.738341 1.139770
v 0.060936 -0.501248 1.278154
v -0.566681 0.112286 1.284187
v -1.129581 -1.396348 0.664257
v -0.488002 -1.636616 0.564847
v 0.149272 -1.824273 0.357588
v 2.102357 -1.833531 -1.032064
v 2.358151 -1.796064 -1.563921
v 3.018901 0.982134 -1.377175
v 0.636297 2.872144 0.158308
v -0.386339 2.513726 0.364321
v -1.218609 1.455623 0.660380
v -1.878894 0.462978 0.545829
v -2.393585 -0.630272 0.285475
v -2.634065 -1.652147 -0.045084
v -2.632223 -2.919457 -1.032171
v 1.497561 -2.375336 -2.781189
v 2.483609 -1.754969 -2.823590
v 3.216800 0.128349 -1.979590
v 3.104625 -0.847110 -2.514730
v 0.405678 3.160633 -0.437239
v -0.567215 2.773269 -0.213425
v -1.411990 1.934022 -0.007540
v -2.101910 0.967011 -0.070826
v -2.701617 -0.205560 -0.285968
v -3.065206 -1.239083 -0.554256
v -3.066589 -2.801759 -1.509660
v 1.278893 -2.197123 -3.227998
v 2.306532 -1.621756 -3.422556
v 3.079754 -0.708341 -3.256410
v 3.248657 0.394358 -2.671859
v 2.998813 1.347291 -1.953777
v 2.945210 0.567632 -0.855058
v 3.082107 -0.097430 -1.411159
v 2.966074 -0.979012 -1.845354
v 2.500132 -1.770372 -2.193680
v 1.723996 -2.326460 -2.327428
v -1.619888 -2.718386 -0.610801
v -1.850616 -1.971551 0.165217
v -1.801616 -1.059387 0.598397
v -1.501226 -0.103612 0.904160
v -0.962823 0.848485 1.067870
v -0.252258 1.742761 1.020223
v 0.730768 2.021551 0.927303
v -2.268239 -1.787868 -2.821593
v -2.211721 -3.167540 -2.099839
v -1.865226 -3.099027 -1.314800
v -2.673172 -2.475896 -0.521450
v -3.240109 -2.065665 -0.958095
v -2.883292 -1.243654 -2.083204
v 0.281682 3.188998 -0.829195
v -0.644787 2.830637 -0.613025
v -1.437695 2.118614 -0.497071
v -2.094629 1.210203 -0.630669
v -2.686354 0.112690 -0.858608
v -3.097243 -0.962048 -1.111644
v -3.210453 -1.688544 -1.548774
v -3.056692 -2.273565 -2.085016
v -2.374005 -2.519014 -2.694509
v 1.063850 -1.874779 -3.474187
v 1.988964 -1.333523 -3.663459
v 2.644813 -0.437970 -3.764922
v 3.019256 0.675075 -3.286978
v 2.807526 1.643165 -2.406575
v 0.941220 1.976419 -2.567856
v 1.420589 2.537725 -2.114860
v 1.799373 2.742482 -1.529774
v 2.030543 2.586045 -0.951366
v 2.163892 2.156493 -0.336431
v 2.212940 1.484680 0.197024
v 2.148435 0.678839 0.568396
v 2.003451 -0.138682 0.702167
v 1.838105 -0.884811 0.554268
v 1.572397 -1.500998 0.187667
v 1.249228 -1.979495 -0.282272
v 0.894374 -2.355612 -0.754577
v 0.530978 -2.604368 -1.199436
v 0.184226 -2.809515 -1.631224
v -0.114852 -2.918821 -2.174767
v -0.393787 -2.825532 -2.776017
v -0.622973 -2.391395 -3.215409
v -0.673147 -1.787848 -3.367100
v -0.603932 -0.994585 -3.352425
v -0.250234 -0.142389 -3.264768
v 0.147589 0.614226 -3.090705
v 0.543575 1.323795 -2.865865
v -1.258183 -3.062977 -2.487803
v -1.469479 -2.512371 -3.038968
v -1.481326 -1.795821 -3.190808
v -1.386987 -0.880409 -3.112801
v -0.892373 0.040659 -3.043141
v -0.427266 0.847769 -2.888430
v -0.009395 1.560833 -2.671823
v 0.383214 2.232856 -2.354537
v 0.776137 2.827478 -1.805040
v 1.100217 3.087631 -1.149689
v 1.287412 3.010926 -0.621803
v 1.470396 2.596329 0.035830
v 1.590718 1.816975 0.658797
v 1.596102 0.879441 1.024906
v 1.527637 -0.055132 1.120787
v 1.329268 -0.842254 0.908112
v 1.041873 -1.461550 0.527866
v 0.729005 -1.952485 0.063049
v 0.345952 -2.311876 -0.396007
v -0.118399 -2.597503 -0.793537
v -0.639221 -2.855956 -1.179243
v -0.957962 -3.071671 -1.774206
v 0.119460 -1.699120 -3.462660
v 0.208320 -2.138799 -3.342515
v 0.421665 -2.547894 -3.012571
v 0.698689 -2.690645 -2.503217
v 0.964929 -2.633804 -2.004472
v 1.219043 -2.479471 -1.551295
v 1.407625 -2.264557 -1.070553
v 1.713065 -1.938247 -0.630918
v 2.006971 -1.449779 -0.208334
v 2.207674 -0.865998 0.133076
v 2.331030 -0.270252 0.316988
v 2.539418 0.399255 0.086377
v 2.648925 1.040396 -0.322520
v 2.670868 1.604017 -0.832308
v 2.593401 2.030674 -1.409679
v 2.359541 2.256143 -1.970040
v 1.912589 2.132004 -2.463253
v 1.395571 1.687061 -2.778223
v 1.056259 1.078629 -3.041850
v 0.702962 0.383567 -3.243782
v 0.309230 -0.331920 -3.374316
v -0.035570 -1.028465 -3.450676
vt 0.771849 0.290939
vt 0.770554 0.307368
vt 0.757949 0.306513
vt 0.759837 0.289215
vt 0.768377 0.324169
vt 0.756134 0.324487
vt 0.783593 0.308178
vt 0.783876 0.291986
vt 0.706157 0.160872
vt 0.702642 0.139678
vt 0.665682 0.410252
vt 0.755701 0.343474
vt 0.669844 0.428744
vt 0.655574 0.423995
vt 0.715683 0.303440
vt 0.711361 0.324919
vt 0.696882 0.323321
vt 0.701207 0.301568
vt 0.707508 0.196746
vt 0.773280 0.275821
vt 0.761985 0.272565
vt 0.709377 0.212261
vt 0.696602 0.120489
vt 0.781278 0.324087
vt 0.704516 0.281384
vt 0.719324 0.283383
vt 0.731046 0.304969
vt 0.726780 0.326763
vt 0.733788 0.285663
vt 0.709131 0.245639
vt 0.735398 0.268980
vt 0.721930 0.267497
vt 0.706260 0.263421
vt 0.778469 0.336585
vt 0.689807 0.103354
vt 0.721223 0.351082
vt 0.705785 0.344789
vt 0.690696 0.341467
vt 0.782392 0.279477
vt 0.706010 0.181060
vt 0.558679 0.294039
vt 0.561528 0.279926
vt 0.572815 0.280550
vt 0.570440 0.295888
vt 0.556056 0.308240
vt 0.567639 0.310770
vt 0.631599 0.215490
vt 0.573925 0.264769
vt 0.618839 0.199385
vt 0.633413 0.200486
vt 0.609948 0.301406
vt 0.612319 0.283827
vt 0.629626 0.283053
vt 0.626417 0.301359
vt 0.546683 0.292127
vt 0.544688 0.306246
vt 0.635368 0.135675
vt 0.635026 0.153785
vt 0.630557 0.231776
vt 0.587274 0.264566
vt 0.598706 0.404375
vt 0.553421 0.320731
vt 0.565325 0.324848
vt 0.602264 0.387748
vt 0.620604 0.317987
vt 0.606897 0.318968
vt 0.636125 0.171921
vt 0.550155 0.278678
vt 0.600962 0.266449
vt 0.630608 0.249374
vt 0.632923 0.266565
vt 0.614274 0.268928
vt 0.595652 0.299755
vt 0.598107 0.282989
vt 0.593632 0.315885
vt 0.610668 0.352149
vt 0.597502 0.349922
vt 0.604612 0.332548
vt 0.615305 0.334505
vt 0.553736 0.269457
vt 0.635822 0.186942
vt 0.544016 0.316741
vt 0.593374 0.418607
vt 0.664969 0.200931
vt 0.680192 0.200155
vt 0.682162 0.215034
vt 0.666668 0.215741
vt 0.649086 0.200998
vt 0.649295 0.215788
vt 0.653797 0.246499
vt 0.675580 0.243644
vt 0.674244 0.261021
vt 0.654430 0.263795
vt 0.688851 0.244428
vt 0.687311 0.261739
vt 0.647105 0.281356
vt 0.662971 0.280355
vt 0.680331 0.280359
vt 0.657725 0.298840
vt 0.641782 0.299600
vt 0.674909 0.299216
vt 0.636148 0.317119
vt 0.652867 0.317733
vt 0.669173 0.319708
vt 0.629919 0.334078
vt 0.647661 0.333405
vt 0.663689 0.335243
vt 0.645126 0.346864
vt 0.660112 0.347331
vt 0.656729 0.359016
vt 0.646067 0.356430
vt 0.650808 0.372950
vt 0.637517 0.365397
vt 0.621435 0.411477
vt 0.609692 0.407551
vt 0.613885 0.390420
vt 0.626355 0.395496
vt 0.634191 0.415635
vt 0.640033 0.400920
vt 0.615144 0.428068
vt 0.660296 0.126779
vt 0.648099 0.131379
vt 0.603929 0.424320
vt 0.627078 0.432810
vt 0.673094 0.123518
vt 0.677020 0.164748
vt 0.678747 0.184572
vt 0.664435 0.185904
vt 0.662820 0.167770
vt 0.650353 0.186887
vt 0.650612 0.170494
vt 0.674987 0.143997
vt 0.661474 0.147858
vt 0.648575 0.151250
vt 0.696563 0.244790
vt 0.695464 0.262219
vt 0.691020 0.280118
vt 0.687350 0.299841
vt 0.682673 0.321489
vt 0.676011 0.338923
vt 0.672694 0.351361
vt 0.668688 0.363165
vt 0.666176 0.377034
vt 0.646338 0.419939
vt 0.653718 0.405197
vt 0.637799 0.436008
vt 0.683090 0.122109
vt 0.688074 0.141195
vt 0.690705 0.162444
vt 0.691000 0.184385
vt 0.693691 0.199185
vt 0.695111 0.214145
vt 0.605237 0.370374
vt 0.618028 0.372583
vt 0.626969 0.353836
vt 0.675060 0.395107
vt 0.739071 0.346989
vt 0.645482 0.386736
vt 0.660976 0.391646
vt 0.630921 0.380089
vt 0.686545 0.356570
vt 0.675499 0.364954
vt 0.679769 0.378309
vt 0.728417 0.228545
vt 0.711177 0.228954
vt 0.696324 0.229344
vt 0.685300 0.229842
vt 0.669789 0.230184
vt 0.650183 0.230839
vt 0.585255 0.281598
vt 0.583007 0.297797
vt 0.580224 0.313119
vt 0.592174 0.369113
vt 0.741790 0.325402
vt 0.744811 0.305541
vt 0.746973 0.287622
vt 0.682433 0.101739
vt 0.670926 0.101529
vt 0.647093 0.111348
vt 0.636013 0.119892
vt 0.657961 0.104315
vt 0.644876 0.437852
vt 0.623332 0.138142
vt 0.621828 0.155459
vt 0.622144 0.172880
vt 0.625708 0.126065
vt 0.718867 0.159574
vt 0.716311 0.137700
vt 0.710086 0.118562
vt 0.705036 0.104812
vt 0.766977 0.340053
vt 0.679283 0.417335
vt 0.722095 0.192721
vt 0.717026 0.178772
vt 0.563190 0.267005
vt 0.615178 0.213687
vt 0.587828 0.400477
vt 0.585713 0.410981
vt 0.578669 0.327396
vt 0.589822 0.386284
vt 0.612144 0.231542
vt 0.612089 0.250442
vt 0.748894 0.270379
vt 0.726102 0.209465
vt 0.692476 0.398324
vt 0.700601 0.372588
vt 0.726742 0.248501
vt 0.592402 0.329687
vt 0.623395 0.186324
vt 0.660182 0.438534
vn -0.114782 0.382407 -0.916837
vn -0.123759 0.289687 -0.949086
vn -0.161032 0.326669 -0.931320
vn -0.127687 0.413917 -0.901315
vn -0.126522 0.205392 -0.970467
vn -0.196391 0.241973 -0.950200
vn -0.159702 0.260783 -0.952096
vn -0.147441 0.367830 -0.918130
vn 0.060897 0.436537 -0.897623
vn -0.099843 0.220185 -0.970335
vn -0.177268 -0.087583 -0.980258
vn -0.215180 0.122409 -0.968872
vn -0.128958 0.080471 -0.988380
vn -0.096754 -0.120772 -0.987954
vn -0.638207 0.503686 -0.582231
vn -0.679247 0.433820 -0.591966
vn -0.844824 0.456568 -0.278961
vn -0.797514 0.542463 -0.264017
vn 0.217337 0.719121 -0.660023
vn -0.063958 0.530901 -0.845017
vn -0.058334 0.567061 -0.821608
vn 0.131706 0.773173 -0.620369
vn -0.138361 0.048907 -0.989174
vn -0.142511 0.156422 -0.977355
vn -0.723582 0.648569 -0.236195
vn -0.582025 0.582034 -0.567877
vn -0.444474 0.435923 -0.782569
vn -0.494715 0.356726 -0.792467
vn -0.378752 0.511671 -0.771194
vn -0.213982 0.878745 -0.426636
vn -0.292284 0.675913 -0.676544
vn -0.475369 0.686468 -0.550260
vn -0.522849 0.810465 -0.264151
vn -0.112988 0.055859 -0.992025
vn -0.094458 -0.096599 -0.990831
vn -0.575081 0.255956 -0.777025
vn -0.717310 0.368326 -0.591441
vn -0.866152 0.357058 -0.349702
vn -0.099599 0.490053 -0.865984
vn 0.238486 0.622364 -0.745511
vn 0.613037 -0.629138 0.477882
vn 0.709217 -0.440971 0.550050
vn 0.568682 -0.457233 0.683768
vn 0.454340 -0.674166 0.582302
vn 0.492203 -0.771537 0.403072
vn 0.355241 -0.802262 0.479771
vn 0.728004 0.138453 0.671447
vn 0.672532 -0.135323 0.727591
vn 0.784662 -0.171242 0.595804
vn 0.850023 0.058131 0.523529
vn -0.083910 -0.467324 0.880095
vn -0.069066 -0.295863 0.952730
vn -0.269775 -0.032375 0.962379
vn -0.279073 -0.253040 0.926331
vn 0.756702 -0.539220 0.369653
vn 0.642540 -0.702247 0.306580
vn 0.725143 -0.666281 0.173891
vn 0.858485 -0.446053 0.253062
vn 0.508112 0.206860 0.836081
vn 0.482585 -0.116038 0.868129
vn 0.351985 -0.918802 0.178632
vn 0.385946 -0.872570 0.299445
vn 0.282518 -0.882911 0.375037
vn 0.248133 -0.925718 0.285441
vn -0.207870 -0.453287 0.866788
vn -0.051432 -0.614028 0.787607
vn 0.920370 -0.228701 0.317200
vn 0.830721 -0.363890 0.421292
vn 0.233095 -0.098181 0.967485
vn 0.188813 0.243725 0.951288
vn -0.115761 0.189529 0.975027
vn -0.001038 -0.099159 0.995071
vn 0.110220 -0.610924 0.783979
vn 0.172134 -0.424717 0.888811
vn 0.091033 -0.737488 0.669196
vn 0.068830 -0.835362 0.545375
vn 0.102352 -0.812043 0.574553
vn 0.012204 -0.720411 0.693440
vn -0.075352 -0.671045 0.737578
vn 0.867108 -0.198842 0.456712
vn 0.918497 -0.056684 0.391344
vn 0.504297 -0.830423 0.236819
vn 0.518247 -0.848352 0.108259
vn 0.870688 0.393274 0.295362
vn 0.817940 0.565536 0.105559
vn 0.657703 0.733831 0.170055
vn 0.726960 0.552223 0.408141
vn 0.875782 0.231553 0.423544
vn 0.746067 0.355235 0.563198
vn 0.132137 0.534239 0.834942
vn 0.084504 0.781888 0.617665
vn -0.314724 0.682527 0.659625
vn -0.211776 0.463345 0.860501
vn -0.025745 0.945857 0.323561
vn -0.443561 0.794242 0.415252
vn -0.422583 0.236746 0.874857
vn -0.567751 0.456989 0.684704
vn -0.676364 0.585260 0.447217
vn -0.679649 0.249036 0.689970
vn -0.483389 0.001001 0.875405
vn -0.804008 0.419451 0.421463
vn -0.427873 -0.240290 0.871313
vn -0.690677 0.031445 0.722479
vn -0.870384 0.268852 0.412492
vn -0.250558 -0.551443 0.795696
vn -0.594090 -0.289085 0.750658
vn -0.905230 0.062904 0.420241
vn -0.453484 -0.592386 0.665907
vn -0.932268 -0.202726 0.299632
vn -0.748614 -0.659425 -0.068814
vn -0.344066 -0.846492 0.406288
vn -0.292893 -0.902611 -0.315449
vn -0.013744 -0.963877 0.265992
vn 0.253185 -0.946803 -0.198647
vn 0.318200 -0.946676 0.050537
vn 0.231830 -0.957573 0.171196
vn 0.200757 -0.977549 -0.063991
vn 0.136327 -0.807758 -0.573534
vn 0.092098 -0.869994 -0.484384
vn 0.395558 -0.876019 -0.275907
vn 0.693991 -0.691712 -0.199778
vn 0.740271 -0.671571 0.031485
vn 0.487199 -0.872799 -0.029320
vn 0.242569 -0.746768 -0.619273
vn 0.541581 -0.609888 -0.578555
vn 0.979976 0.108459 -0.166984
vn 0.934494 0.355823 0.010520
vn 0.957431 0.214766 0.192878
vn 0.994896 -0.018481 0.099201
vn 0.947338 0.081390 0.309721
vn 0.966551 -0.117633 0.227905
vn 0.874995 -0.259961 -0.408416
vn 0.937261 -0.346918 -0.034492
vn 0.910780 -0.387123 0.143582
vn -0.130550 0.987988 -0.082685
vn -0.522774 0.850478 0.058262
vn -0.746621 0.658195 0.096624
vn -0.852350 0.519620 0.059107
vn -0.911558 0.410379 0.025508
vn -0.959382 0.280283 -0.032041
vn -0.980699 0.091671 -0.172700
vn -0.834380 -0.290847 -0.468207
vn -0.481006 -0.474807 -0.737015
vn -0.003206 -0.482605 -0.875832
vn -0.068046 -0.510041 -0.857455
vn 0.029016 -0.422298 -0.905993
vn 0.147231 -0.266998 -0.952384
vn 0.393515 0.020880 -0.919081
vn 0.636441 0.352778 -0.685923
vn 0.710426 0.586442 -0.389078
vn 0.592705 0.752081 -0.288229
vn 0.434076 0.867716 -0.242170
vn 0.166473 -0.899120 0.404808
vn 0.160624 -0.928612 0.334484
vn -0.026830 -0.816197 0.577151
vn -0.334709 -0.018677 -0.942136
vn -0.366901 0.188016 -0.911062
vn -0.019088 -0.916453 -0.399686
vn -0.224382 -0.501634 -0.835473
vn 0.141473 -0.984131 0.107108
vn -0.804702 0.246001 -0.540314
vn -0.746243 0.097473 -0.658498
vn -0.542484 0.058554 -0.838023
vn -0.139245 0.621588 -0.770869
vn -0.000219 0.825509 -0.564388
vn 0.219098 0.954842 -0.200681
vn 0.410847 0.880689 0.235778
vn 0.477738 0.693438 0.539361
vn 0.501908 0.463810 0.730048
vn 0.386969 -0.454214 0.802462
vn 0.289614 -0.670158 0.683383
vn 0.223841 -0.792844 0.566827
vn 0.182262 -0.861603 0.473731
vn -0.327245 0.289755 -0.899418
vn -0.271918 0.374750 -0.886354
vn -0.217483 0.459045 -0.861382
s 1
f 173/1/1 174/2/2 131/3/3 132/4/4
f 174/2/2 175/5/5 130/6/6 131/3/3
f 5/188/7 26/187/8 27/9/9 8/10/10
f 128/11/11 129/192/12 176/13/13 155/14/14
f 6/15/15 21/16/16 22/17/17 11/18/18
f 171/19/19 172/193/20 111/204/21 112/22/22
f 18/23/23 19/189/24 5/188/7 8/10/10
f 23/25/25 24/26/26 6/15/15 11/18/18
f 15/27/27 20/28/28 21/16/16 6/15/15
f 25/29/29 15/27/27 6/15/15 24/26/26
f 17/30/30 16/207/31 4/32/32 12/33/33
f 2/190/34 19/189/24 18/23/23 9/35/35
f 175/5/5 176/191/13 129/12/12 130/6/6
f 20/28/28 14/36/36 3/37/37 21/16/16
f 22/17/17 21/16/16 3/37/37 10/38/38
f 4/32/32 24/26/26 23/25/25 12/33/33
f 4/32/32 16/31/31 25/29/29 24/26/26
f 172/20/20 173/1/1 132/4/4 111/21/21
f 27/9/9 26/187/8 1/194/39 7/40/40
f 163/41/41 164/42/42 119/43/43 120/44/44
f 162/45/45 163/41/41 120/44/44 121/46/46
f 117/47/47 118/196/48 165/49/49 166/50/50
f 32/51/51 48/52/52 49/53/53 36/54/54
f 33/184/55 53/183/56 54/57/57 39/58/58
f 146/59/59 147/201/60 118/196/48 117/47/47
f 160/61/61 161/197/62 122/200/63 123/64/64
f 50/65/65 51/66/66 32/51/51 36/54/54
f 45/67/67 46/185/68 33/184/55 39/58/58
f 41/202/69 40/70/70 35/71/71 28/72/72
f 42/73/73 47/74/74 48/52/52 32/51/51
f 52/75/75 42/73/73 32/51/51 51/66/66
f 44/76/76 43/77/77 29/78/78 37/79/79
f 31/209/80 46/185/68 45/67/67 34/81/81
f 164/42/42 165/195/49 118/48/48 119/43/43
f 47/74/74 41/69/69 28/72/72 48/52/52
f 49/53/53 48/52/52 28/72/72 35/71/71
f 29/78/78 51/66/66 50/65/65 37/79/79
f 43/208/77 52/75/75 51/66/66 29/78/78
f 161/62/62 162/45/45 121/46/46 122/63/63
f 54/57/57 53/183/56 30/186/82 38/180/83
f 168/84/84 169/85/85 114/86/86 115/87/87
f 167/88/88 168/84/84 115/87/87 116/89/89
f 90/90/90 56/91/91 57/92/92 89/93/93
f 56/91/91 67/94/94 68/95/95 57/92/92
f 88/96/96 89/93/93 57/92/92 58/97/97
f 68/95/95 69/98/98 58/97/97 57/92/92
f 59/99/99 87/100/100 88/96/96 58/97/97
f 58/97/97 69/98/98 70/101/101 59/99/99
f 86/102/102 87/100/100 59/99/99 60/103/103
f 70/101/101 71/104/104 60/103/103 59/99/99
f 85/105/105 86/102/102 60/103/103 61/106/106
f 60/103/103 71/104/104 72/107/107 61/106/106
f 94/108/108 95/109/109 73/110/110 62/111/111
f 92/112/112 93/113/113 62/111/111 73/110/110
f 158/114/114 159/115/115 124/116/116 125/117/117
f 157/118/118 158/114/114 125/117/117 126/119/119
f 63/181/120 64/121/121 82/122/122 83/179/123
f 64/121/121 63/181/120 74/178/124 75/125/125
f 77/126/126 78/127/127 55/128/128 65/129/129
f 55/128/128 79/130/130 80/131/131 65/129/129
f 75/125/125 76/132/132 66/133/133 64/121/121
f 66/133/133 76/132/132 77/126/126 65/129/129
f 65/129/129 80/131/131 81/134/134 66/133/133
f 64/121/121 66/133/133 81/134/134 82/122/122
f 67/94/94 97/135/135 98/136/136 68/95/95
f 98/136/136 99/137/137 69/98/98 68/95/95
f 70/101/101 69/98/98 99/137/137 100/138/138
f 100/138/138 101/139/139 71/104/104 70/101/101
f 72/107/107 71/104/104 101/139/139 102/140/140
f 73/110/110 95/109/109 103/141/141 104/142/142
f 104/142/142 105/143/143 92/112/112 73/110/110
f 156/144/144 157/118/118 126/119/119 127/145/145
f 75/125/125 74/178/124 106/177/146 107/147/147
f 107/147/147 108/148/148 76/132/132 75/125/125
f 77/126/126 76/132/132 108/148/148 109/149/149
f 109/149/149 110/150/150 78/127/127 77/126/126
f 169/85/85 170/151/151 113/152/152 114/86/86
f 166/50/50 167/88/88 116/89/89 117/47/47
f 80/131/131 79/130/130 34/81/81 45/67/67
f 81/134/134 80/131/131 45/67/67 39/58/58
f 82/122/122 81/134/134 39/58/58 54/57/57
f 83/179/123 82/122/122 54/57/57 38/180/83
f 159/115/115 160/61/61 123/64/64 124/116/116
f 123/64/64 152/153/153 153/154/154 124/116/116
f 84/155/155 44/76/76 37/79/79 85/105/105
f 50/65/65 86/102/102 85/105/105 37/79/79
f 36/54/54 87/100/100 86/102/102 50/65/65
f 88/96/96 87/100/100 36/54/54 49/53/53
f 35/71/71 89/93/93 88/96/96 49/53/53
f 40/70/70 90/90/90 89/93/93 35/71/71
f 135/156/156 136/205/157 129/192/12 128/11/11
f 126/119/119 133/158/158 134/159/159 127/145/145
f 125/117/117 154/160/160 133/158/158 126/119/119
f 153/154/154 154/160/160 125/117/117 124/116/116
f 94/108/108 84/155/155 85/105/105 61/106/106
f 61/106/106 72/107/107 95/109/109 94/108/108
f 102/140/140 103/141/141 95/109/109 72/107/107
f 3/37/37 14/206/36 96/161/161 10/38/38
f 62/111/111 93/113/113 84/155/155 94/108/108
f 13/162/162 96/161/161 14/206/36 91/163/163
f 98/136/136 97/135/135 17/30/30 12/33/33
f 23/25/25 99/137/137 98/136/136 12/33/33
f 100/138/138 99/137/137 23/25/25 11/18/18
f 22/17/17 101/139/139 100/138/138 11/18/18
f 102/140/140 101/139/139 22/17/17 10/38/38
f 96/161/161 103/141/141 102/140/140 10/38/38
f 104/142/142 103/141/141 96/161/161 13/162/162
f 91/163/163 105/143/143 104/142/142 13/162/162
f 134/159/159 135/156/156 128/11/11 127/145/145
f 155/14/14 156/144/144 127/145/145 128/11/11
f 107/147/147 106/177/146 9/35/35 18/23/23
f 8/10/10 108/148/148 107/147/147 18/23/23
f 109/149/149 108/148/148 8/10/10 27/9/9
f 7/40/40 110/150/150 109/149/149 27/9/9
f 170/151/151 171/19/19 112/22/22 113/152/152
f 112/22/22 111/204/21 140/164/164 141/165/165
f 141/165/165 142/166/166 113/152/152 112/22/22
f 142/166/166 143/167/167 114/86/86 113/152/152
f 115/87/87 114/86/86 143/167/167 144/168/168
f 116/89/89 115/87/87 144/168/168 145/169/169
f 145/169/169 146/59/59 117/47/47 116/89/89
f 147/60/60 148/170/170 119/43/43 118/48/48
f 120/44/44 119/43/43 148/170/170 149/171/171
f 121/46/46 120/44/44 149/171/171 150/172/172
f 122/63/63 121/46/46 150/172/172 151/199/173
f 123/64/64 122/200/63 151/173/173 152/153/153
f 136/157/157 137/174/174 130/6/6 129/12/12
f 137/174/174 138/175/175 131/3/3 130/6/6
f 132/4/4 131/3/3 138/175/175 139/176/176
f 111/21/21 132/4/4 139/176/176 140/203/164
f 134/159/159 133/158/158 92/112/112 105/143/143
f 105/143/143 91/163/163 135/156/156 134/159/159
f 91/163/163 14/206/36 136/205/157 135/156/156
f 20/28/28 137/174/174 136/157/157 14/36/36
f 15/27/27 138/175/175 137/174/174 20/28/28
f 139/176/176 138/175/175 15/27/27 25/29/29
f 140/203/164 139/176/176 25/29/29 16/31/31
f 141/165/165 140/164/164 16/207/31 17/30/30
f 97/135/135 142/166/166 141/165/165 17/30/30
f 67/94/94 143/167/167 142/166/166 97/135/135
f 144/168/168 143/167/167 67/94/94 56/91/91
f 145/169/169 144/168/168 56/91/91 90/90/90
f 40/70/70 146/59/59 145/169/169 90/90/90
f 40/70/70 41/202/69 147/201/60 146/59/59
f 47/74/74 148/170/170 147/60/60 41/69/69
f 149/171/171 148/170/170 47/74/74 42/73/73
f 150/172/172 149/171/171 42/73/73 52/75/75
f 151/199/173 150/172/172 52/75/75 43/208/77
f 152/153/153 151/173/173 43/77/77 44/76/76
f 153/154/154 152/153/153 44/76/76 84/155/155
f 84/155/155 93/113/113 154/160/160 153/154/154
f 133/158/158 154/160/160 93/113/113 92/112/112
f 106/146/146 156/144/144 155/14/14 9/182/35
f 74/124/124 157/118/118 156/144/144 106/146/146
f 63/120/120 158/114/114 157/118/118 74/124/124
f 83/123/123 159/115/115 158/114/114 63/120/120
f 38/83/83 160/61/61 159/115/115 83/123/123
f 30/198/82 161/197/62 160/61/61 38/83/83
f 53/56/56 162/45/45 161/62/62 30/82/82
f 33/55/55 163/41/41 162/45/45 53/56/56
f 46/68/68 164/42/42 163/41/41 33/55/55
f 31/80/80 165/195/49 164/42/42 46/68/68
f 166/50/50 165/49/49 31/209/80 34/81/81
f 79/130/130 167/88/88 166/50/50 34/81/81
f 55/128/128 168/84/84 167/88/88 79/130/130
f 78/127/127 169/85/85 168/84/84 55/128/128
f 110/150/150 170/151/151 169/85/85 78/127/127
f 7/40/40 171/19/19 170/151/151 110/150/150
f 1/194/39 172/193/20 171/19/19 7/40/40
f 26/8/8 173/1/1 172/20/20 1/39/39
f 5/7/7 174/2/2 173/1/1 26/8/8
f 19/24/24 175/5/5 174/2/2 5/7/7
f 2/34/34 176/191/13 175/5/5 19/24/24
f 155/14/14 176/13/13 2/210/34 9/182/35
