# This file uses centimeters as units for non-parametric coordinates.

v 0.910390 2.862886 -1.347141
v -0.686992 2.890477 -1.360819
v -0.709085 3.498552 0.253905
v 1.044397 3.568470 0.239215
v -0.885128 3.340327 -0.633188
v 1.092275 3.375572 -0.622514
v 0.113556 2.962538 -1.541708
v 0.089517 3.771018 -0.813947
v 0.162126 3.920985 0.338874
v -1.201496 -2.860100 0.749166
v -1.256649 -3.173299 -1.431554
v 0.686098 -3.652586 -1.529272
v 0.856922 -3.456134 0.941694
v -1.604485 -3.232498 -0.236684
v 1.093946 -3.984589 -0.233057
v -0.262622 -3.134389 1.012372
v -0.383834 -3.842248 -0.156299
v -0.350008 -3.510977 -1.589743
v 1.366807 -3.064947 1.286769
v -0.146933 -2.517373 1.495987
v -1.385638 -2.411738 0.977208
v -2.187828 -2.731091 -0.260340
v -1.453330 -2.691551 -1.687118
v -0.235338 -2.851079 -2.033203
v 1.016830 -3.163038 -1.816482
v 2.095070 -3.500002 -0.308477
v 1.881895 -2.384219 1.568421
v -0.012084 -1.769230 1.896767
v -1.582191 -1.715971 1.254215
v -2.834098 -1.887688 -0.323293
v -1.609984 -1.930444 -1.920647
v -0.117953 -2.042253 -2.269275
v 1.341350 -2.350104 -1.989213
v 2.669583 -2.715653 -0.385970
v 2.148043 -1.425367 1.771138
v 0.117552 -0.905576 2.204829
v -1.704105 -0.819826 1.512356
v -3.045986 -0.936101 -0.327587
v -1.636226 -0.992757 -2.041549
v -0.019855 -1.138215 -2.377021
v 1.587792 -1.376935 -2.039566
v 2.994392 -1.705769 -0.314018
v -1.386756 0.873864 -1.911992
v 0.096411 0.702682 -2.285579
v 1.628633 0.654408 -1.887430
v 2.794350 0.757873 -0.252928
v 2.124426 0.842656 1.693370
v 0.273825 1.117036 2.315722
v -1.564067 1.188066 1.556247
v -2.288522 1.077484 -0.320063
v -1.529432 -0.032832 -2.032531
v -2.708648 0.182896 -0.330514
v -1.726043 0.182018 1.681871
v 0.208447 0.051432 2.377021
v 2.214029 -0.298020 1.826917
v 3.045986 -0.454261 -0.262667
v 1.683162 -0.339004 -1.997627
v 0.054113 -0.202006 -2.372070
v -0.802680 3.116787 -1.061651
v -2.015391 0.993730 -1.249187
v -2.310884 0.092500 -1.362705
v -2.477623 -0.947901 -1.434049
v -2.361446 -1.977282 -1.356443
v -1.983438 -2.752141 -1.136875
v -1.503156 -3.274155 -0.956428
v -0.395202 -3.859534 -0.930424
v 0.915905 -3.916229 -1.069862
v 1.602665 -3.443504 -1.339639
v 2.078321 -2.585874 -1.515378
v 2.356916 -1.540746 -1.538966
v 2.485568 -0.399279 -1.430621
v 2.333325 0.708036 -1.274059
v 1.022237 3.098138 -1.067668
v 0.101845 3.407898 -1.222323
v 1.117746 3.524160 -0.144875
v 2.683417 0.774918 0.830911
v 2.884084 -0.400326 0.922875
v 2.781208 -1.597437 0.976437
v 2.377403 -2.618366 0.948073
v 1.787897 -3.334758 0.786276
v 0.990436 -3.741569 0.519799
v -0.327797 -3.537077 0.520849
v -1.420255 -3.041611 0.386136
v -1.880525 -2.550944 0.487211
v -2.386473 -1.754394 0.656172
v -2.646947 -0.910916 0.807418
v -2.528429 0.198366 0.824324
v -2.124331 1.150459 0.673842
v -0.822237 3.477441 -0.131430
v 0.104830 3.992056 -0.309351
v 0.573154 2.940162 -1.466802
v 0.864584 0.653455 -2.183954
v 0.859227 -0.275616 -2.275864
v 0.775205 -1.242153 -2.288393
v 0.609679 -2.170163 -2.200975
v 0.400552 -2.985183 -1.993885
v 0.215635 -3.625699 -1.586058
v 0.227849 -3.988745 -0.967242
v 0.279027 -3.992056 -0.172759
v 0.274006 -3.698778 0.528879
v 0.302251 -3.324723 1.020722
v 0.552179 -2.771700 1.517815
v 0.866314 -2.046955 1.934859
v 1.139120 -1.167163 2.220102
v 1.251869 -0.137239 2.343795
v 1.259684 0.977549 2.221117
v 0.691367 3.810134 0.294038
v 0.639295 3.868915 -0.266449
v 0.585562 3.673764 -0.762139
v 0.576565 3.331781 -1.158009
v -0.380834 3.744826 0.320928
v -0.668860 1.170704 2.113595
v -0.734556 0.143571 2.139753
v -0.778488 -0.804737 1.935334
v -0.804382 -1.689031 1.636323
v -0.789356 -2.423202 1.297309
v -0.766572 -2.978158 0.903616
v -0.884677 -3.336964 0.436746
v -0.989883 -3.593204 -0.195418
v -0.952240 -3.629897 -0.922949
v -0.879896 -3.338470 -1.526191
v -0.860061 -2.743861 -1.945984
v -0.840589 -1.957434 -2.200043
v -0.800918 -1.056727 -2.314677
v -0.725521 -0.117632 -2.307381
v -0.647570 0.783301 -2.209893
v -0.360687 2.939780 -1.490878
v -0.392986 3.335170 -1.169628
v -0.434575 3.660381 -0.753252
v -0.387348 3.857396 -0.263284
v 1.283165 2.074772 -1.588925
v 1.726881 2.207617 -1.084136
v 1.968282 2.391396 -0.360294
v 1.931135 2.505162 0.394019
v 1.594262 2.626016 1.022265
v 0.988841 2.779295 1.399811
v 0.258476 2.858878 1.487046
v -0.470380 2.794471 1.360265
v -1.052166 2.635103 0.924804
v -1.444923 2.514503 0.304164
v -1.588567 2.390053 -0.413487
v -1.438613 2.250573 -1.085957
v -1.027922 2.137319 -1.599952
v -0.493108 2.064515 -1.885463
v 0.117839 2.030246 -1.962379
v 0.721644 2.035030 -1.862647
v 2.043230 1.544233 -1.170780
v 1.476319 1.447976 -1.744258
v 0.796335 1.427229 -2.034319
v 0.109766 1.437515 -2.137377
v -0.571102 1.481049 -2.060591
v -1.207800 1.559826 -1.761597
v -1.731520 1.663475 -1.173689
v -1.926441 1.792368 -0.346650
v -1.758755 1.898899 0.496356
v -1.283950 1.986790 1.253729
v -0.552600 2.070541 1.806286
v 0.276646 2.069505 1.973662
v 1.150900 1.972185 1.871989
v 1.885847 1.838266 1.398786
v 2.337082 1.745827 0.636034
v 2.401956 1.667524 -0.295072
v 1.086749 2.537826 -1.462230
v 1.401244 2.685046 -1.074508
v 1.581065 2.889010 -0.480403
v 1.532412 3.080374 0.098091
v 1.297795 3.228328 0.583691
v 0.823097 3.403619 0.870643
v 0.218029 3.460076 0.973241
v -0.413645 3.361872 0.869515
v -0.871179 3.161745 0.557867
v -1.150808 3.033688 0.074927
v -1.271244 2.872042 -0.515438
v -1.156084 2.669662 -1.085368
v -0.861453 2.530844 -1.485882
v -0.424461 2.512420 -1.712114
v 0.115792 2.498921 -1.780189
v 0.644413 2.504972 -1.691113
vt 0.610126 0.478369
vt 0.612947 0.468363
vt 0.622878 0.470815
vt 0.620609 0.480976
vt 0.605725 0.487985
vt 0.617615 0.490411
vt 0.633088 0.473638
vt 0.631418 0.484169
vt 0.628354 0.494026
vt 0.495496 0.495815
vt 0.501940 0.487206
vt 0.513449 0.491780
vt 0.507291 0.500856
vt 0.667343 0.539242
vt 0.666035 0.526655
vt 0.679895 0.529000
vt 0.682069 0.540173
vt 0.607938 0.526950
vt 0.610681 0.513317
vt 0.625225 0.517195
vt 0.622597 0.530745
vt 0.550393 0.512430
vt 0.554514 0.500248
vt 0.570276 0.502911
vt 0.565487 0.517189
vt 0.651500 0.523032
vt 0.651974 0.536667
vt 0.537764 0.497570
vt 0.533925 0.508651
vt 0.491575 0.481532
vt 0.484572 0.489306
vt 0.596642 0.509348
vt 0.593400 0.524369
vt 0.570255 0.676666
vt 0.570402 0.661268
vt 0.585305 0.661943
vt 0.584481 0.676267
vt 0.571736 0.692710
vt 0.584476 0.691867
vt 0.599443 0.663214
vt 0.598168 0.677321
vt 0.596597 0.692042
vt 0.586799 0.650616
vt 0.571025 0.649766
vt 0.572554 0.635630
vt 0.589280 0.636032
vt 0.612725 0.678820
vt 0.612705 0.664658
vt 0.634292 0.646546
vt 0.652754 0.650499
vt 0.585481 0.706927
vt 0.432523 0.602155
vt 0.436913 0.587451
vt 0.449095 0.593318
vt 0.553649 0.678358
vt 0.557928 0.695608
vt 0.489091 0.617343
vt 0.512882 0.624778
vt 0.671952 0.654704
vt 0.609793 0.693497
vt 0.537586 0.632933
vt 0.554660 0.661595
vt 0.604072 0.638949
vt 0.600889 0.651733
vt 0.461479 0.600231
vt 0.573406 0.707102
vt 0.574979 0.618989
vt 0.592091 0.619373
vt 0.641258 0.628248
vt 0.661316 0.631248
vt 0.440783 0.569639
vt 0.453999 0.575576
vt 0.494344 0.598957
vt 0.516269 0.607152
vt 0.680733 0.637867
vt 0.540053 0.615913
vt 0.607157 0.622667
vt 0.466722 0.582539
vt 0.577634 0.600565
vt 0.595069 0.601257
vt 0.646043 0.611143
vt 0.665997 0.613671
vt 0.446511 0.549981
vt 0.460213 0.556577
vt 0.500863 0.579143
vt 0.522341 0.589315
vt 0.688259 0.616527
vt 0.543011 0.595462
vt 0.610422 0.603849
vt 0.473459 0.563588
vt 0.499600 0.512349
vt 0.487333 0.506585
vt 0.686385 0.554937
vt 0.669203 0.554075
vt 0.619723 0.546646
vt 0.604995 0.543679
vt 0.559758 0.533676
vt 0.544014 0.527640
vt 0.652541 0.551855
vt 0.527162 0.522418
vt 0.475620 0.499641
vt 0.589746 0.541439
vt 0.468435 0.537710
vt 0.455324 0.530450
vt 0.465858 0.512625
vt 0.478175 0.520251
vt 0.490919 0.526964
vt 0.481583 0.544600
vt 0.670618 0.571024
vt 0.689276 0.571542
vt 0.690670 0.593231
vt 0.670502 0.591211
vt 0.649977 0.589894
vt 0.652134 0.569329
vt 0.601634 0.562310
vt 0.617099 0.564647
vt 0.613708 0.584578
vt 0.598251 0.582443
vt 0.581678 0.581195
vt 0.585766 0.560622
vt 0.537216 0.545541
vt 0.553907 0.552677
vt 0.547638 0.573763
vt 0.529618 0.567600
vt 0.510029 0.558802
vt 0.519577 0.538676
vt 0.483810 0.474919
vt 0.695614 0.537527
vt 0.702201 0.552321
vt 0.707560 0.570664
vt 0.440295 0.522079
vt 0.707612 0.620333
vt 0.698628 0.643738
vt 0.686606 0.660272
vt 0.605698 0.704041
vt 0.563469 0.706410
vt 0.473978 0.607553
vt 0.479619 0.590208
vt 0.486958 0.571083
vt 0.495117 0.551424
vt 0.504337 0.532928
vt 0.512517 0.517893
vt 0.519655 0.505221
vt 0.524789 0.495486
vt 0.615350 0.458625
vt 0.625412 0.460212
vt 0.497747 0.473461
vt 0.583543 0.506319
vt 0.579286 0.521769
vt 0.574704 0.538426
vt 0.569786 0.557622
vt 0.564749 0.578358
vt 0.559319 0.598526
vt 0.554620 0.616756
vt 0.553213 0.634084
vt 0.553896 0.649307
vt 0.614208 0.654048
vt 0.618787 0.642158
vt 0.622576 0.626626
vt 0.626895 0.607458
vt 0.630935 0.587330
vt 0.634264 0.567237
vt 0.636124 0.549430
vt 0.636995 0.534269
vt 0.638380 0.520156
vt 0.613892 0.501085
vt 0.627707 0.505427
vt 0.600479 0.497505
vt 0.592405 0.485727
vt 0.588736 0.494962
vt 0.597745 0.474931
vt 0.541261 0.486538
vt 0.607615 0.457527
vt 0.642800 0.475399
vt 0.642213 0.466953
vt 0.642603 0.486390
vt 0.651671 0.510905
vt 0.638442 0.508625
vt 0.690672 0.527762
vt 0.475741 0.480712
vt 0.464858 0.490439
vt 0.452950 0.503234
vt 0.597093 0.705653
vt 0.443790 0.608791
vt 0.456666 0.615643
vt 0.469344 0.620846
vt 0.629169 0.658927
vt 0.647497 0.665111
vt 0.533503 0.648863
vt 0.484199 0.632707
vt 0.508004 0.645340
vt 0.665884 0.668359
vt 0.424674 0.597247
vt 0.678191 0.670715
vt 0.710223 0.595008
vt 0.430407 0.543516
vt 0.424860 0.565485
vt 0.423924 0.584372
vt 0.635363 0.463535
vt 0.686383 0.519133
vt 0.491168 0.469803
vt 0.518380 0.482776
vt 0.507564 0.478127
vt 0.640795 0.498951
vt 0.574249 0.490444
vt 0.558079 0.487139
vt 0.603287 0.464414
vt 0.528170 0.487548
vt 0.677712 0.516756
vt 0.665847 0.513682
vn 0.386289 0.788537 -0.478530
vn 0.334940 0.664984 -0.667541
vn 0.005406 0.687010 -0.726628
vn -0.012133 0.852728 -0.522215
vn 0.393951 0.906211 -0.153571
vn -0.031296 0.992099 -0.121491
vn -0.328729 0.670810 -0.664794
vn -0.434747 0.793952 -0.425013
vn -0.440130 0.895286 -0.068914
vn 0.027714 0.318945 -0.947368
vn 0.023764 0.411101 -0.911280
vn 0.262487 0.414313 -0.871461
vn 0.272803 0.328642 -0.904197
vn -0.861461 0.499749 -0.090202
vn -0.815744 0.557705 -0.153383
vn -0.725197 0.508907 -0.463792
vn -0.769671 0.457554 -0.445253
vn -0.007855 0.586178 0.810144
vn -0.018753 0.733783 0.679125
vn -0.387956 0.681524 0.620496
vn -0.384610 0.564503 0.730350
vn 0.838536 0.506182 -0.201588
vn 0.769302 0.581221 -0.265249
vn 0.780594 0.624339 0.029564
vn 0.828055 0.538934 0.154516
vn -0.802833 0.575869 0.154384
vn -0.820125 0.517722 0.243638
vn 0.682379 0.520610 -0.513151
vn 0.735101 0.445542 -0.510998
vn -0.236330 0.420792 -0.875832
vn -0.245278 0.342213 -0.907044
vn 0.344680 0.719339 0.603114
vn 0.351471 0.581791 0.733476
vn -0.083867 -0.981289 0.173316
vn -0.126510 -0.875946 0.465525
vn -0.291261 -0.813230 0.503810
vn -0.295707 -0.931254 0.212891
vn -0.082911 -0.973752 -0.211972
vn -0.285873 -0.935914 -0.205772
vn -0.407702 -0.772136 0.487427
vn -0.450127 -0.870478 0.199134
vn -0.437530 -0.880771 -0.181136
vn -0.280211 -0.637777 0.717442
vn -0.146641 -0.689517 0.709269
vn -0.060190 -0.530856 0.845322
vn -0.256708 -0.477690 0.840186
vn -0.607492 -0.778582 0.157367
vn -0.531674 -0.697948 0.479783
vn -0.635340 -0.558258 0.533565
vn -0.767906 -0.631956 0.104651
vn -0.210969 -0.702747 -0.679440
vn -0.348332 -0.683085 -0.641919
vn -0.277370 -0.389912 -0.878086
vn -0.101746 -0.390278 -0.915058
vn 0.299460 -0.951515 0.070301
vn 0.275181 -0.911877 -0.304558
vn 0.557851 -0.654945 -0.509755
vn 0.672940 -0.738635 -0.039623
vn -0.712060 -0.580508 -0.394945
vn -0.599047 -0.769700 -0.220690
vn 0.551118 -0.728520 0.406851
vn 0.215139 -0.893220 0.394807
vn -0.365981 -0.459063 0.809518
vn -0.367157 -0.611471 0.700927
vn 0.065252 -0.386243 -0.920086
vn -0.060407 -0.716680 -0.694781
vn 0.054051 -0.384053 0.921728
vn -0.222768 -0.344468 0.911985
vn -0.722986 -0.388850 0.571041
vn -0.923958 -0.382429 -0.007045
vn -0.239500 -0.193052 -0.951510
vn -0.028966 -0.186260 -0.982073
vn 0.700454 -0.342801 -0.625981
vn 0.888694 -0.439128 -0.131874
vn -0.772529 -0.313031 -0.552458
vn 0.787758 -0.463676 0.405516
vn -0.364174 -0.336786 0.868304
vn 0.151604 -0.189844 -0.970039
vn 0.175036 -0.215969 0.960583
vn -0.169041 -0.216930 0.961440
vn -0.835490 -0.078122 0.543924
vn -0.997564 0.011777 -0.068752
vn -0.214392 -0.042404 -0.975827
vn 0.008505 -0.052487 -0.998585
vn 0.766270 -0.114477 -0.632238
vn 0.972677 -0.179966 -0.146667
vn -0.794222 0.021917 -0.607233
vn 0.904622 -0.191353 0.380846
vn -0.355958 -0.221522 0.907867
vn 0.200834 -0.058641 -0.977869
vn 0.266183 0.246890 -0.931768
vn 0.031409 0.238342 -0.970673
vn -0.784054 0.408771 -0.467082
vn -0.885228 0.459475 -0.072485
vn -0.367216 0.436276 0.821472
vn -0.010002 0.425252 0.905020
vn 0.872586 0.425109 0.240576
vn 0.893913 0.413188 -0.173768
vn -0.830388 0.478550 0.285388
vn 0.763403 0.362714 -0.534466
vn -0.234259 0.269842 -0.933974
vn 0.351891 0.423492 0.834762
vn 0.024910 0.051274 -0.998374
vn -0.207516 0.076719 -0.975219
vn -0.217971 0.175356 -0.960072
vn 0.031132 0.143618 -0.989143
vn 0.253821 0.147258 -0.955976
vn 0.232353 0.048111 -0.971441
vn -0.904275 0.419039 -0.081807
vn -0.788276 0.348397 -0.507189
vn -0.788023 0.241936 -0.566115
vn -0.950084 0.299046 -0.088944
vn -0.864766 0.214763 0.453935
vn -0.846177 0.405776 0.345443
vn -0.039456 0.198735 0.979259
vn -0.359495 0.218426 0.907223
vn -0.353191 -0.033128 0.934964
vn -0.100458 -0.036132 0.994285
vn 0.267403 -0.012945 0.963498
vn 0.330009 0.212727 0.919696
vn 0.951141 0.265120 -0.158249
vn 0.914374 0.258885 0.311284
vn 0.934998 0.053137 0.350649
vn 0.985823 0.059743 -0.156791
vn 0.799783 0.070940 -0.596083
vn 0.792592 0.237871 -0.561441
vn -0.525675 0.451140 -0.721207
vn -0.542079 0.395460 -0.741459
vn -0.534968 0.336143 -0.775124
vn -0.520732 0.248795 -0.816663
vn -0.496210 0.140515 -0.856756
vn -0.486559 -0.015499 -0.873510
vn -0.488185 -0.223278 -0.843696
vn -0.495612 -0.441792 -0.747789
vn -0.490815 -0.651275 -0.578742
vn 0.149357 -0.715487 -0.682474
vn 0.295113 -0.450581 -0.842547
vn 0.374359 -0.232875 -0.897566
vn 0.430972 -0.070313 -0.899622
vn 0.478166 0.066610 -0.875740
vn 0.510274 0.187328 -0.839362
vn 0.524411 0.294603 -0.798876
vn 0.524472 0.375080 -0.764359
vn 0.503145 0.445501 -0.740523
vn 0.261184 0.533387 -0.804538
vn 0.019358 0.533723 -0.845438
vn -0.236963 0.533195 -0.812128
vn 0.649419 0.665059 0.368716
vn 0.664415 0.559604 0.495375
vn 0.682453 0.419837 0.598327
vn 0.688423 0.233240 0.686785
vn 0.657131 0.025186 0.753356
vn 0.572985 -0.195583 0.795886
vn 0.424475 -0.420544 0.801850
vn 0.217946 -0.612200 0.760073
vn 0.042610 -0.749257 0.660907
vn -0.448281 -0.595706 0.666468
vn -0.475195 -0.476856 0.739458
vn -0.485905 -0.357997 0.797330
vn -0.532742 -0.183589 0.826124
vn -0.600161 0.058359 0.797748
vn -0.643439 0.309981 0.699927
vn -0.661845 0.461288 0.590910
vn -0.676550 0.526768 0.514583
vn -0.682353 0.594257 0.425737
vn -0.030521 0.922639 0.384456
vn -0.398088 0.836854 0.375767
vn 0.345369 0.882134 0.320249
vn 0.675253 0.727708 -0.120312
vn 0.617873 0.761246 0.196817
vn 0.643391 0.672900 -0.365040
vn 0.575904 0.606850 -0.547785
vn 0.458169 0.528297 -0.714831
vn -0.620404 0.590703 -0.515916
vn -0.489306 0.522459 -0.698296
vn -0.708299 0.655339 -0.262380
vn -0.718682 0.695100 0.018247
vn -0.659359 0.695117 0.286457
s 1
f 109/1/1 110/2/2 74/3/3 8/4/4
f 108/5/5 109/1/1 8/4/4 90/6/6
f 8/4/4 74/3/3 128/7/7 129/8/8
f 129/8/8 130/9/9 90/6/6 8/4/4
f 145/10/10 177/11/11 178/12/12 146/13/13
f 141/14/14 173/15/15 174/16/16 142/17/17
f 137/18/18 169/19/19 170/20/20 138/21/21
f 133/22/22 165/23/23 166/24/24 134/25/25
f 172/26/26 173/15/15 141/14/14 140/27/27
f 164/28/28 165/23/23 133/22/22 132/29/29
f 176/30/30 177/11/11 145/10/10 144/31/31
f 168/32/32 169/19/19 137/18/18 136/33/33
f 99/34/34 100/35/35 82/36/36 17/37/37
f 98/38/38 99/34/34 17/37/37 66/39/39
f 17/37/37 82/36/36 118/40/40 119/41/41
f 119/41/41 120/42/42 66/39/39 17/37/37
f 16/43/43 101/44/44 102/45/45 20/46/46
f 14/188/47 83/187/48 84/49/49 22/50/50
f 18/184/51 121/52/52 122/53/53 24/54/54
f 15/191/55 67/190/56 68/57/57 26/58/58
f 64/59/59 65/192/60 14/188/47 22/50/50
f 80/61/61 81/189/62 15/191/55 26/58/58
f 116/63/63 117/64/64 16/43/43 20/46/46
f 96/65/65 97/185/66 18/184/51 24/54/54
f 20/46/46 102/45/45 103/67/67 28/68/68
f 22/50/50 84/49/49 85/69/69 30/70/70
f 24/54/54 122/53/53 123/71/71 32/72/72
f 26/58/58 68/57/57 69/73/73 34/74/74
f 63/75/75 64/59/59 22/50/50 30/70/70
f 79/76/76 80/61/61 26/58/58 34/74/74
f 115/77/77 116/63/63 20/46/46 28/68/68
f 95/78/78 96/65/65 24/54/54 32/72/72
f 28/68/68 103/67/67 104/79/79 36/80/80
f 30/70/70 85/69/69 86/81/81 38/82/82
f 32/72/72 123/71/71 124/83/83 40/84/84
f 34/74/74 69/73/73 70/85/85 42/86/86
f 62/87/87 63/75/75 30/70/70 38/82/82
f 78/88/88 79/76/76 34/74/74 42/86/86
f 114/89/89 115/77/77 28/68/68 36/80/80
f 94/90/90 95/78/78 32/72/72 40/84/84
f 149/91/91 150/92/92 145/10/10 146/13/13
f 153/93/93 154/94/94 141/14/14 142/17/17
f 157/95/95 158/96/96 137/18/18 138/21/21
f 161/97/97 162/98/98 133/22/22 134/25/25
f 154/94/94 155/99/99 140/27/27 141/14/14
f 162/98/98 147/100/100 132/29/29 133/22/22
f 150/92/92 151/101/101 144/31/31 145/10/10
f 158/96/96 159/102/102 136/33/33 137/18/18
f 58/103/103 125/104/104 126/105/105 44/106/106
f 92/107/107 93/108/108 58/103/103 44/106/106
f 50/109/109 60/110/110 61/111/111 52/112/112
f 87/113/113 88/114/114 50/109/109 52/112/112
f 48/115/115 112/116/116 113/117/117 54/118/118
f 105/119/119 106/120/120 48/115/115 54/118/118
f 46/121/121 76/122/122 77/123/123 56/124/124
f 56/124/124 71/125/125 72/126/126 46/121/121
f 52/112/112 61/111/111 62/87/87 38/82/82
f 86/81/81 87/113/113 52/112/112 38/82/82
f 54/118/118 113/117/117 114/89/89 36/80/80
f 104/79/79 105/119/119 54/118/118 36/80/80
f 56/124/124 77/123/123 78/88/88 42/86/86
f 70/85/85 71/125/125 56/124/124 42/86/86
f 40/84/84 58/103/103 93/108/108 94/90/90
f 124/83/83 125/104/104 58/103/103 40/84/84
f 174/16/16 175/179/127 143/128/128 142/17/17
f 152/129/129 153/93/93 142/17/17 143/128/128
f 61/111/111 60/110/110 43/130/130 51/195/131
f 62/87/87 61/111/111 51/195/131 39/132/132
f 31/133/133 63/75/75 62/87/87 39/132/132
f 23/134/134 64/59/59 63/75/75 31/133/133
f 11/194/135 65/192/60 64/59/59 23/134/134
f 18/51/51 66/39/39 120/42/42 121/183/52
f 97/66/66 98/38/38 66/39/39 18/51/51
f 68/57/57 67/190/56 12/186/136 25/137/137
f 69/73/73 68/57/57 25/137/137 33/138/138
f 70/85/85 69/73/73 33/138/138 41/139/139
f 41/139/139 57/140/140 71/125/125 70/85/85
f 72/126/126 71/125/125 57/140/140 45/141/141
f 147/100/100 148/142/142 131/143/143 132/29/29
f 131/143/143 163/144/144 164/28/28 132/29/29
f 110/2/2 91/145/145 7/146/146 74/3/3
f 127/199/147 128/7/7 74/3/3 7/146/146
f 166/24/24 167/148/148 135/149/149 134/25/25
f 160/150/150 161/97/97 134/25/25 135/149/149
f 77/123/123 76/122/122 47/151/151 55/152/152
f 78/88/88 77/123/123 55/152/152 35/153/153
f 27/154/154 79/76/76 78/88/88 35/153/153
f 19/155/155 80/61/61 79/76/76 27/154/154
f 13/156/156 81/189/62 80/61/61 19/155/155
f 100/35/35 101/44/44 16/43/43 82/36/36
f 117/64/64 118/40/40 82/36/36 16/43/43
f 84/49/49 83/187/48 10/157/157 21/158/158
f 85/69/69 84/49/49 21/158/158 29/159/159
f 86/81/81 85/69/69 29/159/159 37/160/160
f 53/161/161 87/113/113 86/81/81 37/160/160
f 49/162/162 88/114/114 87/113/113 53/161/161
f 155/99/99 156/163/163 139/164/164 140/27/27
f 139/164/164 171/165/165 172/26/26 140/27/27
f 9/166/166 90/6/6 130/9/9 111/167/167
f 107/168/168 108/5/5 90/6/6 9/166/166
f 178/12/12 163/144/144 131/143/143 146/13/13
f 148/142/142 149/91/91 146/13/13 131/143/143
f 57/140/140 93/108/108 92/107/107 45/141/141
f 94/90/90 93/108/108 57/140/140 41/139/139
f 33/138/138 95/78/78 94/90/90 41/139/139
f 25/137/137 96/65/65 95/78/78 33/138/138
f 12/186/136 97/185/66 96/65/65 25/137/137
f 67/56/56 98/38/38 97/66/66 12/136/136
f 15/55/55 99/34/34 98/38/38 67/56/56
f 81/62/62 100/35/35 99/34/34 15/55/55
f 13/156/156 101/44/44 100/35/35 81/62/62
f 102/45/45 101/44/44 13/156/156 19/155/155
f 103/67/67 102/45/45 19/155/155 27/154/154
f 104/79/79 103/67/67 27/154/154 35/153/153
f 55/152/152 105/119/119 104/79/79 35/153/153
f 47/151/151 106/120/120 105/119/119 55/152/152
f 159/102/102 160/150/150 135/149/149 136/33/33
f 135/149/149 167/148/148 168/32/32 136/33/33
f 75/169/169 108/5/5 107/168/168 4/170/170
f 6/171/171 109/1/1 108/5/5 75/169/169
f 73/207/172 110/2/2 109/1/1 6/171/171
f 1/173/173 91/145/145 110/2/2 73/207/172
f 170/20/20 171/165/165 139/164/164 138/21/21
f 156/163/163 157/95/95 138/21/21 139/164/164
f 113/117/117 112/116/116 49/162/162 53/161/161
f 114/89/89 113/117/117 53/161/161 37/160/160
f 29/159/159 115/77/77 114/89/89 37/160/160
f 21/158/158 116/63/63 115/77/77 29/159/159
f 10/157/157 117/64/64 116/63/63 21/158/158
f 83/48/48 118/40/40 117/64/64 10/157/157
f 119/41/41 118/40/40 83/48/48 14/47/47
f 65/60/60 120/42/42 119/41/41 14/47/47
f 121/183/52 120/42/42 65/60/60 11/135/135
f 122/53/53 121/52/52 11/193/135 23/198/134
f 123/71/71 122/53/53 23/198/134 31/197/133
f 124/83/83 123/71/71 31/197/133 39/196/132
f 39/196/132 51/131/131 125/104/104 124/83/83
f 126/105/105 125/104/104 51/131/131 43/182/130
f 151/101/101 152/181/129 143/180/128 144/31/31
f 143/180/128 175/127/127 176/30/30 144/31/31
f 59/174/174 128/7/7 127/199/147 2/175/175
f 129/8/8 128/7/7 59/174/174 5/176/176
f 89/204/177 130/9/9 129/8/8 5/176/176
f 111/167/167 130/9/9 89/204/177 3/178/178
f 45/141/141 148/142/142 147/100/100 72/126/126
f 92/107/107 149/91/91 148/142/142 45/141/141
f 44/106/106 150/92/92 149/91/91 92/107/107
f 126/105/105 151/101/101 150/92/92 44/106/106
f 43/182/130 152/181/129 151/101/101 126/105/105
f 60/110/110 153/93/93 152/129/129 43/130/130
f 50/109/109 154/94/94 153/93/93 60/110/110
f 88/114/114 155/99/99 154/94/94 50/109/109
f 49/162/162 156/163/163 155/99/99 88/114/114
f 112/116/116 157/95/95 156/163/163 49/162/162
f 48/115/115 158/96/96 157/95/95 112/116/116
f 106/120/120 159/102/102 158/96/96 48/115/115
f 47/151/151 160/150/150 159/102/102 106/120/120
f 76/122/122 161/97/97 160/150/150 47/151/151
f 46/121/121 162/98/98 161/97/97 76/122/122
f 72/126/126 147/100/100 162/98/98 46/121/121
f 164/28/28 163/144/144 1/208/173 73/172/172
f 73/172/172 6/206/171 165/23/23 164/28/28
f 166/24/24 165/23/23 6/206/171 75/205/169
f 75/205/169 4/170/170 167/148/148 166/24/24
f 168/32/32 167/148/148 4/170/170 107/168/168
f 107/168/168 9/166/166 169/19/19 168/32/32
f 170/20/20 169/19/19 9/166/166 111/167/167
f 111/167/167 3/178/178 171/165/165 170/20/20
f 172/26/26 171/165/165 3/178/178 89/177/177
f 89/177/177 5/210/176 173/15/15 172/26/26
f 174/16/16 173/15/15 5/210/176 59/209/174
f 59/209/174 2/200/175 175/179/127 174/16/16
f 176/30/30 175/127/127 2/201/175 127/147/147
f 127/147/147 7/203/146 177/11/11 176/30/30
f 178/12/12 177/11/11 7/203/146 91/202/145
f 91/202/145 1/208/173 163/144/144 178/12/12
