# This file uses centimeters as units for non-parametric coordinates.

v 3.823300 -0.079733 0.771186
v 3.662023 0.074069 -0.500478
v 3.547270 1.313895 -0.496090
v 3.569721 0.959417 0.767868
v 3.610159 0.702267 -0.642346
v 3.715816 0.395467 0.958759
v 3.910913 -0.166059 0.118629
v 3.673763 1.375146 0.212494
v 3.475054 -0.554344 0.956963
v 3.338461 -0.840287 -0.023608
v 3.234005 -0.282948 -0.894511
v 3.031751 0.731806 -1.403061
v 3.040956 1.707884 -0.980348
v 2.730208 1.948101 -0.112123
v 3.118130 1.023964 0.995616
v 3.201254 0.093466 1.468605
v -3.288931 -1.877621 0.250909
v -3.543915 -1.495269 0.412874
v -3.907267 -1.047599 0.323361
v -3.792796 -1.004067 -0.658319
v -3.513537 -1.468751 -0.733032
v -3.307052 -1.894199 -0.570311
v -4.046469 -0.891545 -0.196906
v -3.293828 -2.055645 -0.141105
v 2.770363 -1.262102 1.140679
v 2.672257 -1.295550 -0.138505
v 2.538910 -0.665714 -1.327156
v 2.268479 0.706827 -2.210204
v 1.788183 2.310586 -2.064216
v 1.953550 2.261024 -0.389446
v 2.441243 1.063269 1.397248
v 2.677168 -0.283822 2.033935
v -0.155452 -2.360800 -0.341689
v -0.207020 -2.394268 1.205229
v -0.740638 -1.300114 2.715110
v -1.926576 1.069010 1.599313
v -2.393722 2.216361 -0.749537
v -1.581686 1.318166 -1.988226
v -0.953285 -0.275702 -2.307986
v -0.458498 -1.563038 -1.442158
v -2.846270 -2.004766 0.444369
v -3.073062 -1.355637 0.982222
v -3.829657 -0.587720 0.600166
v -3.960555 0.100471 -0.330407
v -3.532942 -0.543205 -0.932892
v -2.887655 -1.129814 -1.220414
v -2.845922 -1.934571 -0.803924
v -2.559230 -2.384597 -0.194324
v -3.056363 0.054193 -1.255889
v -3.759034 0.739545 -0.456788
v -3.590103 0.049771 0.982333
v -2.657014 -1.318340 1.448419
v -2.053041 -2.179596 0.721347
v -1.870997 -2.484735 -0.252946
v -2.090778 -1.819220 -1.003975
v -2.427864 -0.899865 -1.496930
v -1.177619 -1.683222 -1.262225
v -1.686802 -0.573459 -1.953187
v -2.333874 0.747466 -1.642759
v -3.286560 1.734361 -0.723481
v -2.893473 0.764138 1.369403
v -1.650833 -1.338605 2.252531
v -1.022923 -2.330147 1.030908
v -0.887241 -2.457948 -0.314363
v 3.189862 0.470413 1.320563
v 2.578440 0.337977 1.897964
v -1.252690 -0.250886 2.684672
v -2.204451 -0.392017 2.233276
v -3.091043 -0.685286 1.372852
v -3.431090 -1.046940 0.829564
v -3.223107 -0.917921 -1.111220
v -2.727622 -0.423806 -1.459337
v -2.001753 0.124111 -1.927859
v -1.265819 0.589256 -2.363787
v 2.059937 1.565534 -2.323915
v 3.089665 1.183364 -1.245056
v 3.188122 0.276573 -1.199418
v 2.462094 -0.088506 -1.897068
v -0.677713 -1.008636 -1.942151
v -1.402111 -1.180212 -1.661551
v -2.249198 -1.380790 -1.297935
v -2.926547 -1.520822 -1.036375
v -3.002671 -1.667039 0.713178
v -2.314791 -1.792508 1.150604
v -1.282529 -1.928474 1.709500
v -0.422197 -1.965946 2.050843
v 2.813545 -0.810914 1.750525
v 3.379161 -0.184102 1.290633
v 3.534548 -0.707476 0.436916
v 2.750653 -1.406631 0.464157
v -0.108499 -2.570367 0.365058
v -0.886702 -2.582156 0.339019
v -1.930391 -2.468267 0.252375
v -2.760421 -2.268570 0.123315
v -3.792999 -1.630245 -0.134147
v -4.082608 -0.212244 0.126540
v -3.903801 0.584725 0.298103
v -3.286252 1.522756 0.395271
v -2.347092 1.909550 0.423115
v 2.229072 1.747539 0.544476
v 3.023421 1.529137 0.438619
v 4.082609 0.698526 0.264260
v 2.937298 1.962633 -0.475411
v 1.828805 2.445013 -1.263718
v -1.947486 1.806631 -1.415842
v -2.729362 1.248205 -1.215338
v -3.405763 0.454949 -0.916086
v -3.824624 -0.233789 -0.626736
v -2.772610 -2.248748 -0.483871
v -1.961344 -2.198934 -0.659631
v -1.008605 -2.123282 -0.831032
v -0.288277 -2.004080 -0.915401
v 2.618940 -1.044405 -0.711785
v 3.366657 -0.613515 -0.407459
v 1.370683 -2.153632 1.340711
v 1.335752 -2.211668 0.408685
v 1.221101 -1.956108 -0.298266
v 1.103674 -1.618976 -0.945226
v 0.974619 -1.234205 -1.638071
v 0.805360 -0.630393 -2.313523
v 0.575102 0.294674 -2.773005
v 0.327206 1.394579 -2.974376
v 0.095253 2.254011 -2.479607
v -0.113424 2.497442 -1.609571
v -0.215415 2.468013 -0.648490
v -0.068857 2.010337 0.534958
v 0.351736 1.125750 1.924728
v 0.868256 -0.000228 2.906207
v 1.168706 -0.941423 2.954869
v 1.310385 -1.691995 2.288438
v 0.852207 2.424516 -0.575596
v 0.848121 2.582156 -1.537522
v 0.992462 2.457358 -2.425109
v 1.153634 1.619246 -2.901794
v 1.334702 0.523042 -2.721495
v 1.538641 -0.418423 -2.278649
v 1.669074 -1.009108 -1.578197
v 1.768181 -1.377090 -0.876314
v 1.861216 -1.676787 -0.232395
v 1.976262 -1.876391 0.443741
v 2.067803 -1.775354 1.282864
v 2.087002 -1.328300 2.103685
v 2.018959 -0.617200 2.602560
v 1.840245 0.179787 2.569660
v 1.504231 1.095445 1.847409
v 1.101122 1.919706 0.603389
v -1.222163 2.051399 0.472880
v -1.327077 2.441201 -0.717017
v -1.064364 2.234997 -1.560735
v -0.782314 1.846272 -2.303772
v -0.503259 1.027629 -2.756928
v -0.205435 0.017787 -2.610819
v 0.057054 -0.828024 -2.182733
v 0.259293 -1.417737 -1.581822
v 0.413363 -1.834059 -0.957082
v 0.542639 -2.191948 -0.336418
v 0.628530 -2.449388 0.384918
v 0.595628 -2.351354 1.312360
v 0.450824 -1.899451 2.259335
v 0.217373 -1.171226 2.974376
v -0.198846 -0.132997 2.935786
v -0.800980 1.161738 1.820049
vt 0.262577 0.565200
vt 0.213387 0.523931
vt 0.192060 0.524455
vt 0.188775 0.507630
vt 0.220293 0.623759
vt 0.223374 0.637148
vt 0.206928 0.638196
vt 0.202615 0.625426
vt 0.201212 0.612696
vt 0.218365 0.613563
vt 0.117064 0.573420
vt 0.132249 0.570801
vt 0.134071 0.582929
vt 0.118337 0.585248
vt 0.114276 0.562339
vt 0.129721 0.559384
vt 0.121008 0.517737
vt 0.124197 0.533575
vt 0.108435 0.537643
vt 0.104937 0.523478
vt 0.100050 0.508595
vt 0.117127 0.500271
vt 0.070517 0.470985
vt 0.112791 0.729088
vt 0.102251 0.470310
vt 0.084257 0.482299
vt 0.095670 0.699572
vt 0.116016 0.705929
vt 0.134729 0.629753
vt 0.130659 0.648658
vt 0.111339 0.649013
vt 0.116557 0.630152
vt 0.117609 0.613991
vt 0.134820 0.613124
vt 0.199447 0.450397
vt 0.277029 0.605820
vt 0.216352 0.467837
vt 0.187478 0.462265
vt 0.212677 0.682253
vt 0.262843 0.613789
vt 0.196554 0.556387
vt 0.223961 0.568864
vt 0.215076 0.573374
vt 0.197143 0.569776
vt 0.216344 0.586458
vt 0.197168 0.582226
vt 0.164157 0.580503
vt 0.162634 0.568200
vt 0.177750 0.568320
vt 0.178899 0.580806
vt 0.160821 0.556135
vt 0.176391 0.555698
vt 0.155439 0.527639
vt 0.152611 0.510078
vt 0.167733 0.508097
vt 0.170837 0.525977
vt 0.150130 0.490838
vt 0.165137 0.489208
vt 0.143936 0.457569
vt 0.165694 0.727814
vt 0.190400 0.719965
vt 0.165339 0.457199
vt 0.165354 0.702473
vt 0.189828 0.693294
vt 0.169514 0.644175
vt 0.169004 0.628117
vt 0.185915 0.627047
vt 0.188115 0.640948
vt 0.167689 0.612267
vt 0.183687 0.611969
vt 0.184407 0.490721
vt 0.268978 0.573346
vt 0.067679 0.498651
vt 0.031177 0.610772
vt 0.028830 0.620217
vt 0.056995 0.491096
vt 0.062987 0.674420
vt 0.076321 0.685886
vt 0.092119 0.630223
vt 0.087248 0.646467
vt 0.067755 0.628340
vt 0.079297 0.627876
vt 0.079274 0.616614
vt 0.095111 0.615688
vt 0.096638 0.578288
vt 0.097196 0.589088
vt 0.080774 0.593549
vt 0.081706 0.583109
vt 0.077777 0.573016
vt 0.094129 0.567865
vt 0.087641 0.531339
vt 0.089740 0.543576
vt 0.051430 0.581818
vt 0.042260 0.581228
vt 0.069622 0.529539
vt 0.082443 0.520191
vt 0.232461 0.609393
vt 0.244599 0.611709
vt 0.246111 0.621441
vt 0.210452 0.657695
vt 0.190480 0.662778
vt 0.167880 0.670916
vt 0.122511 0.678842
vt 0.101876 0.675855
vt 0.082254 0.667400
vt 0.053160 0.629821
vt 0.067126 0.615164
vt 0.056294 0.619647
vt 0.052114 0.594992
vt 0.044438 0.602744
vt 0.033359 0.599374
vt 0.076057 0.508596
vt 0.093525 0.494504
vt 0.111250 0.483885
vt 0.147800 0.473303
vt 0.164490 0.473088
vt 0.276034 0.584310
vt 0.180384 0.474531
vt 0.261159 0.589285
vt 0.251748 0.580482
vt 0.238943 0.576622
vt 0.237003 0.563259
vt 0.194461 0.541164
vt 0.173919 0.541785
vt 0.158263 0.543004
vt 0.126946 0.547348
vt 0.111410 0.550606
vt 0.092133 0.555965
vt 0.062212 0.581702
vt 0.061667 0.591910
vt 0.072158 0.606031
vt 0.080968 0.604580
vt 0.097116 0.601573
vt 0.118304 0.598826
vt 0.134682 0.597158
vt 0.165869 0.595471
vt 0.181139 0.595699
vt 0.215865 0.600221
vt 0.197743 0.596826
vt 0.226058 0.600585
vt 0.068975 0.597326
vt 0.059725 0.605576
vt 0.047167 0.613092
vt 0.255366 0.602302
vt 0.242296 0.597287
vt 0.229729 0.587086
vt 0.149032 0.581294
vt 0.150415 0.596010
vt 0.147290 0.569047
vt 0.145088 0.557353
vt 0.142587 0.544758
vt 0.139884 0.530210
vt 0.136842 0.513250
vt 0.134036 0.494398
vt 0.129572 0.476541
vt 0.122501 0.461664
vt 0.112998 0.446859
vt 0.140417 0.706904
vt 0.145261 0.676758
vt 0.150206 0.646911
vt 0.152141 0.629190
vt 0.151525 0.612644
vt 0.138864 0.731536
vt 0.089124 0.458186
vt 0.170778 0.440015
vt 0.141386 0.438753
vt 0.215872 0.560055
vt 0.213031 0.542244
vt 0.072627 0.583434
vt 0.055658 0.511675
vt 0.063119 0.519815
vt 0.277329 0.596968
vt 0.217820 0.459083
vt 0.039405 0.625737
vt 0.050465 0.503610
vt 0.061142 0.687885
vt 0.075095 0.548274
vt 0.076375 0.560806
vt 0.251374 0.564070
vt 0.210593 0.508836
vt 0.213446 0.496039
vt 0.038776 0.589191
vt 0.076442 0.536683
vt 0.073555 0.642505
vt 0.068407 0.659165
vt 0.089822 0.721236
vt 0.070648 0.701369
vt 0.213249 0.706087
vt 0.214009 0.480876
vt 0.228555 0.674136
vt 0.225651 0.655885
vt 0.230047 0.623490
vt 0.226935 0.691359
vn 0.745548 0.025583 -0.665961
vn 0.752462 -0.174239 -0.635171
vn 0.583303 -0.354998 -0.730571
vn 0.601244 -0.073811 -0.795649
vn 0.675575 0.113357 0.728524
vn 0.549825 0.408069 0.728816
vn 0.506600 0.470746 0.722326
vn 0.668140 -0.013045 0.743921
vn 0.699109 -0.446493 0.558472
vn 0.754170 -0.229917 0.615115
vn 0.021759 -0.933307 -0.358419
vn 0.136874 -0.901611 -0.410320
vn 0.073681 -0.997209 -0.012081
vn -0.063735 -0.992661 0.102771
vn -0.008866 -0.779644 -0.626161
vn 0.092146 -0.798366 -0.595080
vn -0.280484 -0.334632 -0.899639
vn -0.127722 -0.585674 -0.800420
vn -0.183411 -0.570359 -0.800657
vn -0.336388 -0.331672 -0.881383
vn -0.486365 -0.030208 -0.873233
vn -0.454182 0.007145 -0.890880
vn -0.679159 0.678677 -0.279537
vn -0.364101 0.923600 -0.119975
vn -0.442710 0.604614 -0.662156
vn -0.542252 0.326089 -0.774357
vn -0.609782 0.677973 0.410510
vn -0.271713 0.846880 0.457128
vn -0.268455 -0.424017 0.864952
vn -0.323541 0.277842 0.904503
vn -0.520785 0.092837 0.848625
vn -0.444412 -0.483492 0.754144
vn -0.301498 -0.797679 0.522309
vn -0.144071 -0.816420 0.559198
vn 0.169533 0.935183 0.310952
vn 0.302045 0.888465 0.345542
vn 0.515891 0.856569 -0.012122
vn 0.318367 0.947459 -0.031031
vn 0.210642 0.845320 0.490983
vn 0.338325 0.797066 0.500222
vn 0.496582 -0.736055 -0.460031
vn 0.689841 -0.586909 -0.423860
vn 0.657437 -0.714105 -0.240478
vn 0.510792 -0.800873 -0.312560
vn 0.748835 -0.660837 0.050409
vn 0.593566 -0.804546 -0.019614
vn 0.377967 -0.917970 -0.120303
vn 0.349861 -0.838698 -0.417353
vn 0.422422 -0.825424 -0.374480
vn 0.492428 -0.864254 -0.102861
vn 0.297502 -0.813182 -0.500227
vn 0.385362 -0.796056 -0.466681
vn 0.119088 -0.561051 -0.819170
vn 0.019729 -0.290549 -0.956657
vn 0.334940 -0.196425 -0.921538
vn 0.360313 -0.480440 -0.799595
vn -0.121812 0.140286 -0.982589
vn 0.271375 0.214082 -0.938363
vn -0.169384 0.970159 -0.173496
vn -0.030366 0.977877 0.206967
vn 0.053866 0.958325 0.280556
vn 0.029623 0.999259 -0.024593
vn 0.011444 0.886266 0.463035
vn 0.091721 0.875922 0.473653
vn 0.073492 0.446275 0.891873
vn 0.241673 -0.259706 0.934958
vn 0.514340 -0.137362 0.846514
vn 0.317054 0.476903 0.819780
vn 0.319496 -0.725761 0.609257
vn 0.553469 -0.602641 0.574887
vn 0.624898 0.247708 -0.740367
vn 0.755299 0.258594 -0.602207
vn -0.645999 0.161374 -0.746085
vn -0.808106 0.073256 -0.584465
vn -0.922511 0.174347 -0.344350
vn -0.874053 0.360740 -0.325419
vn -0.984331 0.065677 0.163642
vn -0.864343 0.370817 0.339715
vn -0.555007 -0.498266 0.666107
vn -0.662977 -0.110478 0.740444
vn -0.683257 -0.326275 0.653226
vn -0.593411 -0.522156 0.612549
vn -0.491455 -0.658089 0.570430
vn -0.398350 -0.754437 0.521672
vn -0.072086 -0.955558 -0.285855
vn -0.175787 -0.957569 0.228387
vn -0.352293 -0.888041 0.295421
vn -0.222921 -0.962803 -0.152695
vn -0.260897 -0.846117 -0.464778
vn -0.071670 -0.775688 -0.627034
vn -0.360832 -0.329879 -0.872342
vn -0.209835 -0.538731 -0.815928
vn -0.323516 -0.466510 -0.823229
vn -0.383424 -0.319800 -0.866437
vn -0.522297 -0.167929 -0.836065
vn -0.499355 -0.072345 -0.863372
vn 0.802237 0.146231 0.578820
vn 0.579718 0.537243 0.612615
vn 0.415659 0.644736 0.641517
vn 0.333102 0.719186 0.609766
vn 0.169233 0.754654 0.633923
vn 0.010878 0.754158 0.656603
vn -0.275397 0.632956 0.723549
vn -0.526400 0.430983 0.732910
vn -0.733183 0.151663 0.662904
vn -0.830060 -0.121894 0.544189
vn -0.692432 -0.512199 0.508123
vn -0.852800 -0.304913 0.423981
vn -0.652865 -0.414270 -0.634151
vn -0.774974 -0.198601 -0.599978
vn -0.653938 -0.014844 -0.756403
vn -0.579771 0.091454 -0.809630
vn -0.552587 0.197357 -0.809751
vn -0.532766 0.346576 -0.772040
vn -0.242048 0.712766 -0.658314
vn 0.129399 0.801543 -0.583767
vn 0.693991 0.598862 -0.399676
vn 0.508980 0.716101 -0.477639
vn 0.815337 0.460963 -0.350341
vn 0.865416 0.100080 -0.490958
vn 0.846225 -0.195845 -0.495528
vn 0.710251 -0.425572 -0.560743
vn 0.542288 -0.608077 -0.579798
vn 0.376302 -0.716818 -0.587000
vn 0.219930 -0.759453 -0.612260
vn -0.010497 -0.723948 -0.689775
vn -0.086678 -0.682936 -0.725318
vn -0.122977 -0.650679 -0.749328
vn -0.255377 -0.646656 -0.718762
vn -0.548075 -0.650768 -0.525467
vn -0.544497 -0.692819 0.472785
vn -0.404351 -0.758170 0.511546
vn -0.290888 -0.843042 0.452398
vn -0.191541 -0.901463 0.388170
vn -0.045911 -0.940797 0.335848
vn 0.352719 -0.894268 0.275453
vn 0.534548 -0.804125 0.260082
vn 0.766364 -0.532556 0.359264
vn 0.655309 -0.697629 0.289627
vn 0.891807 -0.260320 0.370019
vn -0.594043 -0.804379 -0.009330
vn -0.837393 -0.545436 -0.035678
vn -0.970719 -0.196047 -0.138820
vn 0.749633 0.647479 0.137190
vn 0.984176 0.177105 -0.005591
vn 0.940176 -0.302401 -0.156917
vn 0.223845 -0.970926 -0.084831
vn 0.137017 -0.942703 0.304199
vn 0.248156 -0.868690 -0.428716
vn 0.196159 -0.812217 -0.549386
vn 0.091219 -0.754031 -0.650474
vn -0.034972 -0.583866 -0.811096
vn -0.172356 -0.326797 -0.929246
vn -0.348061 0.060972 -0.935487
vn -0.448815 0.533240 -0.717092
vn -0.330045 0.847083 -0.416558
vn -0.157602 0.985382 0.064676
vn -0.090151 0.881967 0.462608
vn -0.117083 0.715790 0.688430
vn -0.137095 0.382270 0.913824
vn -0.044139 -0.351695 0.935074
vn 0.060370 -0.797508 0.600281
s 1
f 12/180/1 77/2/2 78/3/3 28/4/4
f 16/5/5 65/6/6 66/7/7 32/8/8
f 87/9/9 88/10/10 16/5/5 32/8/8
f 64/11/11 33/12/12 91/13/13 92/14/14
f 111/15/15 112/16/16 33/12/12 64/11/11
f 39/17/17 79/18/18 80/19/19 58/20/20
f 73/21/21 74/22/22 39/17/17 58/20/20
f 60/23/23 37/164/24 105/25/25 106/26/26
f 98/27/27 99/28/28 37/24/24 60/186/23
f 35/29/29 67/30/30 68/31/31 62/32/32
f 85/33/33 86/34/34 35/29/29 62/32/32
f 30/35/35 14/173/36 103/37/37 104/38/38
f 100/39/39 101/190/40 14/193/36 30/188/35
f 113/41/41 114/167/42 10/43/43 26/44/44
f 26/44/44 10/43/43 89/45/45 90/46/46
f 116/47/47 117/48/48 139/49/49 140/50/50
f 117/48/48 118/51/51 138/52/52 139/49/49
f 120/53/53 121/54/54 135/55/55 136/56/56
f 135/55/55 121/54/54 122/57/57 134/58/58
f 124/59/59 125/166/60 131/165/61 132/62/62
f 125/60/60 126/63/63 146/64/64 131/61/61
f 128/65/65 129/66/66 143/67/67 144/68/68
f 143/67/67 129/66/66 130/69/69 142/70/70
f 75/71/71 76/181/72 12/180/1 28/4/4
f 107/73/73 108/170/74 44/175/75 50/76/76
f 44/176/75 96/77/77 97/78/78 50/187/76
f 52/79/79 69/80/80 70/184/81 42/82/82
f 83/83/83 84/84/84 52/79/79 42/82/82
f 54/85/85 93/86/86 94/87/87 48/88/88
f 48/88/88 109/89/89 110/90/90 54/85/85
f 56/91/91 81/92/92 82/177/93 46/183/94
f 71/95/95 72/96/96 56/91/91 46/183/94
f 58/20/20 80/19/19 81/92/92 56/91/91
f 72/96/96 73/21/21 58/20/20 56/91/91
f 50/76/76 60/23/23 106/26/26 107/73/73
f 97/78/78 98/27/27 60/186/23 50/187/76
f 62/32/32 68/31/31 69/80/80 52/79/79
f 84/84/84 85/33/33 62/32/32 52/79/79
f 54/85/85 64/11/11 92/14/14 93/86/86
f 110/90/90 111/15/15 64/11/11 54/85/85
f 65/192/6 6/97/97 4/98/98 15/99/99
f 66/7/7 65/6/6 15/191/99 31/100/100
f 145/101/101 127/102/102 128/65/65 144/68/68
f 68/31/31 67/30/30 36/103/103 61/104/104
f 69/80/80 68/31/31 61/104/104 51/105/105
f 70/184/81 69/80/80 51/105/105 43/185/106
f 18/107/107 70/81/81 43/106/106 19/108/108
f 71/182/95 21/109/109 20/110/110 45/111/111
f 45/171/111 49/112/112 72/96/96 71/95/95
f 59/113/113 73/21/21 72/96/96 49/112/112
f 38/114/114 74/22/22 73/21/21 59/113/113
f 134/58/58 122/57/57 123/115/115 133/116/116
f 13/189/117 76/181/72 75/71/71 29/118/118
f 3/119/119 5/120/120 76/72/72 13/117/117
f 77/179/2 5/120/120 2/121/121 11/122/122
f 78/3/3 77/2/2 11/168/122 27/123/123
f 137/124/124 119/125/125 120/53/53 136/56/56
f 80/19/19 79/18/18 40/126/126 57/127/127
f 81/92/92 80/19/19 57/127/127 55/128/128
f 82/177/93 81/92/92 55/128/128 47/178/129
f 22/130/130 21/109/109 82/93/93 47/129/129
f 83/83/83 18/107/107 17/131/131 41/132/132
f 53/133/133 84/84/84 83/83/83 41/132/132
f 53/133/133 63/134/134 85/33/33 84/84/84
f 34/135/135 86/34/34 85/33/33 63/134/134
f 142/70/70 130/69/69 115/136/136 141/137/137
f 9/138/138 88/10/10 87/9/9 25/139/139
f 1/140/140 6/97/97 88/10/10 9/138/138
f 90/46/46 89/45/45 9/138/138 25/139/139
f 141/137/137 115/136/136 116/47/47 140/50/50
f 92/14/14 91/13/13 34/135/135 63/134/134
f 93/86/86 92/14/14 63/134/134 53/133/133
f 94/87/87 93/86/86 53/133/133 41/132/132
f 24/141/141 94/87/87 41/132/132 17/131/131
f 18/107/107 95/142/142 24/141/141 17/131/131
f 19/108/108 23/143/143 95/142/142 18/107/107
f 96/174/77 23/143/143 19/108/108 43/106/106
f 97/78/78 96/77/77 43/185/106 51/105/105
f 51/105/105 61/104/104 98/27/27 97/78/78
f 36/103/103 99/28/28 98/27/27 61/104/104
f 146/64/64 126/63/63 127/102/102 145/101/101
f 15/191/99 101/190/40 100/39/39 31/100/100
f 8/144/144 101/40/40 15/99/99 4/98/98
f 6/97/97 102/145/145 8/144/144 4/98/98
f 7/146/146 102/145/145 6/97/97 1/140/140
f 89/45/45 7/146/146 1/140/140 9/138/138
f 8/144/144 102/145/145 5/120/120 3/119/119
f 103/172/37 8/144/144 3/119/119 13/117/117
f 104/38/38 103/37/37 13/189/117 29/118/118
f 133/116/116 123/115/115 124/59/59 132/62/62
f 106/26/26 105/25/25 38/114/114 59/113/113
f 107/73/73 106/26/26 59/113/113 49/112/112
f 45/171/111 108/170/74 107/73/73 49/112/112
f 23/143/143 108/74/74 45/111/111 20/110/110
f 21/109/109 95/142/142 23/143/143 20/110/110
f 24/141/141 95/142/142 21/109/109 22/130/130
f 22/130/130 47/129/129 109/169/89 24/141/141
f 110/90/90 109/89/89 47/178/129 55/128/128
f 55/128/128 57/127/127 111/15/15 110/90/90
f 40/126/126 112/16/16 111/15/15 57/127/127
f 138/52/52 118/51/51 119/125/125 137/124/124
f 11/168/122 114/167/42 113/41/41 27/123/123
f 7/146/146 114/42/42 11/122/122 2/121/121
f 5/120/120 102/145/145 7/146/146 2/121/121
f 89/45/45 10/43/43 114/42/42 7/146/146
f 65/192/6 16/5/5 88/10/10 6/97/97
f 14/36/36 101/40/40 8/144/144 103/172/37
f 77/179/2 12/1/1 76/72/72 5/120/120
f 71/182/95 46/94/94 82/93/93 21/109/109
f 48/88/88 94/87/87 24/141/141 109/169/89
f 96/174/77 44/75/75 108/74/74 23/143/143
f 42/82/82 70/81/81 18/107/107 83/83/83
f 34/135/135 91/13/13 157/147/147 158/148/148
f 156/149/149 157/147/147 91/13/13 33/12/12
f 112/16/16 155/150/150 156/149/149 33/12/12
f 154/151/151 155/150/150 112/16/16 40/126/126
f 40/126/126 79/18/18 153/152/152 154/151/151
f 152/153/153 153/152/152 79/18/18 39/17/17
f 39/17/17 74/22/22 151/154/154 152/153/153
f 150/155/155 151/154/154 74/22/22 38/114/114
f 38/114/114 105/25/25 149/156/156 150/155/155
f 148/157/157 149/156/156 105/25/25 37/164/24
f 37/24/24 99/28/28 147/158/158 148/163/157
f 162/159/159 147/158/158 99/28/28 36/103/103
f 36/103/103 67/30/30 161/160/160 162/159/159
f 160/161/161 161/160/160 67/30/30 35/29/29
f 35/29/29 86/34/34 159/162/162 160/161/161
f 158/148/148 159/162/162 86/34/34 34/135/135
f 104/38/38 132/62/62 131/165/61 30/35/35
f 133/116/116 132/62/62 104/38/38 29/118/118
f 75/71/71 134/58/58 133/116/116 29/118/118
f 135/55/55 134/58/58 75/71/71 28/4/4
f 78/3/3 136/56/56 135/55/55 28/4/4
f 137/124/124 136/56/56 78/3/3 27/123/123
f 113/41/41 138/52/52 137/124/124 27/123/123
f 26/44/44 139/49/49 138/52/52 113/41/41
f 90/46/46 140/50/50 139/49/49 26/44/44
f 141/137/137 140/50/50 90/46/46 25/139/139
f 87/9/9 142/70/70 141/137/137 25/139/139
f 143/67/67 142/70/70 87/9/9 32/8/8
f 66/7/7 144/68/68 143/67/67 32/8/8
f 145/101/101 144/68/68 66/7/7 31/100/100
f 100/39/39 146/64/64 145/101/101 31/100/100
f 131/61/61 146/64/64 100/39/39 30/188/35
f 148/163/157 147/158/158 126/63/63 125/60/60
f 125/166/60 124/59/59 149/156/156 148/157/157
f 150/155/155 149/156/156 124/59/59 123/115/115
f 123/115/115 122/57/57 151/154/154 150/155/155
f 152/153/153 151/154/154 122/57/57 121/54/54
f 121/54/54 120/53/53 153/152/152 152/153/153
f 154/151/151 153/152/152 120/53/53 119/125/125
f 119/125/125 118/51/51 155/150/150 154/151/151
f 156/149/149 155/150/150 118/51/51 117/48/48
f 117/48/48 116/47/47 157/147/147 156/149/149
f 158/148/148 157/147/147 116/47/47 115/136/136
f 115/136/136 130/69/69 159/162/162 158/148/148
f 160/161/161 159/162/162 130/69/69 129/66/66
f 129/66/66 128/65/65 161/160/160 160/161/161
f 162/159/159 161/160/160 128/65/65 127/102/102
f 127/102/102 126/63/63 147/158/158 162/159/159
